---
:request:
  :url: https://api.skroutz.gr/categories/40/skus?filter_ids[]=355559&filter_ids[]=6282
  :headers:
    :accept: application/vnd.skroutz+json; version=3.1
    :authorization: Bearer VSkzjtrNKLUAkOUFNBHv5vRrDjMowQXQ0uqKElVEds3GCcE5oBn/lqWKIkwkHONY57MbbB/rSzFVr/sDjGyN5w==
  :params:
    :per: 4
  :verb: :get
:response:
  :status: 200
  :headers:
    server: nginx
    date: Wed, 05 Oct 2016 13:59:54 GMT
    content-type: application/json; charset=utf-8
    vary: Accept-Encoding
    x-ratelimit-limit: '100'
    x-ratelimit-remaining: '54'
    x-ratelimit-reset: '1475676000'
    x-frame-options: SAMEORIGIN
    x-xss-protection: 1; mode=block
    x-content-type-options: nosniff
    etag: W/"193f141eae2c85791366056a4225b955"
    cache-control: max-age=0, private, must-revalidate
    x-request-id: '725316923'
    x-runtime: '0.076237'
    x-dns-prefetch-control: 'off'
    access-control-allow-origin: "*"
    access-control-allow-methods: HEAD, GET, POST, PUT, DELETE
    x-app: rontok
    x-varnish: '725316922'
    age: '0'
    via: 1.1 varnish-v4
    x-origin: lb2
    x-cache: MISS
    x-cached: skroutz miss(0)
    accept-ranges: bytes
    transfer-encoding: chunked
    connection: close
  :body: '{"skus":[{"id":9126201,"ean":"","pn":"C1-WH C1-BK","name":"C1 (4GB)","display_name":"Oukitel
    C1 (4GB)","category_id":40,"first_product_shop_info":null,"click_url":null,"price_max":49.9,"price_min":41.2,"reviewscore":0.0,"shop_count":11,"plain_spec_summary":"SmartPhone,
    SIM: Dual, Οθόνη: 4\", 800 x 480 pixels, CPU: 1200 MHz, Πυρήνες CPU: 4, RAM: 514
    MB, Μνήμη Αποθήκευσης: 4 GB, Δίκτυο: 3G, Κάμερα: 2 MP, Λειτουργικό: Android, Μπαταρία:
    1500 mAh","manufacturer_id":26414,"future":false,"reviews_count":0,"virtual":false,"images":{"main":"https://c.scdn.gr/images/sku_main_images/009126/9126201/medium_20160530143152_oukitel_c1_4gb.jpeg","alternatives":["https://c.scdn.gr/images/sku_images/014961/14961484/20160530143151_b9d4b5bb.jpeg","https://c.scdn.gr/images/sku_images/014961/14961482/20160530143150_3f60eae8.jpeg","https://d.scdn.gr/images/sku_images/014961/14961483/20160530143151_653ea04f.jpeg","https://a.scdn.gr/images/sku_images/014961/14961485/20160530143156_b8d713b9.jpeg","https://b.scdn.gr/images/sku_images/014961/14961487/20160530143159_e4e75000.jpeg","https://c.scdn.gr/images/sku_images/014961/14961486/20160530143159_79cf8029.jpeg"]},"web_uri":"https://www.skroutz.gr/s/9126201/Oukitel-C1-4GB.html","favorited":false},{"id":9542574,"ean":"","pn":"L110","name":"Blade
    L110 (8GB)","display_name":"ZTE Blade L110 (8GB)","category_id":40,"first_product_shop_info":null,"click_url":null,"price_max":65.0,"price_min":48.79,"reviewscore":4.0,"shop_count":8,"plain_spec_summary":"SmartPhone,
    SIM: Dual, Οθόνη: 4\", 800 x 480 pixels, CPU: 1300 MHz, Πυρήνες CPU: 4, RAM: 1
    GB, Μνήμη Αποθήκευσης: 8 GB, Δίκτυο: 3G, Κάμερα: 5 MP, Λειτουργικό: Android, Μπαταρία:
    1400 mAh","manufacturer_id":4834,"future":false,"reviews_count":3,"virtual":false,"images":{"main":"https://c.scdn.gr/images/sku_main_images/009542/9542574/medium_20160804134631_zte_blade_l110_4gb.jpeg","alternatives":["https://b.scdn.gr/images/sku_images/015749/15749558/20160804134626_228fc52b.jpeg","https://d.scdn.gr/images/sku_images/015749/15749559/20160804134638_9e77f22e.jpeg"]},"web_uri":"https://www.skroutz.gr/s/9542574/ZTE-Blade-L110-8GB.html","favorited":false},{"id":9034860,"ean":"","pn":"","name":"Z1
    (4GB)","display_name":"Leagoo Z1 (4GB)","category_id":40,"first_product_shop_info":"2612|Deltabox|deltabox","click_url":null,"price_max":49.99,"price_min":49.99,"reviewscore":5.0,"shop_count":1,"plain_spec_summary":"SmartPhone,
    SIM: Dual, Οθόνη: 3.97\", 800 x 480 pixels, CPU: 1300 MHz, Πυρήνες CPU: 4, RAM:
    512 MB, Μνήμη Αποθήκευσης: 4 GB, Δίκτυο: 3G, Κάμερα: 3 MP, Λειτουργικό: Android,
    Μπαταρία: 1400 mAh","manufacturer_id":17153,"future":false,"reviews_count":1,"virtual":false,"images":{"main":"https://d.scdn.gr/images/sku_main_images/009034/9034860/medium_20160517113226_leagoo_z1_4gb.jpeg","alternatives":["https://c.scdn.gr/images/sku_images/014954/14954727/20160517113228_5d5bcfca.jpeg","https://b.scdn.gr/images/sku_images/014954/14954728/20160517113230_d5b80619.jpeg","https://a.scdn.gr/images/sku_images/014954/14954729/20160517113235_edeb1a9c.jpeg","https://a.scdn.gr/images/sku_images/014954/14954731/20160517113236_8c6a65db.jpeg","https://d.scdn.gr/images/sku_images/014954/14954730/20160517113235_34657f6b.jpeg","https://a.scdn.gr/images/sku_images/014954/14954732/20160517113240_d6d93c04.jpeg"]},"web_uri":"https://www.skroutz.gr/s/9034860/Leagoo-Z1-4GB.html","favorited":false},{"id":9981614,"ean":"","pn":"4034D","name":"OneTouch
    Pixi 4 (4) (4GB)","display_name":"Alcatel OneTouch Pixi 4 (4) (4GB)","category_id":40,"first_product_shop_info":null,"click_url":null,"price_max":54.0,"price_min":52.9,"reviewscore":0.0,"shop_count":2,"plain_spec_summary":"SmartPhone,
    SIM: Dual, Οθόνη: 4.0\", 800 x 480 pixels, CPU: 1300 MHz, Πυρήνες CPU: 4, RAM:
    512 MB, Μνήμη Αποθήκευσης: 4 GB, Δίκτυο: 3G, Κάμερα: 2.0 MP, Λειτουργικό: Android,
    Μπαταρία: 1500 mAh","manufacturer_id":417,"future":false,"reviews_count":0,"virtual":false,"images":{"main":"https://a.scdn.gr/images/sku_main_images/009981/9981614/medium_20160929115001_alcatel_onetouch_pixi_4_4_4gb.jpeg","alternatives":["https://a.scdn.gr/images/sku_images/016044/16044945/20160929115004_43e75a87.jpeg","https://b.scdn.gr/images/sku_images/016044/16044943/20160929115003_7e7f1c19.jpeg","https://c.scdn.gr/images/sku_images/016044/16044944/20160929115003_5e9954a5.jpeg","https://c.scdn.gr/images/sku_images/016044/16044946/20160929115004_3972360b.jpeg","https://a.scdn.gr/images/sku_images/016044/16044947/20160929115005_fac3c512.jpeg"]},"web_uri":"https://www.skroutz.gr/s/9981614/Alcatel-OneTouch-Pixi-4-4-4GB.html","favorited":false}],"meta":{"ordered_by":"price","pagination":{"total_results":317,"total_pages":80,"page":1,"per":4}}}'
:created_at: 2016-10-05 16:59:54.080497802 +03:00
:meta:
  :description: Lists skus filtered given filters.
