---
:request:
  :url: http://api.skroutz.gr/api/categories/40/skus
  :headers:
    :accept: application/vnd.skroutz+json; version=3.1
    :authorization: Bearer h2GTSZPqbSc7bKiyYS1j3gNd_1PoNDBLNQzdCgnBonNmTZ9r8eRMBMe-SvM8waex8TRa5kFU_Wn5bffjEZwQew==
  :params:
    :page: 1
    :per: 3
  :verb: :get
:response:
  :status: 200
  :headers:
    date: Tue, 30 Jan 2018 15:59:00 GMT
    connection: close
    content-length: '1556'
    server: h2o (Debian)
    content-type: application/json; charset=utf-8
    vary: Accept-Encoding
    x-ratelimit-limit: '100'
    x-ratelimit-remaining: '99'
    x-ratelimit-reset: '1517328000'
    content-security-policy-report-only: 'default-src https: data: gsa: wss://ws.inspectlet.com;
      script-src https: data: asset: about: ''unsafe-inline'' ''unsafe-eval''; style-src
      https: ''unsafe-inline''; child-src *; report-uri https://f30d08e43da6ef6d7fb9c3dd5486561c.report-uri.io/r/default/csp/reportOnly'
    etag: W/"28770faf53bad962c4b326397ee15e03"
    cache-control: max-age=0, private, must-revalidate
    x-request-id: '455683503'
    x-runtime: '0.065714'
    strict-transport-security: max-age=300
    x-dns-prefetch-control: 'off'
    access-control-allow-origin: "*"
    access-control-allow-methods: HEAD, GET, POST, PUT, DELETE
    x-app: rontok_ssl
    x-varnish: '455683502'
    age: '0'
    via: 1.1 varnish (Varnish/5.0)
    x-origin: lb1
    x-cache: MISS
    x-cached: skroutz miss(0)
    accept-ranges: bytes
  :body: '{"skus":[{"id":11425408,"ean":"6954176833938","pn":"","name":"Redmi 4x (32GB)","display_name":"Xiaomi
    Redmi 4x (32GB)","category_id":40,"first_product_shop_info":null,"click_url":null,"price_max":199.0,"price_min":122.5,"reviewscore":4.63393,"shop_count":70,"plain_spec_summary":"Οθόνη:
    5\", RAM: 3GB, Μνήμη: 32GB, Κάμερα: 13MP, Selfie: 5MP, Πυρήνες CPU: 8","manufacturer_id":15053,"future":false,"reviews_count":224,"virtual":false,"images":{"main":"https://a.scdn.gr/images/sku_main_images/011425/11425408/medium_20171103170952_xiaomi_redmi_4x_32gb.jpeg","alternatives":["https://a.scdn.gr/images/sku_images/016974/16974425/20170322101106_a6850db4.jpeg","https://b.scdn.gr/images/sku_images/016974/16974423/20170322101106_f7a955e4.jpeg","https://a.scdn.gr/images/sku_images/016974/16974424/20170322101106_ae16e57d.jpeg","https://d.scdn.gr/images/sku_images/016974/16974426/20170322101106_c5774fce.jpeg"]},"web_uri":"https://skroutz.gr/s/11425408/Xiaomi-Redmi-4x-32GB.html","favorited":true,"comparable":true,"reviewable":true,"name_source":"display_name"},{"id":11069307,"ean":"","pn":"","name":"Redmi
    Note 4X (Snapdragon) (32GB)","display_name":"Xiaomi Redmi Note 4X (Snapdragon)
    (32GB)","category_id":40,"first_product_shop_info":null,"click_url":null,"price_max":245.0,"price_min":145.99,"reviewscore":4.69018,"shop_count":45,"plain_spec_summary":"Οθόνη:
    5.5\", RAM: 3GB, Μνήμη: 32GB, Κάμερα: 13MP, Selfie: 5MP, Πυρήνες CPU: 8","manufacturer_id":15053,"future":false,"reviews_count":326,"virtual":false,"images":{"main":"https://c.scdn.gr/images/sku_main_images/011069/11069307/medium_20170215120338_xiaomi_redmi_note_4x_32gb.jpeg","alternatives":["https://c.scdn.gr/images/sku_images/016893/16893439/20170215120328_65f7fe50.jpeg","https://b.scdn.gr/images/sku_images/016893/16893440/20170215120329_99420f00.jpeg","https://d.scdn.gr/images/sku_images/016893/16893438/20170215120339_297183ef.jpeg","https://b.scdn.gr/images/sku_images/016893/16893441/20170215120411_543a9f26.jpeg"]},"web_uri":"https://skroutz.gr/s/11069307/Xiaomi-Redmi-Note-4X-Snapdragon-32GB.html","favorited":true,"comparable":true,"reviewable":true,"name_source":"display_name"},{"id":9783213,"ean":"","pn":"MN902GH/A","name":"iPhone
    7 (32GB)","display_name":"Apple iPhone 7 (32GB)","category_id":40,"first_product_shop_info":null,"click_url":null,"price_max":819.0,"price_min":569.79,"reviewscore":4.71771,"shop_count":66,"plain_spec_summary":"Οθόνη:
    4.7\", RAM: 2GB, Μνήμη: 32GB, Κάμερα: 12MP, Selfie: 7MP, Πυρήνες CPU: 4","manufacturer_id":356,"future":false,"reviews_count":542,"virtual":false,"images":{"main":"https://c.scdn.gr/images/sku_main_images/009783/9783213/medium_20160909145853_apple_iphone_7_32gb.jpeg","alternatives":["https://d.scdn.gr/images/sku_images/015955/15955339/20160909151510_55657ecb.jpeg","https://b.scdn.gr/images/sku_images/015955/15955297/20160909145854_6aff90d2.jpeg","https://b.scdn.gr/images/sku_images/016001/16001756/20160919102250_12c8546b.jpeg","https://a.scdn.gr/images/sku_images/016973/16973259/20170321165342_fb1d4099.jpeg","https://a.scdn.gr/images/sku_images/016983/16983449/20170327125934_628b4f60.jpeg","https://a.scdn.gr/images/sku_images/016983/16983450/20170327125934_1855d7f4.jpeg","https://a.scdn.gr/images/sku_images/016001/16001762/20160919102305_0873a2b9.jpeg","https://b.scdn.gr/images/sku_images/016001/16001763/20160919102307_29856255.jpeg","https://c.scdn.gr/images/sku_images/016001/16001760/20160919102300_ce743850.jpeg","https://d.scdn.gr/images/sku_images/016001/16001761/20160919102303_ad4f9dbf.jpeg","https://c.scdn.gr/images/sku_images/016001/16001758/20160919102254_556ac96c.jpeg","https://b.scdn.gr/images/sku_images/016001/16001759/20160919102257_6939c0b1.jpeg","https://b.scdn.gr/images/sku_images/016001/16001764/20160919102308_40e2894b.jpeg","https://c.scdn.gr/images/sku_images/016001/16001765/20160919102312_992e321d.jpeg","https://a.scdn.gr/images/sku_images/016012/16012722/20160922104532_a7e80558.jpeg","https://a.scdn.gr/images/sku_images/016001/16001542/20160919094848_309330fe.jpeg","https://a.scdn.gr/images/sku_images/016001/16001543/20160919094854_e522671e.jpeg","https://a.scdn.gr/images/sku_images/016001/16001544/20160919094854_d12c615b.jpeg","https://a.scdn.gr/images/sku_images/016012/16012723/20160922104535_d7d1f5e1.jpeg","https://a.scdn.gr/images/sku_images/016001/16001546/20160919094858_09a978f5.jpeg","https://c.scdn.gr/images/sku_images/016001/16001547/20160919094901_bd8f1236.jpeg","https://d.scdn.gr/images/sku_images/016001/16001548/20160919094905_387e1683.jpeg","https://b.scdn.gr/images/sku_images/016012/16012725/20160922104541_6130d60e.jpeg","https://c.scdn.gr/images/sku_images/016001/16001550/20160919094926_383f623c.jpeg","https://c.scdn.gr/images/sku_images/016001/16001551/20160919094930_f36272c3.jpeg","https://a.scdn.gr/images/sku_images/016001/16001552/20160919094935_36f83777.jpeg","https://c.scdn.gr/images/sku_images/016012/16012724/20160922104538_a0f6cfdc.jpeg","https://a.scdn.gr/images/sku_images/016001/16001678/20160919100327_bb5dc190.jpeg","https://a.scdn.gr/images/sku_images/016001/16001554/20160919095011_7d0f014f.jpeg","https://a.scdn.gr/images/sku_images/016001/16001555/20160919095011_759bd9c0.jpeg","https://b.scdn.gr/images/sku_images/016001/16001556/20160919095013_09feb434.jpeg"]},"web_uri":"https://skroutz.gr/s/9783213/Apple-iPhone-7-32GB.html","favorited":false,"comparable":true,"reviewable":true,"name_source":"display_name"}],"meta":{"ordered_by":"rank","order_by_methods":{"pricevat":"Αύξουσα
    τιμή","rank":"Δημοτικότητα","rating":"Βαθμολογία"},"pagination":{"total_results":875,"total_pages":292,"page":1,"per":3}}}'
:created_at: 2018-01-30 17:59:00.627261750 +02:00
:meta:
  :description: Lists only skus belonging to category specified in path
