---
:request:
  :url: https://api.skroutz.gr/categories/260/skus?include_meta=available_filters
  :headers:
    :accept: application/vnd.skroutz+json; version=3.2
    :authorization: Bearer xWmjOaQmNgLt3dVIYBGkWVWhbrcg44XfYqS3Jb1dMVHvGIBJcPuzVQYjH-XKenxsZgFW8DSgc9f2fI_MBVBHNw==
  :params:
    :per: 1
  :verb: :get
:response:
  :status: 200
  :headers:
    date: Fri, 11 May 2018 13:46:34 GMT
    connection: close
    server: h2o (Debian)
    content-type: application/json; charset=utf-8
    vary: Accept-Encoding
    x-ratelimit-limit: '100'
    x-ratelimit-remaining: '99'
    x-ratelimit-reset: '1526046420'
    content-security-policy-report-only: 'default-src https: data: gsa: wss://ws.inspectlet.com;
      script-src https: data: asset: about: ''unsafe-inline'' ''unsafe-eval''; style-src
      https: ''unsafe-inline''; child-src *; report-uri https://f30d08e43da6ef6d7fb9c3dd5486561c.report-uri.io/r/default/csp/reportOnly'
    etag: W/"0765d7eb1b4cd3f82d7b341cbe77038e"
    cache-control: max-age=0, private, must-revalidate
    x-request-id: '581618722'
    x-runtime: '0.101783'
    x-dns-prefetch-control: 'off'
    access-control-allow-origin: "*"
    access-control-allow-methods: HEAD, GET, POST, PUT, DELETE
    x-app: rontok_ssl
    x-varnish: '581618721'
    age: '0'
    via: 1.1 varnish (Varnish/5.0)
    x-origin: lb2
    x-cache: MISS
    x-cached: skroutz miss(0)
    accept-ranges: bytes
    strict-transport-security: max-age=15768000;
    transfer-encoding: chunked
  :body: '{"skus":[{"id":13013766,"ean":"","pn":"","name":"TORNADO METAL MASTERS ΣΒΟΥΡΑ
    ΜΕ ΕΚΤΟΞΕΥΤΗ - 5 ΣΧΕΔΙΑ JK079855","display_name":"TORNADO METAL MASTERS ΣΒΟΥΡΑ
    ΜΕ ΕΚΤΟΞΕΥΤΗ - 5 ΣΧΕΔΙΑ JK079855","category_id":260,"first_product_shop_info":"846|Toys-shop|toysshop","click_url":"http://www.skroutz.gr/products/show/31485400","price_max":1.98,"price_min":1.98,"reviewscore":0.0,"shop_count":1,"plain_spec_summary":"","manufacturer_id":254,"future":false,"reviews_count":0,"virtual":true,"images":{"main":"https://a.scdn.gr/images/sku_main_images/013013/13013766/medium_20171116162016_tornado_metal_masters_svoura_me_ektoxeyti_5_schedia_jk079855.jpeg","alternatives":[]},"web_uri":"https://www.skroutz.gr/products/show/31485400","favorited":false,"comparable":false,"reviewable":false,"name_source":"display_name","sizes":null,"ecommerce_enabled":false}],"meta":{"ordered_by":"popularity","order_by_methods":{"pricevat":"Αύξουσα
    τιμή","popularity":"Δημοτικότητα"},"available_filters":{"filters":{"553146":481,"553541":329,"553149":252,"553539":131,"553543":125,"773089":115,"773091":108,"773090":61,"773216":57,"773217":50,"773092":45,"553540":23,"553542":21,"553742":21,"822793":1531,"822794":1301,"822795":982,"822796":254,"818585":2},"manufacturers":{"254":1687,"10525":180,"342":131,"372":96,"11696":70,"15838":68,"24799":65,"2119":63,"20380":57,"18536":55,"7736":48,"20906":48,"3496":41,"5639":37,"11806":36,"1861":35,"20153":30,"20169":29,"1408":27,"2689":27,"2837":25,"19149":22,"14":20,"3100":18,"12985":18,"13032":18,"19892":18,"30665":18,"12071":17,"19323":17,"21883":17,"9498":16,"12554":16,"24881":16,"32638":16,"20160":15,"3835":14,"7731":14,"13615":14,"10222":13,"20138":13,"32348":12,"14453":11,"21461":11,"30168":11,"78":10,"7727":10,"17210":10,"26322":10},"shops":{"846":287,"2182":239,"1993":193,"4309":182,"2985":170,"2686":159,"4491":113,"957":103,"4626":93,"3777":90,"3130":83,"2208":75,"2321":64,"3894":59,"461":57,"394":52,"4374":52,"755":51,"2798":51,"826":49,"3482":49,"4442":49,"1554":48,"2673":45,"3331":45,"4146":45,"2645":40,"3958":38,"4278":37},"availabilities":[{"id":0,"label":"Άμεση
    παραλαβή","count":2103},{"id":1,"label":"1-3 ημέρες","count":1512}],"distances":[{"id":2,"label":"2km","count":529},{"id":5,"label":"5km","count":1205},{"id":10,"label":"10km","count":1969}]},"pagination":{"total_results":4005,"total_pages":4005,"page":1,"per":1}}}'
:created_at: 2018-05-11 16:46:34.502331345 +03:00
