---
:request:
  :url: https://api.skroutz.gr/categories/40/skus?manufacturer_ids[]=28&manufacturer_ids[]=2
  :headers:
    :accept: application/vnd.skroutz+json; version=3.1
    :authorization: Bearer VSkzjtrNKLUAkOUFNBHv5vRrDjMowQXQ0uqKElVEds3GCcE5oBn/lqWKIkwkHONY57MbbB/rSzFVr/sDjGyN5w==
  :params:
    :per: 4
  :verb: :get
:response:
  :status: 200
  :headers:
    server: nginx
    date: Wed, 05 Oct 2016 13:59:53 GMT
    content-type: application/json; charset=utf-8
    vary: Accept-Encoding
    x-ratelimit-limit: '100'
    x-ratelimit-remaining: '55'
    x-ratelimit-reset: '1475676000'
    x-frame-options: SAMEORIGIN
    x-xss-protection: 1; mode=block
    x-content-type-options: nosniff
    etag: W/"f5c2237a59b389482811425c5ffe0731"
    cache-control: max-age=0, private, must-revalidate
    x-request-id: '725575891'
    x-runtime: '0.071042'
    x-dns-prefetch-control: 'off'
    access-control-allow-origin: "*"
    access-control-allow-methods: HEAD, GET, POST, PUT, DELETE
    x-app: rontok
    x-varnish: '725575890'
    age: '0'
    via: 1.1 varnish-v4
    x-origin: lb2
    x-cache: MISS
    x-cached: skroutz miss(0)
    accept-ranges: bytes
    transfer-encoding: chunked
    connection: close
  :body: '{"skus":[{"id":2119391,"ean":"","pn":"GT-E1200i","name":"E1200","display_name":"Samsung
    E1200","category_id":40,"first_product_shop_info":null,"click_url":null,"price_max":26.0,"price_min":22.0,"reviewscore":4.40541,"shop_count":6,"plain_spec_summary":"Feature
    Phone, SIM: Single, Οθόνη: 1.52\", 128 x 128 pixels, Πυρήνες CPU: 1, Μνήμη Αποθήκευσης:
    100 MB, Δίκτυο: 2G, Λειτουργικό: Κατασκευαστή, Μπαταρία: 800 mAh","manufacturer_id":28,"future":false,"reviews_count":37,"virtual":false,"images":{"main":"https://d.scdn.gr/images/sku_main_images/002119/2119391/medium_gr_GT-E1200ZWMVGR_301_Front","alternatives":["https://a.scdn.gr/images/sku_images/012918/12918567/gr_GT-E1200ZWMVGR_309_Dynamic","https://b.scdn.gr/images/sku_images/012918/12918568/gr_GT-E1200ZWMVGR_304_Left","https://c.scdn.gr/images/sku_images/012918/12918569/gr_GT-E1200ZWMVGR_302_Back","https://d.scdn.gr/images/sku_images/012918/12918571/gr_GT-E1200ZWMVGR_321_Front","https://c.scdn.gr/images/sku_images/012918/12918572/gr_GT-E1200ZWMVGR_329_Dynamic","https://a.scdn.gr/images/sku_images/012918/12918573/gr_GT-E1200ZWMVGR_323_Right","https://c.scdn.gr/images/sku_images/012918/12918574/gr_GT-E1200ZWMVGR_322_Back"]},"web_uri":"https://www.skroutz.gr/s/2119391/Samsung-E1200.html","favorited":true},{"id":9092823,"ean":"","pn":"GT-E1200R","name":"E1200R","display_name":"Samsung
    E1200R","category_id":40,"first_product_shop_info":"3766|Fotocom|fotocom","click_url":null,"price_max":22.9,"price_min":22.9,"reviewscore":0.0,"shop_count":1,"plain_spec_summary":"Feature
    Phone, SIM: Single, Οθόνη: 1.52\", 128 x 128 pixels, CPU: 208 MHz, Πυρήνες CPU:
    1, RAM: 4 MB, Δίκτυο: 2G, Λειτουργικό: Κατασκευαστή, Μπαταρία: 800 mAh","manufacturer_id":28,"future":false,"reviews_count":0,"virtual":false,"images":{"main":"https://a.scdn.gr/images/sku_main_images/009092/9092823/medium_20160524153553_samsung_e1200r.jpeg","alternatives":["https://c.scdn.gr/images/sku_images/014958/14958880/20160524153552_b4c84517.jpeg","https://a.scdn.gr/images/sku_images/014958/14958881/20160524153558_d6eb49cc.jpeg","https://b.scdn.gr/images/sku_images/014958/14958882/20160524153601_4cc22806.jpeg","https://c.scdn.gr/images/sku_images/014958/14958883/20160524153601_aec554bc.jpeg","https://a.scdn.gr/images/sku_images/014958/14958884/20160524153601_2e401c56.jpeg","https://b.scdn.gr/images/sku_images/014958/14958885/20160524153602_eadb0d2a.jpeg","https://a.scdn.gr/images/sku_images/014958/14958886/20160524153603_f42e177f.jpeg","https://d.scdn.gr/images/sku_images/014958/14958887/20160524153604_833612f1.jpeg","https://c.scdn.gr/images/sku_images/014958/14958888/20160524153609_1723b39d.jpeg","https://c.scdn.gr/images/sku_images/014958/14958889/20160524153609_473fbefc.jpeg"]},"web_uri":"https://www.skroutz.gr/s/9092823/Samsung-E1200R.html","favorited":false},{"id":4589761,"ean":"","pn":"D2005
    1280-0649 1280-0650 1280-3931 1280-0651","name":"Xperia E1 (4GB)","display_name":"Sony
    Xperia E1 (4GB)","category_id":40,"first_product_shop_info":null,"click_url":null,"price_max":109.19,"price_min":74.9,"reviewscore":3.47059,"shop_count":13,"plain_spec_summary":"SmartPhone,
    SIM: Single, Οθόνη: 4\", 800 x 480 pixels, CPU: 1200 MHz, Πυρήνες CPU: 2, RAM:
    512 MB, Μνήμη Αποθήκευσης: 4 GB, Δίκτυο: 3G, Κάμερα: 3.15 MP, Λειτουργικό: Android,
    Μπαταρία: 1700 mAh","manufacturer_id":2,"future":false,"reviews_count":68,"virtual":false,"images":{"main":"https://d.scdn.gr/images/sku_main_images/004589/4589761/medium_xperia-e1-hero-black-1240x840-5f95d7ef7d74b55fc6da26dbabf9ca35.jpg","alternatives":["https://a.scdn.gr/images/sku_images/012388/12388708/xperia-e1-hero-purple-1240x840-050d5d57f815bf576f9572923eb84428.jpg","https://d.scdn.gr/images/sku_images/012388/12388709/xperia-e1-hero-white-1240x840-1a823694841bc38b045bbad747494b85.jpg","https://c.scdn.gr/images/sku_images/012388/12388710/xperia-E1-play-it-loud-02-1240x840-262ec1e7823910d3a2302a4e9efcd677.jpg","https://c.scdn.gr/images/sku_images/012388/12388712/xperia-E1-stay-in-touch-03-1240x840-dc4d1f4ab2c501705c99178515ce6348.jpg","https://d.scdn.gr/images/sku_images/012388/12388714/xperia-E1-enjoy-entertainment-04-1240x840-150be1a6c55c23fafcc62d933b22f8eb.jpg"]},"web_uri":"https://www.skroutz.gr/s/4589761/Sony-Xperia-E1-4GB.html","favorited":false},{"id":4681936,"ean":"","pn":"GT-S5611","name":"Utopia
    S5611","display_name":"Samsung Utopia S5611","category_id":40,"first_product_shop_info":null,"click_url":null,"price_max":90.0,"price_min":78.95,"reviewscore":2.72727,"shop_count":5,"plain_spec_summary":"Feature
    Phone, SIM: Single, Οθόνη: 2.4\", 320 x 240 pixels, CPU: 460 MHz, Πυρήνες CPU:
    1, Μνήμη Αποθήκευσης: 100 MB, Δίκτυο: 3G, Κάμερα: 5 MP, Λειτουργικό: Κατασκευαστή,
    Μπαταρία: 1000 mAh","manufacturer_id":28,"future":false,"reviews_count":11,"virtual":false,"images":{"main":"https://d.scdn.gr/images/sku_main_images/004681/4681936/medium_sk_GT-S5611MSAORX_000000001_Front","alternatives":["https://b.scdn.gr/images/sku_images/012533/12533025/sk_GT-S5611MSAORX_000000002_Side","https://c.scdn.gr/images/sku_images/012533/12533026/sk_GT-S5611MSAORX_000000003_Perspective","https://b.scdn.gr/images/sku_images/012533/12533027/sk_GT-S5611MSAORX_000169251_gallery","https://b.scdn.gr/images/sku_images/012533/12533028/sk_GT-S5611MSAORX_000169252_gallery","https://d.scdn.gr/images/sku_images/012533/12533029/sk_GT-S5611MSAORX_000169255_gallery","https://c.scdn.gr/images/sku_images/013098/13098265/ru_GT-S5611ZWASER_005_Dynamic_white","https://d.scdn.gr/images/sku_images/013098/13098266/ru_GT-S5611ZWASER_001_Front_white_10039309054891"]},"web_uri":"https://www.skroutz.gr/s/4681936/Samsung-Utopia-S5611.html","favorited":false}],"meta":{"ordered_by":"price","pagination":{"total_results":99,"total_pages":25,"page":1,"per":4}}}'
:created_at: 2016-10-05 16:59:53.992925629 +03:00
:meta:
  :description: Lists skus filtered by manufacturers.
