---
:request:
  :url: https://api.skroutz.gr/manufacturers
  :headers:
    :accept: application/vnd.skroutz+json; version=3.1
    :authorization: Bearer VSkzjtrNKLUAkOUFNBHv5vRrDjMowQXQ0uqKElVEds3GCcE5oBn/lqWKIkwkHONY57MbbB/rSzFVr/sDjGyN5w==
  :params:
    :per: 2
  :verb: :get
:response:
  :status: 200
  :headers:
    server: nginx
    date: Wed, 05 Oct 2016 13:59:51 GMT
    content-type: application/json; charset=utf-8
    vary: Accept-Encoding
    x-ratelimit-limit: '100'
    x-ratelimit-remaining: '85'
    x-ratelimit-reset: '1475676000'
    x-frame-options: SAMEORIGIN
    x-xss-protection: 1; mode=block
    x-content-type-options: nosniff
    link: <https://api.skroutz.gr/manufacturers?page=13493&per=2>; rel="last", <https://api.skroutz.gr/manufacturers?page=2&per=2>;
      rel="next"
    etag: W/"5b6e13b8ac3106ecc0374fa515364f48"
    cache-control: max-age=0, private, must-revalidate
    x-request-id: '725316877'
    x-runtime: '0.057977'
    x-dns-prefetch-control: 'off'
    access-control-allow-origin: "*"
    access-control-allow-methods: HEAD, GET, POST, PUT, DELETE
    x-app: rontok
    x-varnish: '725316876'
    age: '0'
    via: 1.1 varnish-v4
    x-origin: lb2
    x-cache: MISS
    x-cached: skroutz miss(0)
    accept-ranges: bytes
    content-length: '240'
    connection: close
  :body: '{"manufacturers":[{"id":1,"name":"EA - Electronic Arts","image_url":"https://c.scdn.gr/ds/manufacturers/1/e2e019eea82bfe6b82b47ab77f6b4497.png"},{"id":2,"name":"Sony","image_url":"https://c.scdn.gr/ds/manufacturers/2/502f0698a44df30f4fd55fd9e0893369.jpg"}],"meta":{"pagination":{"total_results":26986,"total_pages":13493,"page":1,"per":2}}}'
:created_at: 2016-10-05 16:59:51.710162694 +03:00
