---
:request:
  :url: https://api.skroutz.gr/manufacturers/356/skus
  :headers:
    :accept: application/vnd.skroutz+json; version=3.1
    :authorization: Bearer VSkzjtrNKLUAkOUFNBHv5vRrDjMowQXQ0uqKElVEds3GCcE5oBn/lqWKIkwkHONY57MbbB/rSzFVr/sDjGyN5w==
  :params:
    :per: 2
  :verb: :get
:response:
  :status: 200
  :headers:
    server: nginx
    date: Wed, 05 Oct 2016 13:59:51 GMT
    content-type: application/json; charset=utf-8
    vary: Accept-Encoding
    x-ratelimit-limit: '100'
    x-ratelimit-remaining: '83'
    x-ratelimit-reset: '1475676000'
    x-frame-options: SAMEORIGIN
    x-xss-protection: 1; mode=block
    x-content-type-options: nosniff
    link: <https://api.skroutz.gr/manufacturers/356/skus?page=306&per=2>; rel="last",
      <https://api.skroutz.gr/manufacturers/356/skus?page=2&per=2>; rel="next"
    etag: W/"a249d72d8323b393cc571ea2d0e21c6b"
    cache-control: max-age=0, private, must-revalidate
    x-request-id: '725316886'
    x-runtime: '0.054230'
    x-dns-prefetch-control: 'off'
    access-control-allow-origin: "*"
    access-control-allow-methods: HEAD, GET, POST, PUT, DELETE
    x-app: rontok
    x-varnish: '725316885'
    age: '0'
    via: 1.1 varnish-v4
    x-origin: lb2
    x-cache: MISS
    x-cached: skroutz miss(0)
    accept-ranges: bytes
    transfer-encoding: chunked
    connection: close
  :body: '{"skus":[{"id":3783654,"ean":"","pn":"ME432GB/A ME433GB/A ME434GB/A ME432DN/A
    ME433DN/A ME434DN/A ME432B/A ME433B/A ME434B/A ME432KS/A ME307LL/A ME298LL/A ME432CS/A
    ME306LL/A ME323LL/A ME2","name":"iPhone 5S (16GB)","display_name":"Apple iPhone
    5S (16GB)","category_id":40,"first_product_shop_info":null,"click_url":null,"price_max":567.0,"price_min":275.3,"reviewscore":4.22026,"shop_count":62,"plain_spec_summary":"SmartPhone,
    SIM: Single, Οθόνη: 4\", 1136 x 640 pixels, CPU: 1300 MHz, Πυρήνες CPU: 2, RAM:
    1 GB, Μνήμη Αποθήκευσης: 16 GB, Δίκτυο: 4G, Κάμερα: 8 MP, Λειτουργικό: iOS, Μπαταρία:
    1560 mAh","manufacturer_id":356,"future":false,"reviews_count":227,"virtual":false,"images":{"main":"https://d.scdn.gr/images/sku_main_images/003783/3783654/medium_20160802142646_apple_iphone_5s_16gb.jpeg","alternatives":["https://c.scdn.gr/images/sku_images/015749/15749455/20160804130145_bd138128.jpeg","https://c.scdn.gr/images/sku_images/015730/15730415/20160801174234_b1f375b2.jpeg","https://b.scdn.gr/images/sku_images/015749/15749493/20160804131811_88a8b95d.jpeg","https://b.scdn.gr/images/sku_images/015730/15730400/20160802142647_6c5d9de1.jpeg","https://b.scdn.gr/images/sku_images/012176/12176629/iphone5s-gallery2-2013","https://d.scdn.gr/images/sku_images/012176/12176643/iphone5s-gallery3-2013","https://a.scdn.gr/images/sku_images/015730/15730414/20160801174220_301fe755.jpeg","https://b.scdn.gr/images/sku_images/015730/15730405/20160801173748_b13c34a6.jpeg","https://c.scdn.gr/images/sku_images/015749/15749464/20160804130546_df38f1e8.jpeg","https://a.scdn.gr/images/sku_images/015749/15749477/20160804131254_2878491d.jpeg","https://d.scdn.gr/images/sku_images/015749/15749478/20160804131303_c8ded413.jpeg","https://d.scdn.gr/images/sku_images/015749/15749479/20160804131311_566c96bb.jpeg","https://d.scdn.gr/images/sku_images/012176/12176654/iphone5s-gallery5-2013","https://a.scdn.gr/images/sku_images/012279/12279003/iphone5s-gallery4-2013","https://b.scdn.gr/images/sku_images/012176/12176660/iphone5s-gallery6-2013","https://c.scdn.gr/images/sku_images/012176/12176664/iphone5s-gallery8-2013"]},"web_uri":"https://www.skroutz.gr/s/3783654/Apple-iPhone-5S-16GB.html"},{"id":7423345,"ean":"","pn":"MKQL2B/A
    MKQM2B/A MKQK2B/A MKQJ2B/A MKQJ2GH/A MKQK2GH/A MKQL2GH/A MKQM2GH/A MKQL2ZD/A MKQJ2ZD/A
    MKQK2ZD/A MKQK2PM/A MKQM2ZD/A","name":"iPhone 6s (16GB)","display_name":"Apple
    iPhone 6s (16GB)","category_id":40,"first_product_shop_info":null,"click_url":null,"price_max":830.0,"price_min":528.75,"reviewscore":4.52174,"shop_count":62,"plain_spec_summary":"SmartPhone,
    SIM: Single, Οθόνη: 4.7\", 1334 x 750 pixels, CPU: 1840 MHz, Πυρήνες CPU: 2, RAM:
    2 GB, Μνήμη Αποθήκευσης: 16 GB, Δίκτυο: 4G, Κάμερα: 12 MP, Λειτουργικό: iOS, Μπαταρία:
    1715 mAh","manufacturer_id":356,"future":false,"reviews_count":46,"virtual":false,"images":{"main":"https://c.scdn.gr/images/sku_main_images/007423/7423345/medium_20150910105706_apple_iphone_6s_16gb.jpeg","alternatives":["https://d.scdn.gr/images/sku_images/015742/15742763/20160803130419_2cccacc9.jpeg","https://d.scdn.gr/images/sku_images/015742/15742764/20160803130432_97f45bb4.jpeg","https://a.scdn.gr/images/sku_images/014847/14847101/20150910104748_86d6b43d.jpeg","https://b.scdn.gr/images/sku_images/014847/14847104/20150910104831_d2347485.jpeg","https://c.scdn.gr/images/sku_images/014847/14847026/20150910102300_eaabe05b.jpeg","https://c.scdn.gr/images/sku_images/014847/14847103/20150910104825_f9753234.jpeg","https://d.scdn.gr/images/sku_images/015730/15730421/20160801174740_fdab19f4.jpeg","https://d.scdn.gr/images/sku_images/014847/14847100/20150910104733_b7d8cfcc.jpeg","https://d.scdn.gr/images/sku_images/014847/14847086/20150910103920_f8042167.jpeg","https://a.scdn.gr/images/sku_images/015730/15730281/20160801171324_cdfc8abf.jpeg","https://a.scdn.gr/images/sku_images/014847/14847088/20150910104003_f477adb6.jpeg","https://a.scdn.gr/images/sku_images/014847/14847112/20150910104933_b44de182.jpeg","https://b.scdn.gr/images/sku_images/014847/14847092/20150910104149_c5649a8f.jpeg","https://a.scdn.gr/images/sku_images/015730/15730418/20160801174616_9748bcb6.jpeg","https://b.scdn.gr/images/sku_images/014847/14847124/20150910105642_3669aafa.jpeg","https://b.scdn.gr/images/sku_images/015730/15730420/20160801174627_cc7e53b0.jpeg","https://d.scdn.gr/images/sku_images/014847/14847087/20150910103949_d93c3eda.jpeg","https://d.scdn.gr/images/sku_images/014847/14847113/20150910104951_48b3eb2d.jpeg","https://b.scdn.gr/images/sku_images/014847/14847108/20150910104847_610650f8.jpeg","https://c.scdn.gr/images/sku_images/014847/14847109/20150910104902_49619c04.jpeg","https://b.scdn.gr/images/sku_images/015742/15742781/20160803130918_369301ff.jpeg"]},"web_uri":"https://www.skroutz.gr/s/7423345/Apple-iPhone-6s-16GB.html"}],"meta":{"pagination":{"total_results":612,"total_pages":306,"page":1,"per":2}}}'
:created_at: 2016-10-05 16:59:51.808745349 +03:00
