---
:request:
  :url: https://api.skroutz.gr/notifications
  :headers:
    :accept: application/vnd.skroutz+json; version=3.1
    :authorization: Bearer VSkzjtrNKLUAkOUFNBHv5vRrDjMowQXQ0uqKElVEds3GCcE5oBn/lqWKIkwkHONY57MbbB/rSzFVr/sDjGyN5w==
  :params:
    :per: 1
  :verb: :get
:response:
  :status: 200
  :headers:
    server: nginx
    date: Wed, 05 Oct 2016 13:59:54 GMT
    content-type: application/json; charset=utf-8
    vary: Accept-Encoding
    x-ratelimit-limit: '100'
    x-ratelimit-remaining: '51'
    x-ratelimit-reset: '1475676000'
    x-frame-options: SAMEORIGIN
    x-xss-protection: 1; mode=block
    x-content-type-options: nosniff
    link: <https://api.skroutz.gr/notifications?page=100&per=1>; rel="last", <https://api.skroutz.gr/notifications?page=2&per=1>;
      rel="next"
    etag: W/"30ef506559be58629ebe54b2d2e3b6b5"
    cache-control: max-age=0, private, must-revalidate
    x-request-id: '727457027'
    x-runtime: '0.050126'
    x-dns-prefetch-control: 'off'
    access-control-allow-origin: "*"
    access-control-allow-methods: HEAD, GET, POST, PUT, DELETE
    x-app: rontok
    x-varnish: '727457026'
    age: '0'
    via: 1.1 varnish-v4
    x-origin: lb2
    x-cache: MISS
    x-cached: skroutz miss(0)
    accept-ranges: bytes
    transfer-encoding: chunked
    connection: close
  :body: '{"notifications":[{"id":314233664,"etype":"price_drop","eventable_id":4672057,"eventable_type":"Sku","eventable_name":"Omron
    M6 HEM-7321","eventable_url":"https://api.skroutz.gr/s/4672057/Omron-M6-HEM-7321.html?from=account_notifications","event_text":null,"snapshot":{"price_min":56.19,"latest_price":56.89,"change_rate":0.012,"from_threshold":false},"is_viewed":true,"aggregated":false,"created_at":"2016-10-05T16:16:29+03:00","updated_at":"2016-10-05T16:46:32+03:00","sku":{"id":4672057,"category_id":1339,"display_name":"Omron
    M6 HEM-7321","images":{"main":"https://d.scdn.gr/images/sku_main_images/004672/4672057/medium_14967045-orig.jpg","alternatives":[]},"click_url":null,"virtual":false,"future":false,"first_product_shop_info":null},"category_name":"Πιεσόμετρα"}],"meta":{"pagination":{"total_results":100,"total_pages":100,"page":1,"per":1}}}'
:created_at: 2016-10-05 16:59:54.289425913 +03:00
