---
:request:
  :url: https://api.skroutz.gr/search?q=iphone
  :headers:
    :accept: application/vnd.skroutz+json; version=3.1
    :authorization: Bearer VSkzjtrNKLUAkOUFNBHv5vRrDjMowQXQ0uqKElVEds3GCcE5oBn/lqWKIkwkHONY57MbbB/rSzFVr/sDjGyN5w==
  :params:
    :page: 1
    :per: 2
  :verb: :get
:response:
  :status: 200
  :headers:
    server: nginx
    date: Wed, 05 Oct 2016 13:59:52 GMT
    content-type: application/json; charset=utf-8
    vary: Accept-Encoding
    x-ratelimit-limit: '100'
    x-ratelimit-remaining: '74'
    x-ratelimit-reset: '1475676000'
    x-frame-options: SAMEORIGIN
    x-xss-protection: 1; mode=block
    x-content-type-options: nosniff
    link: <https://api.skroutz.gr/search?page=67&per=2&q=iphone>; rel="last", <https://api.skroutz.gr/search?page=2&per=2&q=iphone>;
      rel="next"
    etag: W/"3354526fb134cf394c2c70e365297560"
    cache-control: max-age=0, private, must-revalidate
    x-request-id: '725441251'
    x-runtime: '0.068102'
    x-dns-prefetch-control: 'off'
    access-control-allow-origin: "*"
    access-control-allow-methods: HEAD, GET, POST, PUT, DELETE
    x-app: rontok
    x-varnish: '725441250'
    age: '0'
    via: 1.1 varnish-v4
    x-origin: lb2
    x-cache: MISS
    x-cached: skroutz miss(0)
    accept-ranges: bytes
    content-length: '510'
    connection: close
  :body: '{"categories":[{"id":40,"name":"Κινητά Τηλέφωνα","children_count":0,"image_url":"https://d.scdn.gr/ds/categories/40/20150508124644_bd07441b.jpg","parent_id":86,"fashion":false,"layout_mode":"list","web_uri":"https://www.skroutz.gr/c/40/kinhta-thlefwna.html","code":"mobile","path":"76,1269,86,40","show_specifications":true,"manufacturer_title":"Κατασκευαστές","match_count":24},{"id":579,"name":"Θήκες
    Κινητών Τηλεφώνων","children_count":0,"image_url":"https://b.scdn.gr/ds/categories/579/20150408173958_42b293c7.jpg","parent_id":86,"fashion":true,"layout_mode":"wide_tiles","web_uri":"https://www.skroutz.gr/c/579/thikes-kinhtwn-thlefwnwn.html","code":"thikes-kinhtwn-thlefwnwn","path":"76,1269,86,579","show_specifications":false,"manufacturer_title":"Κατασκευαστές","match_count":11055}],"meta":{"q":"iphone","alternatives":[],"strong_matches":{},"pagination":{"total_results":134,"total_pages":67,"page":1,"per":2}}}'
:created_at: 2016-10-05 16:59:52.409882791 +03:00
