---
:request:
  :url: https://api.skroutz.gr/search?q=apple
  :headers:
    :accept: application/vnd.skroutz+json; version=3.1
    :authorization: Bearer VSkzjtrNKLUAkOUFNBHv5vRrDjMowQXQ0uqKElVEds3GCcE5oBn/lqWKIkwkHONY57MbbB/rSzFVr/sDjGyN5w==
  :params:
    :page: 1
    :per: 5
  :verb: :get
:response:
  :status: 200
  :headers:
    server: nginx
    date: Wed, 05 Oct 2016 13:59:52 GMT
    content-type: application/json; charset=utf-8
    vary: Accept-Encoding
    x-ratelimit-limit: '100'
    x-ratelimit-remaining: '79'
    x-ratelimit-reset: '1475676000'
    x-frame-options: SAMEORIGIN
    x-xss-protection: 1; mode=block
    x-content-type-options: nosniff
    link: <https://api.skroutz.gr/search?page=59&per=5&q=apple>; rel="last", <https://api.skroutz.gr/search?page=2&per=5&q=apple>;
      rel="next"
    etag: W/"70fd60d36c74952cd7bc494f2fe52693"
    cache-control: max-age=0, private, must-revalidate
    x-request-id: '728814950'
    x-runtime: '0.086659'
    x-dns-prefetch-control: 'off'
    access-control-allow-origin: "*"
    access-control-allow-methods: HEAD, GET, POST, PUT, DELETE
    x-app: rontok
    x-varnish: '728814949'
    age: '0'
    via: 1.1 varnish-v4
    x-origin: lb2
    x-cache: MISS
    x-cached: skroutz miss(0)
    accept-ranges: bytes
    transfer-encoding: chunked
    connection: close
  :body: '{"categories":[{"id":40,"name":"Κινητά Τηλέφωνα","children_count":0,"image_url":"https://d.scdn.gr/ds/categories/40/20150508124644_bd07441b.jpg","parent_id":86,"fashion":false,"layout_mode":"list","web_uri":"https://www.skroutz.gr/c/40/kinhta-thlefwna.html","code":"mobile","path":"76,1269,86,40","show_specifications":true,"manufacturer_title":"Κατασκευαστές","match_count":24},{"id":1705,"name":"Smartwatches","children_count":0,"image_url":"https://a.scdn.gr/ds/categories/1705/20150508163903_9d5810ce.jpg","parent_id":1912,"fashion":false,"layout_mode":"tiles","web_uri":"https://www.skroutz.gr/c/1705/Smartwatches.html","code":"smartwatch","path":"76,1269,1912,1705","show_specifications":true,"manufacturer_title":"Κατασκευαστές","match_count":12},{"id":579,"name":"Θήκες
    Κινητών Τηλεφώνων","children_count":0,"image_url":"https://b.scdn.gr/ds/categories/579/20150408173958_42b293c7.jpg","parent_id":86,"fashion":true,"layout_mode":"wide_tiles","web_uri":"https://www.skroutz.gr/c/579/thikes-kinhtwn-thlefwnwn.html","code":"thikes-kinhtwn-thlefwnwn","path":"76,1269,86,579","show_specifications":false,"manufacturer_title":"Κατασκευαστές","match_count":6451},{"id":1105,"name":"Tablets","children_count":0,"image_url":"https://a.scdn.gr/ds/categories/1105/20150127170004_1105.jpg","parent_id":1612,"fashion":false,"layout_mode":"list","web_uri":"https://www.skroutz.gr/c/1105/tablet.html","code":"tablet","path":"76,1269,1612,1105","show_specifications":true,"manufacturer_title":"Κατασκευαστές","match_count":50},{"id":25,"name":"Laptops","children_count":0,"image_url":"https://c.scdn.gr/ds/categories/25/20150127165806_25.jpg","parent_id":769,"fashion":false,"layout_mode":"list","web_uri":"https://www.skroutz.gr/c/25/laptop.html","code":"laptop","path":"76,1269,22,769,25","show_specifications":true,"manufacturer_title":"Κατασκευαστές","match_count":21}],"meta":{"q":"apple","alternatives":[],"strong_matches":{"manufacturer":{"id":356,"name":"Apple","image_url":"https://a.scdn.gr/ds/manufacturers/356/20160322115406_ae6f9a87.png"}},"pagination":{"total_results":292,"total_pages":59,"page":1,"per":5}}}'
:created_at: 2016-10-05 16:59:52.076305953 +03:00
