---
:request:
  :url: https://api.skroutz.gr/search?q=ipone
  :headers:
    :accept: application/vnd.skroutz+json; version=3.1
    :authorization: Bearer VSkzjtrNKLUAkOUFNBHv5vRrDjMowQXQ0uqKElVEds3GCcE5oBn/lqWKIkwkHONY57MbbB/rSzFVr/sDjGyN5w==
  :params:
    :page: 1
    :per: 2
  :verb: :get
:response:
  :status: 200
  :headers:
    server: nginx
    date: Wed, 05 Oct 2016 13:59:52 GMT
    content-type: application/json; charset=utf-8
    vary: Accept-Encoding
    x-ratelimit-limit: '100'
    x-ratelimit-remaining: '77'
    x-ratelimit-reset: '1475676000'
    x-frame-options: SAMEORIGIN
    x-xss-protection: 1; mode=block
    x-content-type-options: nosniff
    link: <https://api.skroutz.gr/search?page=2&per=2&q=ipone>; rel="last", <https://api.skroutz.gr/search?page=2&per=2&q=ipone>;
      rel="next"
    etag: W/"bf19466b00d6f69082877dff980f72c5"
    cache-control: max-age=0, private, must-revalidate
    x-request-id: '729385970'
    x-runtime: '0.038160'
    x-dns-prefetch-control: 'off'
    access-control-allow-origin: "*"
    access-control-allow-methods: HEAD, GET, POST, PUT, DELETE
    x-app: rontok
    x-varnish: '729385969'
    age: '0'
    via: 1.1 varnish-v4
    x-origin: lb2
    x-cache: MISS
    x-cached: skroutz miss(0)
    accept-ranges: bytes
    transfer-encoding: chunked
    connection: close
  :body: '{"categories":[{"id":1257,"name":"Καθαρισμός \u0026 Περιποίηση Μοτοσυκλέτας","children_count":0,"image_url":"https://b.scdn.gr/ds/categories/1257/20160513125857_4d310050.jpeg","parent_id":577,"fashion":false,"layout_mode":"list","web_uri":"https://www.skroutz.gr/c/1257/moto_cleaning.html","code":"moto_cleaning","path":"76,33,382,577,1257","show_specifications":false,"manufacturer_title":"Κατασκευαστές","match_count":9},{"id":1229,"name":"Λιπαντικά
    Moto","children_count":0,"image_url":"https://c.scdn.gr/ds/categories/1229/1229.jpg","parent_id":1227,"fashion":false,"layout_mode":"list","web_uri":"https://www.skroutz.gr/c/1229/lipantika-moto.html","code":"moto_lub","path":"76,33,382,1227,1229","show_specifications":false,"manufacturer_title":"Κατασκευαστές","match_count":2}],"meta":{"q":"ipone","alternatives":[],"strong_matches":{},"pagination":{"total_results":4,"total_pages":2,"page":1,"per":2}}}'
:created_at: 2016-10-05 16:59:52.183927674 +03:00
