---
:request:
  :url: https://api.skroutz.gr/shops/452/locations?embed=address
  :headers:
    :accept: application/vnd.skroutz+json; version=3.1
    :authorization: Bearer VSkzjtrNKLUAkOUFNBHv5vRrDjMowQXQ0uqKElVEds3GCcE5oBn/lqWKIkwkHONY57MbbB/rSzFVr/sDjGyN5w==
  :params:
    :per: 2
  :verb: :get
:response:
  :status: 200
  :headers:
    server: nginx
    date: Wed, 05 Oct 2016 13:59:51 GMT
    content-type: application/json; charset=utf-8
    vary: Accept-Encoding
    x-ratelimit-limit: '100'
    x-ratelimit-remaining: '89'
    x-ratelimit-reset: '1475676000'
    x-frame-options: SAMEORIGIN
    x-xss-protection: 1; mode=block
    x-content-type-options: nosniff
    link: <https://api.skroutz.gr/shops/452/locations?embed=address&page=35&per=2>;
      rel="last", <https://api.skroutz.gr/shops/452/locations?embed=address&page=2&per=2>;
      rel="next"
    cache-control: max-age=300, private
    etag: W/"66ac7f959e99fad8172c71faf6e4b428"
    x-request-id: '725441218'
    x-runtime: '0.034341'
    x-dns-prefetch-control: 'off'
    access-control-allow-origin: "*"
    access-control-allow-methods: HEAD, GET, POST, PUT, DELETE
    x-app: rontok
    x-varnish: '725441217'
    age: '0'
    via: 1.1 varnish-v4
    x-origin: lb2
    x-cache: MISS
    x-cached: skroutz miss(0)
    accept-ranges: bytes
    content-length: '473'
    connection: close
  :body: '{"locations":[{"id":2500,"headquarter":true,"phones":["2102899999"],"pickup_point":false,"store":false,"full_address":"14ο
    ΧΛΜ ΕΟ ΑΘΗΝΩΝ ΛΑΜΙΑΣ 14, Τ.Κ. 14452, ΜΕΤΑΜΟΡΦΩΣΗ, Αττικής","format":"structured","lat":"38.062297","lng":"23.75991","info":"","address":{"id":2500,"street_number":"14","street":"14ο
    ΧΛΜ ΕΟ ΑΘΗΝΩΝ ΛΑΜΙΑΣ","postcode":"14452","city":"ΜΕΤΑΜΟΡΦΩΣΗ","region":"Αττικής","country":"Ελλάδα"}},{"id":1696,"headquarter":false,"phones":["2102899999"],"pickup_point":true,"store":true,"full_address":"ΛΕΩΦΟΡΟΣ
    ΗΡΑΚΛΕΙΟΥ 271, Τ.Κ. 14231, ΝΕΑ ΙΩΝΙΑ, Αττικής","format":"structured","lat":"38.044771","lng":"23.756156","info":"","address":{"id":1696,"street_number":"271","street":"ΛΕΩΦΟΡΟΣ
    ΗΡΑΚΛΕΙΟΥ","postcode":"14231","city":"ΝΕΑ ΙΩΝΙΑ","region":"Αττικής","country":"Ελλάδα"}}],"meta":{"pagination":{"total_results":69,"total_pages":35,"page":1,"per":2}}}'
:created_at: 2016-10-05 16:59:51.519722377 +03:00
