---
:request:
  :url: http://alve.com/api/categories/33/manufacturers
  :headers:
    :accept: application/vnd.alve+json; version=3
    :authorization: Bearer yNE9qe8AC6yVbnVV8ofDPFiitoAREfqiq3THA6NYLQvUHbLHqlmUhHQ6kudbdrHa/0FlExa75mpN4PG/DEzSKw==
  :params:
    :order_by: popularity
    :order_dir: desc
    :per: 2
  :verb: GET
:response:
  :status: 200
  :headers:
    server: nginx
    !binary "Y29udGVudC10eXBl": application/json; charset=utf-8
    !binary "dmFyeQ==": Accept-Encoding
    status: 200 OK
    !binary "bGluaw==": <http://api.alve.com/api/categories/33/manufacturers?order_by=popularity&order_dir=desc&page=13&per=2>;
      rel="last", <http://api.alve.com/api/categories/33/manufacturers?order_by=popularity&order_dir=desc&page=2&per=2>;
      rel="next"
    cache-control: max-age=300, private
    x-ua-compatible: IE=Edge,chrome=1
    x-request-id: '458392772'
    x-runtime: '0.059612'
    x-dns-prefetch-control: 'off'
    x-app: as2
    content-length: '201'
    accept-ranges: bytes
    date: Fri, 18 Jul 2014 15:17:35 GMT
    x-varnish: '458392772'
    age: '0'
    via: 1.1 varnish
    connection: close
    x-origin: varnish2
    x-cache: MISS
  :body: ! '{"manufacturers":[{"id":36,"name":"Samsung","image_url":"http://alve-c.scdn.gr/images/manufacturer_logos/000000/36/samsung-logo.jpg"},{"id":28,"name":"Apple","image_url":"http://alve-c.scdn.gr/images/manufacturer_logos/000000/28/apple-logo-silver.jpg"}],"meta":{"pagination":{"total_results":25,"total_pages":13,"page":1,"per":2}}}'
:created_at: 2014-07-18 18:17:35.227618456 +03:00
