---
:request:
  :url: https://api.alve.com/categories/33/skus?filter_ids[]=4801&filter_ids[]=4828
  :headers:
    :accept: application/vnd.alve+json; version=3
    :authorization: Bearer ro3L8/U7wnqmbcjEGfzjTJCJ9J75lq9LbSMcZwuNey8kBoSKpOVPfuRZFYOFUy0rLS//s02U7ZEIigv0mm0oA==
  :params:
    :per: 4
  :verb: GET
:response:
  :status: 200
  :headers:
    !binary "c2VydmVy": nginx
    !binary "Y29udGVudC10eXBl": application/json; charset=utf-8
    !binary "dmFyeQ==": Accept-Encoding
    !binary "c3RhdHVz": 200 OK
    !binary "eC11YS1jb21wYXRpYmxl": IE=Edge,chrome=1
    !binary "Y2FjaGUtY29udHJvbA==": max-age=0, private, must-revalidate
    !binary "eC1yZXF1ZXN0LWlk": '986354964'
    !binary "eC1ydW50aW1l": '0.058727'
    !binary "eC1kbnMtcHJlZmV0Y2gtY29udHJvbA==": 'off'
    !binary "eC1hcHA=": as2_ssl
    !binary "Y29udGVudC1sZW5ndGg=": '1114'
    !binary "YWNjZXB0LXJhbmdlcw==": bytes
    !binary "ZGF0ZQ==": Mon, 25 Aug 2014 14:48:44 GMT
    !binary "eC12YXJuaXNo": '986354964'
    !binary "YWdl": '0'
    !binary "dmlh": 1.1 varnish
    !binary "Y29ubmVjdGlvbg==": close
    !binary "eC1vcmlnaW4=": varnish1
    !binary "eC1jYWNoZQ==": MISS
  :body: ! '{"skus":[{"id":705848,"ean":"","pn":"","name":"Discovery Elite 32GB","display_name":"General
    Mobile Discovery Elite 32GB","category_id":33,"first_product_shop_info":null,"click_url":null,"price_max":1401.83,"price_min":1149.79,"reviewscore":3.0,"shop_count":27,"plain_spec_summary":"A\u011f
    Ba\u011flant\u0131s\u0131: 2G / 3G, Kamera: 16 Megapiksel,  Ekran: 5.5\", 1920
    x 1080 piksel, Kullan\u0131m Y\u00f6ntemi: Dokunmatik ekran (Touch screen),  Dahili
    Haf\u0131za: 32 GB,  \u0130\u015fletim Sistemi: Android, \u00c7\u0131k\u0131\u015f
    Tarihi: 2014, Smart Phone","manufacturer_id":91,"future":false,"reviews_count":1,"virtual":false,"images":{"main":"http://alve-d.scdn.gr/images/sku_main_images/000705/705848/medium_discoveryElite_size.png","alternatives":["http://alve-a.scdn.gr/images/sku_images/000815/815720/discoveryElite_Detail_right.png","http://alve-c.scdn.gr/images/sku_images/000815/815721/discoveryElite_Detail_01.png","http://alve-c.scdn.gr/images/sku_images/000815/815722/discoveryElite_Detail_02.png","http://alve-c.scdn.gr/images/sku_images/000815/815723/discoveryElite_Detail_03.png","http://alve-c.scdn.gr/images/sku_images/000815/815724/discoveryElite_Detail_04.png"]}},{"id":146414,"ean":"","pn":"","name":"Galaxy
    S4 i9500 16GB","display_name":"Samsung Galaxy S4 i9500 16GB","category_id":33,"first_product_shop_info":null,"click_url":null,"price_max":1838.74,"price_min":1152.0,"reviewscore":0.0,"shop_count":39,"plain_spec_summary":"Single
    SIM, A\u011f Ba\u011flant\u0131s\u0131: 2G / 3G / 4G - LTE, Kamera: 13 Megapiksel,  Ekran:
    5\", 1920 x 1080 piksel, Kullan\u0131m Y\u00f6ntemi: Dokunmatik ekran (Touch screen),  Dahili
    Haf\u0131za: 16 GB,  \u0130\u015fletim Sistemi: Android, \u00c7\u0131k\u0131\u015f
    Tarihi: 2013, Smart Phone","manufacturer_id":36,"future":false,"reviews_count":0,"virtual":false,"images":{"main":"http://alve-d.scdn.gr/images/sku_main_images/000146/146414/medium_img_relationship_01_phone.png","alternatives":["http://alve-a.scdn.gr/images/sku_images/000146/146255/img_lifecare_02_phone.png","http://alve-c.scdn.gr/images/sku_images/000485/485868/Samsung-Galaxy-S4.jpg","http://alve-d.scdn.gr/images/sku_images/000485/485869/samsung-galaxy-s4-red-blue.jpg","http://alve-c.scdn.gr/images/sku_images/000485/485870/Samsung-Galaxy-S4-Artic-Blu.jpg","http://alve-a.scdn.gr/images/sku_images/000485/485871/Galaxy-S4-black-and-white.jpg"]}},{"id":353170,"ean":"","pn":"","name":"Discovery
    16GB","display_name":"General Mobile Discovery 16GB","category_id":33,"first_product_shop_info":null,"click_url":null,"price_max":995.99,"price_min":657.02,"reviewscore":5.0,"shop_count":36,"plain_spec_summary":"Dual
    SIM, Kamera: 8 Megapiksel,  Ekran: 4.7\", 1280 x 720 piksel, Kullan\u0131m Y\u00f6ntemi:
    Dokunmatik ekran (Touch screen),  Dahili Haf\u0131za: 16 GB,  \u0130\u015fletim
    Sistemi: Android, Smart Phone","manufacturer_id":91,"future":false,"reviews_count":1,"virtual":false,"images":{"main":"http://alve-d.scdn.gr/images/sku_main_images/000353/353170/medium_28210488420485972387.jpg","alternatives":["http://alve-b.scdn.gr/images/sku_images/000413/413773/general-mobile-discovery-hd-ekran.jpg","http://alve-c.scdn.gr/images/sku_images/000485/485949/20131119103300748_generalmobilediscovery16gbsiyah3.jpg","http://alve-c.scdn.gr/images/sku_images/000485/485950/generalmobile-berkayyilmaz.jpg","http://alve-d.scdn.gr/images/sku_images/000485/485951/makethumb.aspx"]}},{"id":975825,"ean":"","pn":"","name":"Galaxy
    S5 Mini","display_name":"Samsung Galaxy S5 Mini","category_id":33,"first_product_shop_info":null,"click_url":null,"price_max":1299.0,"price_min":1299.0,"reviewscore":0.0,"shop_count":4,"plain_spec_summary":"Single
    SIM, A\u011f Ba\u011flant\u0131s\u0131: 2G / 3G / 4G - LTE, Kamera: 8 Megapiksel,  Ekran:
    4.5\", 1280 x 720 piksel, Kullan\u0131m Y\u00f6ntemi: Dokunmatik ekran (Touch
    screen),  Dahili Haf\u0131za: 16 GB,  \u0130\u015fletim Sistemi: Android, \u00c7\u0131k\u0131\u015f
    Tarihi: 2014, Smart Phone","manufacturer_id":36,"future":false,"reviews_count":0,"virtual":false,"images":{"main":"http://alve-b.scdn.gr/images/sku_main_images/000975/975825/medium_25053496.jpg","alternatives":[]}}],"meta":{"pagination":{"total_results":131,"total_pages":33,"page":1,"per":4}}}'
:created_at: 2014-08-25 17:48:44.629133216 +03:00
:meta:
  :description: Lists skus filtered given filters.
