---
:request:
  :url: http://api.alve.com/categories/33/skus?manufacturer_ids[]=36&manufacturer_ids[]=28
  :headers:
    :accept: application/vnd.alve+json; version=3
    :authorization: Bearer jRc1LQwgl9wVf6QJT1hTfSL32I7V97Yta5fjEpDUHIDoPox/jRhUTe0K19DamN4NArCAy7tTrUyI8yXRxOVWg==
  :params:
    :per: 4
  :verb: GET
:response:
  :status: 200
  :headers:
    !binary "c2VydmVy": nginx
    !binary "Y29udGVudC10eXBl": application/json; charset=utf-8
    !binary "dmFyeQ==": Accept-Encoding
    !binary "c3RhdHVz": 200 OK
    !binary "eC11YS1jb21wYXRpYmxl": IE=Edge,chrome=1
    !binary "Y2FjaGUtY29udHJvbA==": max-age=0, private, must-revalidate
    !binary "eC1yZXF1ZXN0LWlk": '984168107'
    !binary "eC1ydW50aW1l": '0.070657'
    !binary "eC1kbnMtcHJlZmV0Y2gtY29udHJvbA==": 'off'
    !binary "eC1hcHA=": as2
    !binary "Y29udGVudC1sZW5ndGg=": '1257'
    !binary "YWNjZXB0LXJhbmdlcw==": bytes
    !binary "ZGF0ZQ==": Tue, 12 Aug 2014 09:16:24 GMT
    !binary "eC12YXJuaXNo": '984168107'
    !binary "YWdl": '0'
    !binary "dmlh": 1.1 varnish
    !binary "Y29ubmVjdGlvbg==": close
    !binary "eC1vcmlnaW4=": varnish1
    !binary "eC1jYWNoZQ==": MISS
  :body: ! '{"skus":[{"id":146414,"ean":"","pn":"","name":"Galaxy S4 i9500 16GB","display_name":"Samsung
    Galaxy S4 i9500 16GB","category_id":33,"first_product_shop_info":null,"click_url":null,"price_max":1966.65,"price_min":1206.0,"reviewscore":0.0,"shop_count":36,"plain_spec_summary":"Single
    SIM, A\u011f Ba\u011flant\u0131s\u0131: 2G / 3G / 4G - LTE, Kamera: 13 Megapiksel,  Ekran:
    5\", 1920 x 1080 piksel, Kullan\u0131m Y\u00f6ntemi: Dokunmatik ekran (Touch screen),  Dahili
    Haf\u0131za: 16 GB,  \u0130\u015fletim Sistemi: Android, \u00c7\u0131k\u0131\u015f
    Tarihi: 2013, Smart Phone","manufacturer_id":36,"future":false,"reviews_count":0,"virtual":false,"images":{"main":"http://alve-d.scdn.gr/images/sku_main_images/000146/146414/medium_img_relationship_01_phone.png","alternatives":["http://alve-a.scdn.gr/images/sku_images/000146/146255/img_lifecare_02_phone.png","http://alve-c.scdn.gr/images/sku_images/000485/485868/Samsung-Galaxy-S4.jpg","http://alve-d.scdn.gr/images/sku_images/000485/485869/samsung-galaxy-s4-red-blue.jpg","http://alve-c.scdn.gr/images/sku_images/000485/485870/Samsung-Galaxy-S4-Artic-Blu.jpg","http://alve-a.scdn.gr/images/sku_images/000485/485871/Galaxy-S4-black-and-white.jpg"]}},{"id":347349,"ean":"","pn":"MD235D/A","name":"iPhone
    4s 8GB","display_name":"Apple iPhone 4s 8GB","category_id":33,"first_product_shop_info":null,"click_url":null,"price_max":1785.58,"price_min":1117.0,"reviewscore":0.0,"shop_count":22,"plain_spec_summary":"Single
    SIM, A\u011f Ba\u011flant\u0131s\u0131: 2G / 3G, Kamera: 8 Megapiksel,  Ekran:
    3.5\", 640 x 960 piksel, Kullan\u0131m Y\u00f6ntemi: Dokunmatik ekran (Touch screen),  Dahili
    Haf\u0131za: 8 GB,  \u0130\u015fletim Sistemi: iOS, \u00c7\u0131k\u0131\u015f
    Tarihi: 2011, Smart Phone","manufacturer_id":28,"future":false,"reviews_count":0,"virtual":false,"images":{"main":"http://alve-b.scdn.gr/images/sku_main_images/000347/347349/medium_iphone4-900x900.jpg","alternatives":["http://alve-b.scdn.gr/images/sku_images/000407/407140/16713_12249449_3209.jpg","http://alve-c.scdn.gr/images/sku_images/000407/407141/15743_12249449-7336.jpg","http://alve-a.scdn.gr/images/sku_images/000485/485843/psd-iphone4s-large.jpg","http://alve-b.scdn.gr/images/sku_images/000643/643881/145011470-2-apple_iphone_4s_16_gb_black_akilli_telefon_ar_tek.jpg","http://alve-c.scdn.gr/images/sku_images/000643/643880/iphone-4s-black.png"]}},{"id":25285,"ean":"","pn":"MD128DN/A","name":"iPhone
    4 8GB","display_name":"Apple iPhone 4 8GB","category_id":33,"first_product_shop_info":null,"click_url":null,"price_max":2117.51,"price_min":979.0,"reviewscore":0.0,"shop_count":8,"plain_spec_summary":"Single
    SIM, A\u011f Ba\u011flant\u0131s\u0131: 2G / 3G, Kamera: 5 Megapiksel,  Ekran:
    3.5\", 640 x 960 piksel, Kullan\u0131m Y\u00f6ntemi: Dokunmatik ekran (Touch screen),  Dahili
    Haf\u0131za: 8 GB,  \u0130\u015fletim Sistemi: iOS, \u00c7\u0131k\u0131\u015f
    Tarihi: 2010, Smart Phone","manufacturer_id":28,"future":false,"reviews_count":0,"virtual":false,"images":{"main":"http://alve-d.scdn.gr/images/sku_main_images/000025/25285/medium_iphone4s.jpg","alternatives":["http://alve-a.scdn.gr/images/sku_images/000025/25851/12741107_6752.jpg","http://alve-d.scdn.gr/images/sku_images/000025/25852/12741107_5068.jpg","http://alve-a.scdn.gr/images/sku_images/000464/464699/iphone-4-240d-800.jpg","http://alve-d.scdn.gr/images/sku_images/000485/485850/iphone4.jpg","http://alve-d.scdn.gr/images/sku_images/000485/485852/12741107_8884.jpg"]}},{"id":58324,"ean":"","pn":"","name":"Galaxy
    S III i9300 16GB","display_name":"Samsung Galaxy S III i9300 16GB","category_id":33,"first_product_shop_info":null,"click_url":null,"price_max":1721.48,"price_min":885.0,"reviewscore":0.0,"shop_count":37,"plain_spec_summary":"Single
    SIM, A\u011f Ba\u011flant\u0131s\u0131: 2G / 3G, Kamera: 8 Megapiksel,  Ekran:
    4.8\", 1280 x 720 piksel, Kullan\u0131m Y\u00f6ntemi: Dokunmatik ekran (Touch
    screen),  Dahili Haf\u0131za: 16 GB,  \u0130\u015fletim Sistemi: Android, \u00c7\u0131k\u0131\u015f
    Tarihi: 2012, Smart Phone","manufacturer_id":36,"future":false,"reviews_count":0,"virtual":false,"images":{"main":"http://alve-a.scdn.gr/images/sku_main_images/000058/58324/medium_Samsung_Galaxy_SIII_S3_White_M.jpg","alternatives":["http://alve-d.scdn.gr/images/sku_images/000485/485892/Samsung-GT-i9300-Galaxy-S-III-BEYAZ__58791637_0.jpg","http://alve-b.scdn.gr/images/sku_images/000485/485893/samsung-galaxy-s3-format-nasil-atilir-1.jpg","http://alve-a.scdn.gr/images/sku_images/000485/485894/1375551359_46123samsung-galaxy.jpg","http://alve-c.scdn.gr/images/sku_images/000485/485895/Samsung-Galaxy-S3.jpg","http://alve-d.scdn.gr/images/sku_images/000485/485896/GalaxyS3-newcolours-580-100.jpg","http://alve-b.scdn.gr/images/sku_images/000485/485897/xl_Samsung_Galaxy_S3_LTE_4G.jpg"]}}],"meta":{"pagination":{"total_results":76,"total_pages":19,"page":1,"per":4}}}'
:created_at: 2014-08-12 12:16:24.940542832 +03:00
:meta:
  :description: Lists skus filtered by manufacturers.
