---
:request:
  :url: http://api.alve.com/categories/33/skus?include_meta=available_filters
  :headers:
    :accept: application/vnd.alve+json; version=3
    :authorization: Bearer XsWUwEUOwk8OHBcwxIKVzLxJQVPsb6xXtim5MltaRcg8zbrh9qcdU2keW/pI/Bw9Vz9YPVWmWlT3llbzI54yTQ==
  :params:
    :per: 1
  :verb: :get
:response:
  :status: 200
  :headers:
    server: nginx
    content-type: application/json; charset=utf-8
    vary: Accept-Encoding
    x-ratelimit-limit: '100'
    x-ratelimit-remaining: '86'
    x-ratelimit-reset: '1449661980'
    status: 200 OK
    x-frame-options: SAMEORIGIN
    x-xss-protection: 1; mode=block
    x-content-type-options: nosniff
    etag: W/"551ae27308921c91267c718bc7d8f5a7"
    cache-control: max-age=0, private, must-revalidate
    x-request-id: '287459677'
    x-runtime: '0.060647'
    x-dns-prefetch-control: 'off'
    access-control-allow-origin: "*"
    access-control-allow-methods: HEAD, GET, POST, PUT, DELETE
    x-app: as1
    content-length: '1048'
    accept-ranges: bytes
    date: Wed, 09 Dec 2015 11:52:24 GMT
    x-varnish: '287459677'
    age: '0'
    via: 1.1 varnish
    connection: close
    x-origin: lb2
    x-cache: MISS
  :body: '{"skus":[{"id":3155889,"ean":"","pn":"","name":"Galaxy J7","display_name":"Samsung
    Galaxy J7","category_id":33,"first_product_shop_info":null,"click_url":null,"price_max":1199.0,"price_min":869.0,"reviewscore":5.0,"shop_count":15,"plain_spec_summary":"SIM:
    Çift, Ağ Bağlantısı: 2G / 3.5G / 3G / 4G, Kamera: 13 MP,  1280 x 720 piksel Dokunmatik
    Ekran (Touchscreen),  Dahili Hafıza: 16 GB,  İşletim Sistemi: Android, Çıkış Tarihi:
    2015, SmartPhone, 3000 mAh, Ekran Boyutu: Büyük (5.5\" ve üzeri)","manufacturer_id":36,"future":false,"reviews_count":1,"virtual":false,"images":{"main":"http://alve-a.scdn.gr/images/sku_main_images/003155/3155889/medium_20150817165332_samsung_galaxy_j7.jpeg","alternatives":["http://alve-d.scdn.gr/images/sku_images/002392/2392523/20150817165336_8c5afb37.jpeg","http://alve-a.scdn.gr/images/sku_images/002392/2392524/20150817165337_d3cbc980.jpeg","http://alve-c.scdn.gr/images/sku_images/002392/2392525/20150817165338_0db4e525.jpeg","http://alve-b.scdn.gr/images/sku_images/002392/2392526/20150817165340_81dcfd5a.jpeg","http://alve-b.scdn.gr/images/sku_images/002392/2392527/20150817165342_b5fa3a1c.jpeg","http://alve-d.scdn.gr/images/sku_images/002392/2392528/20150817165343_6ace81fb.jpeg"]},"web_uri":"http://alve.com/s/3155889/Samsung-Galaxy-J7.html"}],"meta":{"ordered_by":"popularity","available_filters":{"filters":{"4828":209,"4829":172,"4830":101,"4832":98,"4833":37,"71830":37,"7994":213,"7995":120,"4801":180,"4802":15,"4805":14,"4808":110,"4809":62,"4806":39,"73211":105,"7997":68,"7991":15,"4836":1,"8012":67,"8013":44,"74860":92,"74859":74,"74861":44,"74862":23,"37653":190,"37654":123,"57147":11,"54888":90,"37656":82,"37655":32,"73208":75,"73207":40,"73209":11,"73210":4},"manufacturers":{"36":50,"178":21,"53":19,"30":18,"179":18,"28":15,"12":10,"183":9,"39":8,"91":8,"3":7,"169":6,"601":4,"103":3,"111":3,"2702":3,"44":2,"50":2,"92":2,"95":2,"279":2,"1139":2,"1380":2,"1520":2,"2996":2,"3053":2,"83":1,"153":1,"233":1,"1417":1,"1566":1,"2006":1,"2239":1,"5875":1,"5876":1,"5877":1,"5878":1}},"pagination":{"total_results":233,"total_pages":233,"page":1,"per":1}}}'
:created_at: 2015-12-09 13:51:53.555080770 +02:00
