---
:request:
  :url: http://api.alve.com/categories/33/filter_groups
  :headers:
    :accept: application/vnd.alve+json; version=3
    :authorization: Bearer jRc1LQwgl9wVf6QJT1hTfSL32I7V97Yta5fjEpDUHIDoPox/jRhUTe0K19DamN4NArCAy7tTrUyI8yXRxOVWg==
  :params:
    :per: 2
  :verb: GET
:response:
  :status: 200
  :headers:
    !binary "c2VydmVy": nginx
    !binary "Y29udGVudC10eXBl": application/json; charset=utf-8
    !binary "dmFyeQ==": Accept-Encoding
    !binary "c3RhdHVz": 200 OK
    !binary "bGluaw==": <http://api.alve.com/categories/33/filter_groups?page=5&per=2>;
      rel="last", <http://api.alve.com/categories/33/filter_groups?page=2&per=2>;
      rel="next"
    !binary "eC11YS1jb21wYXRpYmxl": IE=Edge,chrome=1
    !binary "Y2FjaGUtY29udHJvbA==": max-age=0, private, must-revalidate
    !binary "eC1yZXF1ZXN0LWlk": '463125333'
    !binary "eC1ydW50aW1l": '0.057316'
    !binary "eC1kbnMtcHJlZmV0Y2gtY29udHJvbA==": 'off'
    !binary "eC1hcHA=": as2
    !binary "Y29udGVudC1sZW5ndGg=": '235'
    !binary "YWNjZXB0LXJhbmdlcw==": bytes
    !binary "ZGF0ZQ==": Tue, 12 Aug 2014 09:16:24 GMT
    !binary "eC12YXJuaXNo": '463125333'
    !binary "YWdl": '0'
    !binary "dmlh": 1.1 varnish
    !binary "Y29ubmVjdGlvbg==": close
    !binary "eC1vcmlnaW4=": varnish2
    !binary "eC1jYWNoZQ==": MISS
  :body: ! '{"filter_groups":[{"id":1417,"name":"Ekran Boyutu","active":true,"category_id":33,"created_at":null,"updated_at":"2014-08-11T22:32:53+03:00","hint":"","combined":false},{"id":1416,"name":"\u0130\u015fletim
    Sistemi","active":true,"category_id":33,"created_at":null,"updated_at":"2014-08-11T22:32:54+03:00","hint":"","combined":false}],"meta":{"pagination":{"total_results":10,"total_pages":5,"page":1,"per":2}}}'
:created_at: 2014-08-12 12:16:24.766447535 +03:00
