---
:request:
  :url: https://api.alve.com/manufacturers/28/categories
  :headers:
    :accept: application/vnd.alve+json; version=3
    :authorization: Bearer gnGGY6izXGLUTHatIL3d3dZh1/awP3835gjl20kgucxsbhOCeFN/IYiivVQFDpWjQePaPgvhBDGQLqwXrafdw==
  :params:
    :per: 2
  :verb: GET
:response:
  :status: 200
  :headers:
    server: nginx
    content-type: application/json; charset=utf-8
    vary: Accept-Encoding
    x-ratelimit-limit: '100'
    x-ratelimit-remaining: '85'
    x-ratelimit-reset: '1419427800'
    status: 200 OK
    link: <https://api.alve.com/manufacturers/28/categories?page=10&per=2>; rel="last",
      <https://api.alve.com/manufacturers/28/categories?page=2&per=2>; rel="next"
    x-ua-compatible: IE=Edge,chrome=1
    cache-control: max-age=0, private, must-revalidate
    x-request-id: '1367905263'
    x-runtime: '0.075611'
    x-dns-prefetch-control: 'off'
    access-control-allow-origin: "*"
    access-control-allow-methods: HEAD, GET, POST, PUT, DELETE
    x-app: as1_ssl
    content-length: '280'
    accept-ranges: bytes
    date: Wed, 24 Dec 2014 13:29:45 GMT
    x-varnish: '1367905263'
    age: '0'
    via: 1.1 varnish
    connection: close
    x-origin: lb1
    x-cache: MISS
  :body: '{"categories":[{"id":33,"name":"Cep Telefonu","children_count":0,"image_url":"http://alve-a.scdn.gr/images/categories/large/33.jpg","parent_id":32,"fashion":false,"path":"1,2,12,32,33","show_specifications":true,"manufacturer_title":"Markalar"},{"id":72,"name":"Laptop","children_count":0,"image_url":"http://alve-c.scdn.gr/images/categories/large/72.jpg","parent_id":9,"fashion":false,"path":"1,2,8,9,72","show_specifications":true,"manufacturer_title":"Markalar"}],"meta":{"pagination":{"total_results":20,"total_pages":10,"page":1,"per":2}}}'
:created_at: 2014-12-24 15:28:11.073813958 +02:00
