---
:request:
  :url: http://api.alve.com/manufacturers
  :headers:
    :accept: application/vnd.alve+json; version=3.1
    :authorization: Bearer Ei3DkEzs/gQSMk8EW8mPBJEyYPCliK7bvq1KhuNcnkrnbMd2TrbOfdvf1PpyWJ8nqQEorWau0Aq0xppWe4gdzg==
  :params:
    :per: 2
  :verb: :get
:response:
  :status: 200
  :headers:
    server: nginx
    date: Wed, 05 Oct 2016 14:33:31 GMT
    content-type: application/json; charset=utf-8
    vary: Accept-Encoding
    x-ratelimit-limit: '100'
    x-ratelimit-remaining: '85'
    x-ratelimit-reset: '1475678040'
    x-frame-options: SAMEORIGIN
    x-xss-protection: 1; mode=block
    x-content-type-options: nosniff
    link: <http://api.alve.com/manufacturers?page=4301&per=2>; rel="last", <http://api.alve.com/manufacturers?page=2&per=2>;
      rel="next"
    etag: W/"293a001d2a5bbce01638ae9c9471c7e2"
    cache-control: max-age=0, private, must-revalidate
    x-request-id: '58035830'
    x-runtime: '0.023962'
    x-dns-prefetch-control: 'off'
    access-control-allow-origin: "*"
    access-control-allow-methods: HEAD, GET, POST, PUT, DELETE
    x-app: as1
    x-varnish: '58035829'
    age: '0'
    via: 1.1 varnish-v4
    x-origin: lb2
    x-cache: MISS
    x-cached: alve miss(0)
    accept-ranges: bytes
    content-length: '203'
    connection: close
  :body: '{"manufacturers":[{"id":1,"name":"Casio","image_url":"https://alve-a.scdn.gr/ds/manufacturers/1/20150710132501_f89f71d8.png"},{"id":2,"name":"Canon","image_url":"https://alve-d.scdn.gr/ds/manufacturers/2/CanonLogo.jpg"}],"meta":{"pagination":{"total_results":8601,"total_pages":4301,"page":1,"per":2}}}'
:created_at: 2016-10-05 17:33:31.890705437 +03:00
