---
:request:
  :url: http://api.alve.com/manufacturers/28/skus
  :headers:
    :accept: application/vnd.alve+json; version=3
    :authorization: Bearer XsWUwEUOwk8OHBcwxIKVzLxJQVPsb6xXtim5MltaRcg8zbrh9qcdU2keW/pI/Bw9Vz9YPVWmWlT3llbzI54yTQ==
  :params:
    :per: 2
  :verb: :get
:response:
  :status: 200
  :headers:
    server: nginx
    content-type: application/json; charset=utf-8
    vary: Accept-Encoding
    x-ratelimit-limit: '100'
    x-ratelimit-remaining: '98'
    x-ratelimit-reset: '1449661980'
    status: 200 OK
    x-frame-options: SAMEORIGIN
    x-xss-protection: 1; mode=block
    x-content-type-options: nosniff
    link: <http://api.alve.com/manufacturers/28/skus?page=104&per=2>; rel="last",
      <http://api.alve.com/manufacturers/28/skus?page=2&per=2>; rel="next"
    etag: W/"fa13a76790aa100cfd00d7777f39475d"
    cache-control: max-age=0, private, must-revalidate
    x-request-id: '287459624'
    x-runtime: '0.103390'
    x-dns-prefetch-control: 'off'
    access-control-allow-origin: "*"
    access-control-allow-methods: HEAD, GET, POST, PUT, DELETE
    x-app: as1
    content-length: '918'
    accept-ranges: bytes
    date: Wed, 09 Dec 2015 11:52:12 GMT
    x-varnish: '287459624'
    age: '0'
    via: 1.1 varnish
    connection: close
    x-origin: lb2
    x-cache: MISS
  :body: '{"skus":[{"id":345440,"ean":"","pn":"","name":"iPhone 5s 16GB","display_name":"Apple
    iPhone 5s 16GB","category_id":33,"first_product_shop_info":null,"click_url":null,"price_max":2128.5,"price_min":1199.0,"reviewscore":0.0,"shop_count":13,"plain_spec_summary":"SIM:
    Tek, Ağ Bağlantısı: 2G / 3G / 4G, Kamera: 8 MP,  640 x 1136 piksel Dokunmatik
    Ekran (Touchscreen),  Dahili Hafıza: 16 GB,  İşletim Sistemi: iOS, Çıkış Tarihi:
    2013, SmartPhone, 1560 mAh, Ekran Boyutu: Küçük (3.5\" - 4.5\")","manufacturer_id":28,"future":false,"reviews_count":0,"virtual":false,"images":{"main":"http://alve-a.scdn.gr/images/sku_main_images/000345/345440/medium_topic_iphone_5s.png","alternatives":["http://alve-d.scdn.gr/images/sku_images/000401/401209/hero_start__keyframe.jpg","http://alve-c.scdn.gr/images/sku_images/000401/401211/performance_m7_hero.jpg","http://alve-c.scdn.gr/images/sku_images/000658/658682/touchid_hero.jpg","http://alve-b.scdn.gr/images/sku_images/000804/804842/iPhone-5S-gold.jpg","http://alve-d.scdn.gr/images/sku_images/000804/804843/iphone5s.jpg"]},"web_uri":"http://alve.com/s/345440/Apple-iPhone-5s-16GB.html"},{"id":3253124,"ean":"","pn":"","name":"iPhone
    6s 16GB","display_name":"Apple iPhone 6s 16GB","category_id":33,"first_product_shop_info":null,"click_url":null,"price_max":3478.8,"price_min":2779.0,"reviewscore":0.0,"shop_count":30,"plain_spec_summary":"SIM:
    Tek, Ağ Bağlantısı: 2G / 3G / 4G, Kamera: 12 MP,  1334x750 piksel Dokunmatik Ekran
    (Touchscreen),  Dahili Hafıza: 16 GB,  İşletim Sistemi: iOS, Çıkış Tarihi: 2015,
    SmartPhone, 1715 mAh, Ekran Boyutu: Orta (4.6\" - 5.3\")","manufacturer_id":28,"future":false,"reviews_count":0,"virtual":false,"images":{"main":"http://alve-a.scdn.gr/images/sku_main_images/003253/3253124/medium_20150910092821_apple_iphone_6s.jpeg","alternatives":["http://alve-c.scdn.gr/images/sku_images/002399/2399161/20150910092822_6395b774.jpeg","http://alve-d.scdn.gr/images/sku_images/002399/2399163/20150910092834_25250209.jpeg","http://alve-b.scdn.gr/images/sku_images/002399/2399164/20150910092841_271c6a58.jpeg","http://alve-a.scdn.gr/images/sku_images/002399/2399165/20150910092842_620e7c06.jpeg","http://alve-a.scdn.gr/images/sku_images/002399/2399167/20150910092854_c1994e53.jpeg","http://alve-c.scdn.gr/images/sku_images/002399/2399172/20150910094659_bf225396.jpeg"]},"web_uri":"http://alve.com/s/3253124/Apple-iPhone-6s-16GB.html"}],"meta":{"pagination":{"total_results":207,"total_pages":104,"page":1,"per":2}}}'
:created_at: 2015-12-09 13:51:41.851666720 +02:00
