---
:request:
  :url: https://api.alve.com/search?q=Tablets
  :headers:
    :accept: application/vnd.alve+json; version=3
    :authorization: Bearer 5Iq6FpP5ygw3M/ajGUZ34X4vsUprjIan8Dypsni6eEuJ0987ERkjw7APTTgyRk58KbqtrgGSnb46w3/dmew==
  :params:
    :page: 1
    :per: 2
  :verb: :get
:response:
  :status: 200
  :headers:
    server: nginx
    content-type: application/json; charset=utf-8
    vary: Accept-Encoding
    x-ratelimit-limit: '100'
    x-ratelimit-remaining: '94'
    x-ratelimit-reset: '1449665580'
    status: 200 OK
    x-frame-options: SAMEORIGIN
    x-xss-protection: 1; mode=block
    x-content-type-options: nosniff
    link: <http://api.alve.com/search?page=2&per=2&q=Tablets>; rel="last", <http://api.alve.com/search?page=2&per=2&q=Tablets>;
      rel="next"
    etag: W/"579f524e42a8e435951f54a0c17e6435"
    cache-control: max-age=0, private, must-revalidate
    x-request-id: '287473307'
    x-runtime: '0.053836'
    x-dns-prefetch-control: 'off'
    access-control-allow-origin: "*"
    access-control-allow-methods: HEAD, GET, POST, PUT, DELETE
    x-app: as1
    content-length: '405'
    accept-ranges: bytes
    date: Wed, 09 Dec 2015 12:52:08 GMT
    x-varnish: '287473307'
    age: '0'
    via: 1.1 varnish
    connection: close
    x-origin: lb2
    x-cache: MISS
  :body: '{"categories":[{"id":19,"name":"Tablet","children_count":0,"image_url":"http://alve-c.scdn.gr/images/categories/large/20150622142809_2e78d8bc.jpg","parent_id":9,"fashion":false,"layout_mode":"tiles","web_uri":"http://alve.com/c/19/tablet.html","path":"1,2,8,9,19","show_specifications":true,"manufacturer_title":"Markalar","match_count":348},{"id":297,"name":"Beslenme
    - Sağlık","children_count":0,"image_url":"http://alve-d.scdn.gr/images/categories/large/297.jpg","parent_id":173,"fashion":false,"layout_mode":"tiles","web_uri":"http://alve.com/c/297/beslenme-saglik.html","path":"1,5,173,297","show_specifications":false,"manufacturer_title":"Markalar","match_count":5}],"meta":{"q":"Tablets","alternatives":[],"strong_matches":{},"pagination":{"total_results":3,"total_pages":2,"page":1,"per":2}}}'
:created_at: 2015-12-09 14:51:37.844942683 +02:00
