---
:request:
  :url: http://api.alve.com/search?q=ipone
  :headers:
    :accept: application/vnd.alve+json; version=3.1
    :authorization: Bearer Ei3DkEzs/gQSMk8EW8mPBJEyYPCliK7bvq1KhuNcnkrnbMd2TrbOfdvf1PpyWJ8nqQEorWau0Aq0xppWe4gdzg==
  :params:
    :page: 1
    :per: 2
  :verb: :get
:response:
  :status: 200
  :headers:
    server: nginx
    date: Wed, 05 Oct 2016 14:33:32 GMT
    content-type: application/json; charset=utf-8
    vary: Accept-Encoding
    x-ratelimit-limit: '100'
    x-ratelimit-remaining: '77'
    x-ratelimit-reset: '1475678040'
    x-frame-options: SAMEORIGIN
    x-xss-protection: 1; mode=block
    x-content-type-options: nosniff
    link: <http://api.alve.com/search?page=2&per=2&q=ipone>; rel="last", <http://api.alve.com/search?page=2&per=2&q=ipone>;
      rel="next"
    etag: W/"1d0bb3ab8df318d5e11ddf561212ab81"
    cache-control: max-age=0, private, must-revalidate
    x-request-id: '57564540'
    x-runtime: '0.061918'
    x-dns-prefetch-control: 'off'
    access-control-allow-origin: "*"
    access-control-allow-methods: HEAD, GET, POST, PUT, DELETE
    x-app: as1
    x-varnish: '57564539'
    age: '0'
    via: 1.1 varnish-v4
    x-origin: lb2
    x-cache: MISS
    x-cached: alve miss(0)
    accept-ranges: bytes
    content-length: '416'
    connection: close
  :body: '{"categories":[{"id":518,"name":"Fiş - Adaptör","children_count":0,"image_url":"https://alve-d.scdn.gr/ds/categories/518/518.jpg","parent_id":512,"fashion":false,"layout_mode":"list","web_uri":"http://alve.com/c/518/fis-adaptor.html","code":"fis_adaptorler","path":"1,2,512,518","show_specifications":false,"manufacturer_title":"Markalar","match_count":4},{"id":34,"name":"Cep
    Telefonu Kılıfı","children_count":0,"image_url":"https://alve-d.scdn.gr/ds/categories/34/34.jpg","parent_id":32,"fashion":false,"layout_mode":"tiles","web_uri":"http://alve.com/c/34/cep-telefonu-kilifi.html","code":"cep-telefonu-kiliflari","path":"1,2,12,32,34","show_specifications":false,"manufacturer_title":"Markalar","match_count":2}],"meta":{"q":"ipone","alternatives":[],"strong_matches":{},"pagination":{"total_results":3,"total_pages":2,"page":1,"per":2}}}'
:created_at: 2016-10-05 17:33:32.863955462 +03:00
