---
:request:
  :url: https://api.alve.com/search?q=apple
  :headers:
    :accept: application/vnd.alve+json; version=3
    :authorization: Bearer /nWNZ7z18NTvvX1VoEBPbw8330QRQ6vIYXWJshC/zZlQ9UktjjsLdask1zx2qGNxBlsi4LEWZdX6T0m78Rg==
  :params:
    :page: 1
    :per: 5
  :verb: GET
:response:
  :status: 200
  :headers:
    server: nginx
    content-type: application/json; charset=utf-8
    vary: Accept-Encoding
    x-ratelimit-limit: '100'
    x-ratelimit-remaining: '97'
    x-ratelimit-reset: '1417708020'
    status: 200 OK
    link: <https://api.alve.com/search?page=11&per=5&q=apple>; rel="last", <https://api.alve.com/search?page=2&per=5&q=apple>;
      rel="next"
    x-ua-compatible: IE=Edge,chrome=1
    cache-control: max-age=0, private, must-revalidate
    x-request-id: '1362440486'
    x-runtime: '0.150265'
    x-dns-prefetch-control: 'off'
    access-control-allow-origin: "*"
    access-control-allow-methods: HEAD, GET, POST, PUT, DELETE
    x-app: as1_ssl
    content-length: '432'
    accept-ranges: bytes
    date: Thu, 04 Dec 2014 15:46:54 GMT
    x-varnish: '1362440486'
    age: '0'
    via: 1.1 varnish
    connection: close
    x-origin: lb1
    x-cache: MISS
  :body: '{"categories":[{"id":33,"name":"Cep Telefonu","children_count":0,"image_url":"http://alve-a.scdn.gr/images/categories/large/33.jpg","parent_id":32,"fashion":false,"show_specifications":true,"manufacturer_title":"Markalar","match_count":16},{"id":72,"name":"Laptop","children_count":0,"image_url":"http://alve-c.scdn.gr/images/categories/large/72.jpg","parent_id":9,"fashion":false,"show_specifications":true,"manufacturer_title":"Markalar","match_count":25},{"id":19,"name":"Tablet","children_count":0,"image_url":"http://alve-c.scdn.gr/images/categories/large/19.jpg","parent_id":9,"fashion":false,"show_specifications":true,"manufacturer_title":"Markalar","match_count":49},{"id":73,"name":"Laptop
    \u00c7antas\u0131","children_count":0,"image_url":"http://alve-c.scdn.gr/images/categories/large/73.jpg","parent_id":9,"fashion":false,"show_specifications":true,"manufacturer_title":"Markalar","match_count":8},{"id":11,"name":"Masa\u00fcst\u00fc
    Bilgisayar","children_count":0,"image_url":"http://alve-d.scdn.gr/images/categories/large/11.jpg","parent_id":10,"fashion":false,"show_specifications":false,"manufacturer_title":"Markalar","match_count":16}],"meta":{"q":"apple","alternatives":[],"strong_matches":{"manufacturer":{"id":28,"name":"Apple","image_url":"http://alve-c.scdn.gr/images/manufacturer_logos/000000/28/apple-logo-silver.jpg"}},"pagination":{"total_results":51,"total_pages":11,"page":1,"per":5}}}'
:created_at: 2014-12-04 17:45:57.142372320 +02:00
