---
:request:
  :url: http://api.alve.com/skus/146414/products
  :headers:
    :accept: application/vnd.alve+json; version=3
    :authorization: Bearer jRc1LQwgl9wVf6QJT1hTfSL32I7V97Yta5fjEpDUHIDoPox/jRhUTe0K19DamN4NArCAy7tTrUyI8yXRxOVWg==
  :verb: GET
:response:
  :status: 200
  :headers:
    !binary "c2VydmVy": nginx
    !binary "Y29udGVudC10eXBl": application/json; charset=utf-8
    !binary "dmFyeQ==": Accept-Encoding
    !binary "c3RhdHVz": 200 OK
    !binary "bGluaw==": <http://api.alve.com/skus/146414/products?page=4>; rel="last",
      <http://api.alve.com/skus/146414/products?page=2>; rel="next"
    !binary "Y2FjaGUtY29udHJvbA==": max-age=300, private
    !binary "eC11YS1jb21wYXRpYmxl": IE=Edge,chrome=1
    !binary "eC1yZXF1ZXN0LWlk": '463125327'
    !binary "eC1ydW50aW1l": '0.133352'
    !binary "eC1kbnMtcHJlZmV0Y2gtY29udHJvbA==": 'off'
    !binary "eC1hcHA=": as2
    !binary "Y29udGVudC1sZW5ndGg=": '1107'
    !binary "YWNjZXB0LXJhbmdlcw==": bytes
    !binary "ZGF0ZQ==": Tue, 12 Aug 2014 09:16:24 GMT
    !binary "eC12YXJuaXNo": '463125327'
    !binary "YWdl": '0'
    !binary "dmlh": 1.1 varnish
    !binary "Y29ubmVjdGlvbg==": close
    !binary "eC1vcmlnaW4=": varnish2
    !binary "eC1jYWNoZQ==": MISS
  :body: ! '{"products":[{"id":1135844,"name":"Samsung Galaxy S4 / i9500 16 Gb Siyah
    Cep Telefonu","sku_id":146414,"shop_id":77,"category_id":33,"availability":null,"click_url":"https://www.alve.com/products/show/1135844?client_id=Bn9IVZbjL27QolcUwH1gA%3D%3D&from=api","price":1206.0},{"id":1137251,"name":"Samsung
    Galaxy S4 / i9500 16 Gb Beyaz Cep Telefonu","sku_id":146414,"shop_id":77,"category_id":33,"availability":null,"click_url":"https://www.alve.com/products/show/1137251?client_id=Bn9IVZbjL27QolcUwH1gA%3D%3D&from=api","price":1206.0},{"id":5024163,"name":"SAMSUNG
    \u01309500 GALAXY S4 16 GB CEP TELEFONU","sku_id":146414,"shop_id":107,"category_id":33,"availability":null,"click_url":"https://www.alve.com/products/show/5024163?client_id=Bn9IVZbjL27QolcUwH1gA%3D%3D&from=api","price":1237.0},{"id":1923053,"name":"SAMSUNG
    13MP KAMERA BLUETOOTH WIFI 4G GPS GALAXY S4 16GB PARALEL","sku_id":146414,"shop_id":170,"category_id":33,"availability":null,"click_url":"https://www.alve.com/products/show/1923053?client_id=Bn9IVZbjL27QolcUwH1gA%3D%3D&from=api","price":1257.88},{"id":1742892,"name":"Samsung
    GT-I9500 Galaxy S4 16GB Ak\u0131ll\u0131 Cep Telefonu Beyaz (\u0130thalat\u00e7\u0131
    Firma Garantili)","sku_id":146414,"shop_id":156,"category_id":33,"availability":null,"click_url":"https://www.alve.com/products/show/1742892?client_id=Bn9IVZbjL27QolcUwH1gA%3D%3D&from=api","price":1259.5},{"id":3713825,"name":"SAMSUNG
    i9500 Galaxy S4 16GB Cep Telefonu \u0130thalat\u00e7\u0131 Firma Garantili","sku_id":146414,"shop_id":150,"category_id":33,"availability":null,"click_url":"https://www.alve.com/products/show/3713825?client_id=Bn9IVZbjL27QolcUwH1gA%3D%3D&from=api","price":1273.01},{"id":2892857,"name":"Samsung
    i9500 Galaxy S4 16GB (Resmi \u0130thalat Garantili)","sku_id":146414,"shop_id":82,"category_id":33,"availability":null,"click_url":"https://www.alve.com/products/show/2892857?client_id=Bn9IVZbjL27QolcUwH1gA%3D%3D&from=api","price":1278.79},{"id":4299412,"name":"Samsung
    I9500 Galaxy S4 16 GB Beyaz Ak\u0131ll\u0131 Telefon","sku_id":146414,"shop_id":207,"category_id":33,"availability":null,"click_url":"https://www.alve.com/products/show/4299412?client_id=Bn9IVZbjL27QolcUwH1gA%3D%3D&from=api","price":1279.0},{"id":4409527,"name":"Samsung
    I9500 Galaxy S4 16 GB Black Edition Ak\u0131ll\u0131 Telefon","sku_id":146414,"shop_id":207,"category_id":33,"availability":null,"click_url":"https://www.alve.com/products/show/4409527?client_id=Bn9IVZbjL27QolcUwH1gA%3D%3D&from=api","price":1279.0},{"id":4056893,"name":"SAMSUNG
    I9500-WHITE-1 13MP KAMERA BLUETOOTH WIFI 4G GPS GALAXY S4 16GB PARALEL","sku_id":146414,"shop_id":95,"category_id":33,"availability":null,"click_url":"https://www.alve.com/products/show/4056893?client_id=Bn9IVZbjL27QolcUwH1gA%3D%3D&from=api","price":1286.37},{"id":5003481,"name":"Samsung
    Galaxy S4 I9500 WHITE-1","sku_id":146414,"shop_id":296,"category_id":33,"availability":null,"click_url":"https://www.alve.com/products/show/5003481?client_id=Bn9IVZbjL27QolcUwH1gA%3D%3D&from=api","price":1296.65},{"id":3713896,"name":"SAMSUNG
    13MP KAMERA BLUETOOTH WIFI 4G GPS GALAXY S4 16GB PARALEL I9500-WHITE-1","sku_id":146414,"shop_id":118,"category_id":33,"availability":null,"click_url":"https://www.alve.com/products/show/3713896?client_id=Bn9IVZbjL27QolcUwH1gA%3D%3D&from=api","price":1329.89},{"id":818090,"name":"SAMSUNG
    13MP KAMERA BLUETOOTH WIFI 4G GPS GALAXY S4 16GB","sku_id":146414,"shop_id":62,"category_id":33,"availability":null,"click_url":"https://www.alve.com/products/show/818090?client_id=Bn9IVZbjL27QolcUwH1gA%3D%3D&from=api","price":1355.21},{"id":4224980,"name":"Samsung
    i9500 S4 16Gb Bar Mavi 13Mp Bluetooth G\u00f6r\u00fcnt\u00fcl\u00fc 3G Wi-Fi 5
    Dokunmatik Android Distrib\u00fct\u00f6r","sku_id":146414,"shop_id":97,"category_id":33,"availability":null,"click_url":"https://www.alve.com/products/show/4224980?client_id=Bn9IVZbjL27QolcUwH1gA%3D%3D&from=api","price":1380.6},{"id":5052404,"name":"Samsung
    i9500 S4 16Gb Bar Gold 13Mp Bluetooth G\u00f6r\u00fcnt\u00fcl\u00fc 3G Wi-Fi 5
    Dokunmatik Android Distrib\u00fct\u00f6r","sku_id":146414,"shop_id":97,"category_id":33,"availability":null,"click_url":"https://www.alve.com/products/show/5052404?client_id=Bn9IVZbjL27QolcUwH1gA%3D%3D&from=api","price":1380.6},{"id":482527,"name":"Samsung
    i9500 Galaxy S4 beyaz","sku_id":146414,"shop_id":38,"category_id":33,"availability":null,"click_url":"https://www.alve.com/products/show/482527?client_id=Bn9IVZbjL27QolcUwH1gA%3D%3D&from=api","price":1385.7},{"id":4000469,"name":"Samsung
    Galaxy S4 i9500 16GB Cep Telefonu","sku_id":146414,"shop_id":106,"category_id":33,"availability":"Stokta
    mevcut","click_url":"https://www.alve.com/products/show/4000469?client_id=Bn9IVZbjL27QolcUwH1gA%3D%3D&from=api","price":1389.0},{"id":1820238,"name":"SAMSUNG
    GALAXY S4 I9500 16GB BEYAZ","sku_id":146414,"shop_id":168,"category_id":33,"availability":null,"click_url":"https://www.alve.com/products/show/1820238?client_id=Bn9IVZbjL27QolcUwH1gA%3D%3D&from=api","price":1391.22},{"id":1135739,"name":"Samsung
    Galaxy S4 i9500 16 Gb Siyah Cep Telefonu","sku_id":146414,"shop_id":77,"category_id":33,"availability":null,"click_url":"https://www.alve.com/products/show/1135739?client_id=Bn9IVZbjL27QolcUwH1gA%3D%3D&from=api","price":1395.0},{"id":1159358,"name":"SAMSUNG
    I9500 Galaxy S4 16 GB","sku_id":146414,"shop_id":81,"category_id":33,"availability":null,"click_url":"https://www.alve.com/products/show/1159358?client_id=Bn9IVZbjL27QolcUwH1gA%3D%3D&from=api","price":1399.0},{"id":1159713,"name":"Beyaz","sku_id":146414,"shop_id":81,"category_id":33,"availability":null,"click_url":"https://www.alve.com/products/show/1159713?client_id=Bn9IVZbjL27QolcUwH1gA%3D%3D&from=api","price":1399.0},{"id":5024167,"name":"SAMSUNG
    \u01309500 GALAXY S4 16GB CEP TELEFONU-D\u0130ST","sku_id":146414,"shop_id":107,"category_id":33,"availability":null,"click_url":"https://www.alve.com/products/show/5024167?client_id=Bn9IVZbjL27QolcUwH1gA%3D%3D&from=api","price":1399.0},{"id":4928813,"name":"SAMSUNG
    I9500 GALAXY S4 16 GB BEYAZ AKILLI TELEFON","sku_id":146414,"shop_id":65,"category_id":33,"availability":null,"click_url":"https://www.alve.com/products/show/4928813?client_id=Bn9IVZbjL27QolcUwH1gA%3D%3D&from=api","price":1399.0},{"id":4928857,"name":"SAMSUNG
    I9500 GALAXY S4 16 GB SIYAH AKILLI TELEFON","sku_id":146414,"shop_id":65,"category_id":33,"availability":null,"click_url":"https://www.alve.com/products/show/4928857?client_id=Bn9IVZbjL27QolcUwH1gA%3D%3D&from=api","price":1399.0},{"id":4928869,"name":"SAMSUNG
    I9500 GALAXY S4 16 GB KIRMIZI AKILLI TELEFON","sku_id":146414,"shop_id":65,"category_id":33,"availability":null,"click_url":"https://www.alve.com/products/show/4928869?client_id=Bn9IVZbjL27QolcUwH1gA%3D%3D&from=api","price":1399.0}],"meta":{"pagination":{"total_results":88,"total_pages":4,"page":1,"per":25}}}'
:created_at: 2014-08-12 12:16:24.022573711 +03:00
