---
:request:
  :verb: GET
  :path: /categories/25/manufacturers
  :params:
    order_by: popularity
    order_dir: desc
    per: 2
:status: 200
:headers:
  link: <http://localhost:3000/api/categories/25/manufacturers?order_by=popularity&order_dir=desc&page=9&per=2>;
    rel="last", <http://localhost:3000/api/categories/25/manufacturers?order_by=popularity&order_dir=desc&page=2&per=2>;
    rel="next"
  content-type: application/json; charset=utf-8
  x-meta-request-version: 0.2.1
  x-ua-compatible: IE=Edge,chrome=1
  etag: '"4b774a2ca933efc5a28ad464af0cae64"'
  cache-control: max-age=0, private, must-revalidate
  x-request-id: c8a4a760e4fef34a78a7023a8a61fff3
  x-runtime: '1.187608'
  server: WEBrick/1.3.1 (Ruby/1.9.3/2012-11-10)
  date: Fri, 14 Feb 2014 10:25:19 GMT
  content-length: '183'
  connection: close
  set-cookie: locale=el_GR; path=/, _helmet_couch=BAh7B0kiD3Nlc3Npb25faWQGOgZFRkkiJWIxNDI1OGJjNjk5NzBiNjNjNzQwZGZkZDRjOGJlYTQyBjsAVEkiC2xvY2FsZQY7AFRJIgplbF9HUgY7AEY%3D--776b8327635583ceef6ae981c599783de89f5c17;
    path=/; expires=Mon, 14-Apr-2014 09:25:19 GMT; HttpOnly
:body: '{"manufacturers":[{"id":202,"name":"Toshiba","image_url":null},{"id":1139,"name":"Dell","image_url":null}],"meta":{"pagination":{"total_results":17,"total_pages":9,"page":1,"per":2}}}'
