---
:request:
  :verb: GET
  :path: /manufacturers/356/skus
  :params:
    per: 2
:status: 200
:headers:
  link: <http://localhost:3000/api/manufacturers/356/skus?page=160&per=2>; rel="last",
    <http://localhost:3000/api/manufacturers/356/skus?page=2&per=2>; rel="next"
  content-type: application/json; charset=utf-8
  x-meta-request-version: 0.2.1
  x-ua-compatible: IE=Edge,chrome=1
  etag: '"b497e1859c1ce7299d29f093f81419bc"'
  cache-control: max-age=0, private, must-revalidate
  x-request-id: c876daba2fbfd18b75bd68806ebc87ec
  x-runtime: '2.192102'
  server: WEBrick/1.3.1 (Ruby/1.9.3/2012-11-10)
  date: Tue, 11 Feb 2014 12:42:05 GMT
  content-length: '2084'
  connection: close
  set-cookie: locale=el_GR; path=/, _helmet_couch=BAh7B0kiD3Nlc3Npb25faWQGOgZFRkkiJTRhMzA3MjUwNjljYTdlZTgyYmI4YTFmODA1MGMxYWM0BjsAVEkiC2xvY2FsZQY7AFRJIgplbF9HUgY7AEY%3D--03e5f58ccd30d8ce436299e8aea19f5bb87eb1d8;
    path=/; expires=Fri, 11-Apr-2014 11:42:05 GMT; HttpOnly
:body: '{"skus":[{"id":3559432,"ean":"","pn":"","name":"Apple Magsafe Power Adapter
  85W MC556Z/B","display_name":"Apple Magsafe Power Adapter 85W MC556Z/B","category_id":1404,"first_product_shop_info":"482|Electroworld","click_url":"http://www.skroutz.gr/products/show/9745109","price_max":89.0,"price_min":89.0,"reviewscore":0.0,"shop_count":1,"plain_spec_summary":"\u0399\u03c3\u03c7\u03cd\u03c2:
  85 Watt, \u03a3\u03c5\u03bc\u03b2\u03b1\u03c4\u03cc\u03c4\u03b7\u03c4\u03b1: Apple","active_products_count":1,"main_picture":{"small_url":"http://b.scdn.gr/images/sku_main_images/003559/3559432/small_9745109-orig.jpg","original_url":"http://b.scdn.gr/images/sku_main_images/003559/3559432/medium_9745109-orig.jpg","tiny_url":"http://a.scdn.gr/images/sku_main_images/003559/3559432/tiny_9745109-orig.jpg","medium_url":"http://b.scdn.gr/images/sku_main_images/003559/3559432/medium_9745109-orig.jpg","datamart_url":"http://d.scdn.gr/images/sku_main_images/003559/3559432/9745109-orig.jpg"},"manufacturer_id":356,"future":false},{"id":3411210,"ean":"","pn":"","name":"Apple
  World Travel Adapter Kit power adapter kit","display_name":"Apple World Travel Adapter
  Kit power adapter kit","category_id":1404,"first_product_shop_info":"34|Multirama","click_url":"http://www.skroutz.gr/products/show/12704170","price_max":41.86,"price_min":41.86,"reviewscore":0.0,"shop_count":1,"plain_spec_summary":"\u03a3\u03c5\u03bc\u03b2\u03b1\u03c4\u03cc\u03c4\u03b7\u03c4\u03b1:
  Apple","active_products_count":1,"main_picture":{"small_url":"http://a.scdn.gr/images/sku_main_images/003411/3411210/small_12704170-orig.jpg","original_url":"http://d.scdn.gr/images/sku_main_images/003411/3411210/medium_12704170-orig.jpg","tiny_url":"http://a.scdn.gr/images/sku_main_images/003411/3411210/tiny_12704170-orig.jpg","medium_url":"http://d.scdn.gr/images/sku_main_images/003411/3411210/medium_12704170-orig.jpg","datamart_url":"http://b.scdn.gr/images/sku_main_images/003411/3411210/12704170-orig.jpg"},"manufacturer_id":356,"future":false}],"meta":{"pagination":{"total_results":319,"total_pages":160,"page":1,"per":2}}}'
