---
:request:
  :verb: GET
  :path: /manufacturers/356/categories
  :params:
    per: 2
:status: 200
:headers:
  link: <http://localhost:3000/api/manufacturers/356/categories?page=25&per=2>; rel="last",
    <http://localhost:3000/api/manufacturers/356/categories?page=2&per=2>; rel="next"
  content-type: application/json; charset=utf-8
  x-meta-request-version: 0.2.1
  x-ua-compatible: IE=Edge,chrome=1
  etag: '"1f9eb2f3a2c1afdbf848490a9945a2c0"'
  cache-control: max-age=0, private, must-revalidate
  x-request-id: 1e95a716f5f4f7703992eed2538bb998
  x-runtime: '1.292290'
  server: WEBrick/1.3.1 (Ruby/1.9.3/2012-11-10)
  date: Tue, 11 Feb 2014 12:41:50 GMT
  content-length: '613'
  connection: close
  set-cookie: locale=el_GR; path=/, _helmet_couch=BAh7B0kiD3Nlc3Npb25faWQGOgZFRkkiJWY1ZWJiNzFiMTU1NmU1NzkzOWRlMzNmNTUzMWVjYjIxBjsAVEkiC2xvY2FsZQY7AFRJIgplbF9HUgY7AEY%3D--28df2f86b815f67fd0e918ea971c25af1c7519b2;
    path=/; expires=Fri, 11-Apr-2014 11:41:50 GMT; HttpOnly
:body: '{"categories":[{"id":1109,"name":"\u0395\u03c6\u03b1\u03c1\u03bc\u03bf\u03b3\u03ad\u03c2
  \u0395\u03c0\u03b5\u03be\u03b5\u03c1\u03b3\u03b1\u03c3\u03af\u03b1\u03c2 \u0389\u03c7\u03bf\u03c5","children_count":0,"image_url":"http://b.scdn.gr/images/categories/large/1109.jpg","leaf":true,"parent_id":16},{"id":154,"name":"\u039c\u03c0\u03b1\u03c4\u03b1\u03c1\u03af\u03b5\u03c2
  & \u0391\u03be\u03b5\u03c3\u03bf\u03c5\u03ac\u03c1","children_count":0,"image_url":"http://b.scdn.gr/images/categories/large/154.jpg","leaf":true,"parent_id":425}],"meta":{"pagination":{"total_results":49,"total_pages":25,"page":1,"per":2}}}'
