---
:request:
  :url: http://skroutz.gr/api/search?q=apple
  :headers:
    :accept: application/vnd.skroutz+json; version=3
    :authorization: Bearer fYxk5iZjO44DwXwkwP5SW7cHwaqFMbc5riQ4JQFgeVNe1epmAHlDtGjvAPhVAIH1aPLiQt67RSrVasw9o7EEQ==
  :verb: GET
:response:
  :status: 200
  :headers:
    server: nginx
    content-type: application/json; charset=utf-8
    !binary "dmFyeQ==": Accept-Encoding
    status: 200 OK
    !binary "bGluaw==": <http://api.skroutz.gr/api/search?page=8&q=apple>; rel="last",
      <http://api.skroutz.gr/api/search?page=2&q=apple>; rel="next"
    x-ua-compatible: IE=Edge,chrome=1
    cache-control: max-age=0, private, must-revalidate
    x-request-id: '2406163981'
    x-runtime: '0.146223'
    x-dns-prefetch-control: 'off'
    x-app: lunkwill
    content-length: '1165'
    accept-ranges: bytes
    date: Mon, 14 Jul 2014 12:06:29 GMT
    x-varnish: '2406163981'
    age: '0'
    via: 1.1 varnish
    connection: close
    x-origin: varnish2
    x-cache: MISS
  :body: ! '{"categories":[{"id":40,"name":"\u039a\u03b9\u03bd\u03b7\u03c4\u03ac \u03a4\u03b7\u03bb\u03ad\u03c6\u03c9\u03bd\u03b1","children_count":0,"image_url":"http://a.scdn.gr/images/categories/large/40.jpg","parent_id":86,"fashion":false,"show_specifications":true,"manufacturer_title":"\u039a\u03b1\u03c4\u03b1\u03c3\u03ba\u03b5\u03c5\u03b1\u03c3\u03c4\u03ad\u03c2","match_count":13},{"id":1105,"name":"Tablets","children_count":0,"image_url":"http://a.scdn.gr/images/categories/large/1105.jpg","parent_id":1612,"fashion":false,"show_specifications":true,"manufacturer_title":"\u039a\u03b1\u03c4\u03b1\u03c3\u03ba\u03b5\u03c5\u03b1\u03c3\u03c4\u03ad\u03c2","match_count":37},{"id":579,"name":"\u0398\u03ae\u03ba\u03b5\u03c2
    \u039a\u03b9\u03bd\u03b7\u03c4\u03ce\u03bd \u03a4\u03b7\u03bb\u03b5\u03c6\u03ce\u03bd\u03c9\u03bd","children_count":0,"image_url":"http://a.scdn.gr/images/categories/large/579.jpg","parent_id":86,"fashion":false,"show_specifications":false,"manufacturer_title":"\u039a\u03b1\u03c4\u03b1\u03c3\u03ba\u03b5\u03c5\u03b1\u03c3\u03c4\u03ad\u03c2","match_count":6776},{"id":25,"name":"Laptops","children_count":0,"image_url":"http://b.scdn.gr/images/categories/large/25.jpg","parent_id":769,"fashion":false,"show_specifications":true,"manufacturer_title":"\u039a\u03b1\u03c4\u03b1\u03c3\u03ba\u03b5\u03c5\u03b1\u03c3\u03c4\u03ad\u03c2","match_count":30},{"id":583,"name":"\u0391\u03bd\u03c4\u03b1\u03bb\u03bb\u03b1\u03ba\u03c4\u03b9\u03ba\u03ac
    \u039a\u03b9\u03bd\u03b7\u03c4\u03ce\u03bd \u03c4\u03b7\u03bb\u03b5\u03c6\u03ce\u03bd\u03c9\u03bd","children_count":0,"image_url":"http://a.scdn.gr/images/categories/large/583.jpg","parent_id":86,"fashion":false,"show_specifications":false,"manufacturer_title":"\u039a\u03b1\u03c4\u03b1\u03c3\u03ba\u03b5\u03c5\u03b1\u03c3\u03c4\u03ad\u03c2","match_count":3528},{"id":1608,"name":"\u0398\u03ae\u03ba\u03b5\u03c2
    Tablet","children_count":0,"image_url":"http://d.scdn.gr/images/categories/large/1608.jpg","parent_id":1612,"fashion":false,"show_specifications":true,"manufacturer_title":"\u039a\u03b1\u03c4\u03b1\u03c3\u03ba\u03b5\u03c5\u03b1\u03c3\u03c4\u03ad\u03c2","match_count":306},{"id":891,"name":"\u03a5\u03c0\u03bf\u03bb\u03bf\u03b3\u03b9\u03c3\u03c4\u03ad\u03c2
    Desktop Brand","children_count":0,"image_url":"http://b.scdn.gr/images/categories/large/891.jpg","parent_id":23,"fashion":false,"show_specifications":true,"manufacturer_title":"\u039a\u03b1\u03c4\u03b1\u03c3\u03ba\u03b5\u03c5\u03b1\u03c3\u03c4\u03ad\u03c2","match_count":33},{"id":568,"name":"CD,
    MP3 & Media Players","children_count":0,"image_url":"http://b.scdn.gr/images/categories/large/568.jpg","parent_id":767,"fashion":false,"show_specifications":true,"manufacturer_title":"\u039a\u03b1\u03c4\u03b1\u03c3\u03ba\u03b5\u03c5\u03b1\u03c3\u03c4\u03ad\u03c2","match_count":13},{"id":584,"name":"Handsfree
    \u0391\u03ba\u03bf\u03c5\u03c3\u03c4\u03b9\u03ba\u03ac","children_count":0,"image_url":"http://a.scdn.gr/images/categories/large/584.jpg","parent_id":86,"fashion":false,"show_specifications":false,"manufacturer_title":"\u039a\u03b1\u03c4\u03b1\u03c3\u03ba\u03b5\u03c5\u03b1\u03c3\u03c4\u03ad\u03c2","match_count":33},{"id":612,"name":"\u03a0\u03c1\u03bf\u03c3\u03c4\u03b1\u03c3\u03af\u03b1
    \u039f\u03b8\u03cc\u03bd\u03b7\u03c2","children_count":0,"image_url":"http://b.scdn.gr/images/categories/large/612.jpg","parent_id":86,"fashion":false,"show_specifications":false,"manufacturer_title":"\u039a\u03b1\u03c4\u03b1\u03c3\u03ba\u03b5\u03c5\u03b1\u03c3\u03c4\u03ad\u03c2","match_count":1616},{"id":582,"name":"\u039c\u03c0\u03b1\u03c4\u03b1\u03c1\u03af\u03b5\u03c2
    \u039a\u03b9\u03bd\u03b7\u03c4\u03ce\u03bd \u03a4\u03b7\u03bb\u03b5\u03c6\u03ce\u03bd\u03c9\u03bd","children_count":0,"image_url":"http://a.scdn.gr/images/categories/large/582.jpg","parent_id":86,"fashion":false,"show_specifications":false,"manufacturer_title":"\u039a\u03b1\u03c4\u03b1\u03c3\u03ba\u03b5\u03c5\u03b1\u03c3\u03c4\u03ad\u03c2","match_count":8},{"id":581,"name":"\u03a6\u03bf\u03c1\u03c4\u03b9\u03c3\u03c4\u03ad\u03c2
    \u039a\u03b9\u03bd\u03b7\u03c4\u03ce\u03bd \u03a4\u03b7\u03bb\u03b5\u03c6\u03ce\u03bd\u03c9\u03bd","children_count":0,"image_url":"http://a.scdn.gr/images/categories/large/581.jpg","parent_id":86,"fashion":false,"show_specifications":false,"manufacturer_title":"\u039a\u03b1\u03c4\u03b1\u03c3\u03ba\u03b5\u03c5\u03b1\u03c3\u03c4\u03ad\u03c2","match_count":101},{"id":1404,"name":"\u03a6\u03bf\u03c1\u03c4\u03b9\u03c3\u03c4\u03ad\u03c2
    \u03b3\u03b9\u03b1 Laptops","children_count":0,"image_url":"http://d.scdn.gr/images/categories/large/1404.jpg","parent_id":769,"fashion":false,"show_specifications":false,"manufacturer_title":"\u039a\u03b1\u03c4\u03b1\u03c3\u03ba\u03b5\u03c5\u03b1\u03c3\u03c4\u03ad\u03c2","match_count":141},{"id":585,"name":"\u039a\u03b1\u03bb\u03ce\u03b4\u03b9\u03b1
    \u03b4\u03b5\u03b4\u03bf\u03bc\u03ad\u03bd\u03c9\u03bd","children_count":0,"image_url":"http://a.scdn.gr/images/categories/large/585.jpg","parent_id":86,"fashion":false,"show_specifications":false,"manufacturer_title":"\u039a\u03b1\u03c4\u03b1\u03c3\u03ba\u03b5\u03c5\u03b1\u03c3\u03c4\u03ad\u03c2","match_count":295},{"id":699,"name":"\u039c\u03b5\u03c4\u03b1\u03c4\u03c1\u03bf\u03c0\u03b5\u03af\u03c2","children_count":0,"image_url":"http://b.scdn.gr/images/categories/large/699.jpg","parent_id":29,"fashion":false,"show_specifications":true,"manufacturer_title":"\u039a\u03b1\u03c4\u03b1\u03c3\u03ba\u03b5\u03c5\u03b1\u03c3\u03c4\u03ad\u03c2","match_count":48},{"id":17,"name":"\u039a\u03ac\u03c1\u03c4\u03b5\u03c2
    \u03a4\u03b7\u03bb\u03b5\u03cc\u03c1\u03b1\u03c3\u03b7\u03c2 \u03ba\u03b1\u03b9
    Video","children_count":0,"image_url":"http://d.scdn.gr/images/categories/large/17.jpg","parent_id":27,"fashion":false,"show_specifications":false,"manufacturer_title":"\u039a\u03b1\u03c4\u03b1\u03c3\u03ba\u03b5\u03c5\u03b1\u03c3\u03c4\u03ad\u03c2","match_count":3},{"id":587,"name":"\u0394\u03b9\u03ac\u03c6\u03bf\u03c1\u03b1
    \u0391\u03be\u03b5\u03c3\u03bf\u03c5\u03ac\u03c1 \u039a\u03b9\u03bd\u03b7\u03c4\u03ae\u03c2","children_count":0,"image_url":"http://a.scdn.gr/images/categories/large/587.jpg","parent_id":86,"fashion":false,"show_specifications":false,"manufacturer_title":"\u039a\u03b1\u03c4\u03b1\u03c3\u03ba\u03b5\u03c5\u03b1\u03c3\u03c4\u03ad\u03c2","match_count":235},{"id":68,"name":"\u03a0\u03bb\u03b7\u03ba\u03c4\u03c1\u03bf\u03bb\u03cc\u03b3\u03b9\u03b1","children_count":0,"image_url":"http://c.scdn.gr/images/categories/large/68.jpg","parent_id":51,"fashion":false,"show_specifications":true,"manufacturer_title":"\u039a\u03b1\u03c4\u03b1\u03c3\u03ba\u03b5\u03c5\u03b1\u03c3\u03c4\u03ad\u03c2","match_count":11},{"id":1518,"name":"Universal
    \u0398\u03ae\u03ba\u03b5\u03c2 \u039a\u03b9\u03bd\u03b7\u03c4\u03ce\u03bd \u03a4\u03b7\u03bb\u03b5\u03c6\u03ce\u03bd\u03c9\u03bd","children_count":0,"image_url":"http://d.scdn.gr/images/categories/large/1518.jpg","parent_id":86,"fashion":false,"show_specifications":false,"manufacturer_title":"\u039a\u03b1\u03c4\u03b1\u03c3\u03ba\u03b5\u03c5\u03b1\u03c3\u03c4\u03ad\u03c2","match_count":484},{"id":893,"name":"Media
    Players","children_count":0,"image_url":"http://b.scdn.gr/images/categories/large/893.jpg","parent_id":309,"fashion":false,"show_specifications":true,"manufacturer_title":"\u039a\u03b1\u03c4\u03b1\u03c3\u03ba\u03b5\u03c5\u03b1\u03c3\u03c4\u03ad\u03c2","match_count":1},{"id":239,"name":"\u0395\u03bd\u03b9\u03c3\u03c7\u03c5\u03c4\u03ad\u03c2
    Hi-Fi","children_count":0,"image_url":"http://a.scdn.gr/images/categories/large/239.jpg","parent_id":767,"fashion":false,"show_specifications":false,"manufacturer_title":"\u039a\u03b1\u03c4\u03b1\u03c3\u03ba\u03b5\u03c5\u03b1\u03c3\u03c4\u03ad\u03c2","match_count":11},{"id":566,"name":"\u0397\u03c7\u03bf\u03c3\u03c5\u03c3\u03c4\u03ae\u03bc\u03b1\u03c4\u03b1","children_count":0,"image_url":"http://a.scdn.gr/images/categories/large/566.jpg","parent_id":767,"fashion":false,"show_specifications":true,"manufacturer_title":"\u039a\u03b1\u03c4\u03b1\u03c3\u03ba\u03b5\u03c5\u03b1\u03c3\u03c4\u03ad\u03c2","match_count":11},{"id":1417,"name":"\u03a6\u03bf\u03c1\u03c4\u03b9\u03c3\u03c4\u03ad\u03c2
    \u0391\u03bd\u03b1\u03c0\u03c4\u03ae\u03c1\u03b1 \u0391\u03c5\u03c4\u03bf\u03ba\u03b9\u03bd\u03ae\u03c4\u03bf\u03c5","children_count":0,"image_url":"http://c.scdn.gr/images/categories/large/1417.jpg","parent_id":316,"fashion":false,"show_specifications":false,"manufacturer_title":"\u039a\u03b1\u03c4\u03b1\u03c3\u03ba\u03b5\u03c5\u03b1\u03c3\u03c4\u03ad\u03c2","match_count":75},{"id":788,"name":"\u03a0\u03b1\u03b9\u03b4\u03b9\u03ba\u03ac
    \u039a\u03b1\u03c1\u03bf\u03c4\u03c3\u03ac\u03ba\u03b9\u03b1","children_count":0,"image_url":"http://a.scdn.gr/images/categories/large/788.jpg","parent_id":1583,"fashion":false,"show_specifications":true,"manufacturer_title":"\u039a\u03b1\u03c4\u03b1\u03c3\u03ba\u03b5\u03c5\u03b1\u03c3\u03c4\u03ad\u03c2","match_count":3},{"id":1412,"name":"\u03a3\u03c5\u03bc\u03b2\u03b1\u03c4\u03ad\u03c2
    \u039c\u03c0\u03b1\u03c4\u03b1\u03c1\u03af\u03b5\u03c2 \u039a\u03b9\u03bd\u03b7\u03c4\u03ce\u03bd
    \u03a4\u03b7\u03bb\u03b5\u03c6\u03ce\u03bd\u03c9\u03bd","children_count":0,"image_url":"http://c.scdn.gr/images/categories/large/1412.jpg","parent_id":86,"fashion":false,"show_specifications":false,"manufacturer_title":"\u039a\u03b1\u03c4\u03b1\u03c3\u03ba\u03b5\u03c5\u03b1\u03c3\u03c4\u03ad\u03c2","match_count":9}],"meta":{"alternatives":[],"strong_matches":{"manufacturer":{"id":356,"name":"Apple","image_url":"http://b.scdn.gr/images/manufacturer_logos/000000/356/003730241e8ed691aa6b4e5f264a0e2d.jpg"}},"pagination":{"total_results":200,"total_pages":8,"page":1,"per":25}}}'
:created_at: 2014-07-14 15:06:29.339895814 +03:00
