---
:request:
  :url: http://skroutz.gr/api/shops/3/reviews
  :headers:
    :accept: application/vnd.skroutz+json; version=3
    :authorization: Bearer fYxk5iZjO44DwXwkwP5SW7cHwaqFMbc5riQ4JQFgeVNe1epmAHlDtGjvAPhVAIH1aPLiQt67RSrVasw9o7EEQ==
  :params:
    :per: 3
  :verb: GET
:response:
  :status: 200
  :headers:
    server: nginx
    content-type: application/json; charset=utf-8
    !binary "dmFyeQ==": Accept-Encoding
    status: 200 OK
    !binary "bGluaw==": <http://api.skroutz.gr/api/shops/3/reviews?page=54&per=3>;
      rel="last", <http://api.skroutz.gr/api/shops/3/reviews?page=2&per=3>; rel="next"
    cache-control: max-age=300, private
    x-ua-compatible: IE=Edge,chrome=1
    x-request-id: '225152310'
    x-runtime: '0.068030'
    x-dns-prefetch-control: 'off'
    x-app: lunkwill
    content-length: '1712'
    accept-ranges: bytes
    date: Mon, 14 Jul 2014 12:06:33 GMT
    x-varnish: '225152310'
    age: '0'
    via: 1.1 varnish
    connection: close
    x-origin: varnish1
    x-cache: MISS
  :body: ! '{"reviews":[{"id":3984,"user_id":66430,"review":"\u0395\u03af\u03c7\u03b1
    \u03c0\u03b1\u03c1\u03b1\u03b3\u03b3\u03b5\u03af\u03bb\u03b5\u03b9 \u03ba\u03ac\u03c0\u03bf\u03b9\u03b5\u03c2
    \u03c4\u03b1\u03b9\u03bd\u03af\u03b5\u03c2 \u03c3\u03b5 DVD \u03ba\u03b1\u03b9
    BLUERAY \u03ba\u03b9 \u03ad\u03bd\u03b1 pc game. To game \u03b4\u03b5\u03bd \u03c4\u03bf
    \u03b5\u03af\u03c7\u03b1\u03bd \u03c4\u03b5\u03bb\u03b9\u03ba\u03ac \u03b1\u03bb\u03bb\u03ac
    \u03bc\u03b5 \u03c0\u03ae\u03c1\u03b1\u03bd \u03c4\u03b7\u03bb\u03ad\u03c6\u03c9\u03bd\u03bf
    \u03b1\u03bc\u03ad\u03c3\u03c9\u03c2 \u03b3\u03b9\u03b1 \u03bd\u03b1 \u03bc\u03bf\u03c5
    \u03c4\u03bf \u03c0\u03bf\u03c5\u03bd \u03ba\u03b1\u03b8\u03ce\u03c2 \u03ba\u03b1\u03b9
    \u03b3\u03b9\u03b1 \u03bd\u03b1 \u03bc\u03b5 \u03c1\u03c9\u03c4\u03ae\u03c3\u03bf\u03c5\u03bd
    \u03b1\u03bd \u03c4\u03b5\u03bb\u03b9\u03ba\u03ac \u03b8\u03ad\u03bb\u03c9 \u03bd\u03b1
    \u03c0\u03b1\u03c1\u03b1\u03bb\u03ac\u03b2\u03c9 \u03c4\u03b1 \u03c5\u03c0\u03cc\u03bb\u03bf\u03b9\u03c0\u03b1
    \u03c0\u03c1\u03ac\u03b3\u03bc\u03b1\u03c4\u03b1 \u03c0\u03bf\u03c5 \u03b5\u03af\u03c7\u03b1
    \u03c0\u03b1\u03c1\u03b1\u03b3\u03b3\u03b5\u03af\u03bb\u03b5\u03b9. \u0394\u03ad\u03c7\u03c4\u03b7\u03ba\u03b1
    \u03c6\u03c5\u03c3\u03b9\u03ba\u03ac \u03ba\u03b1\u03b9 \u03c4\u03b7\u03bd \u03b5\u03c0\u03cc\u03bc\u03b5\u03bd\u03b7
    \u03bc\u03ad\u03c1\u03b1 \u03c0\u03b1\u03c1\u03ad\u03bb\u03b1\u03b2\u03b1 \u03c4\u03b7\u03bd
    \u03c0\u03b1\u03c1\u03b1\u03b3\u03b3\u03b5\u03bb\u03b5\u03af\u03b1 \u03bc\u03bf\u03c5.
    \u0388\u03c7\u03c9 \u03bc\u03b5\u03af\u03bd\u03b5\u03b9 \u03b1\u03c0\u03cc\u03bb\u03c5\u03c4\u03b1
    \u03b5\u03c5\u03c7\u03b1\u03c1\u03b9\u03c3\u03c4\u03b7\u03bc\u03ad\u03bd\u03bf\u03c2.
    ","rating":5,"shop_reply":null,"created_at":"2010-12-28T02:31:12+02:00"},{"id":3940,"user_id":66396,"review":"\u0397
    \u03c4\u03b5\u03bb\u03b5\u03c5\u03c4\u03b1\u03af\u03b1 \u03c0\u03b1\u03c1\u03b1\u03bb\u03b1\u03b2\u03ae
    \u03bc\u03bf\u03c5 \u03b7\u03c4\u03b1\u03bd \u03c7\u03b8\u03b5\u03c2 \u03c4\u03bf
    \u03b2\u03c1\u03ac\u03b4\u03b9 \u03b1\u03c0\u03bf \u03c4\u03bf \u03ba\u03b1\u03c4\u03ac\u03c3\u03c4\u03b7\u03bc\u03b1
    \u0396\u03c9\u03b3\u03c1\u03ac\u03c6\u03bf\u03c5 \u03ba\u03b1\u03b9 \u03b7 \u03c9\u03c1\u03b1
    \u03c0\u03bf\u03c5 \u03ae\u03c4\u03b1\u03bd 9 \u03c4\u03bf \u03b2\u03c1\u03ac\u03b4\u03b9
    \u03ba\u03b1\u03b9 \u03c7\u03c9\u03c1\u03af\u03c2 \u03ba\u03b1\u03bd\u03ad\u03bd\u03b1
    \u03c0\u03c1\u03cc\u03b2\u03bb\u03b7\u03bc\u03b1.\u0397 \u03bc\u03b9\u03c4\u03c1\u03b9\u03ba\u03ae
    \u03c0\u03bf\u03c5 \u03c0\u03ae\u03c1\u03b1 ASUS M4A88T-V EVO \u03bc\u03b5\u03c4\u03ac
    \u03ba\u03b1\u03c4\u03ac\u03bb\u03b1\u03b2\u03b1 \u03c3\u03c4\u03bf \u03c3\u03c0\u03af\u03c4\u03b9
    \u03cc\u03c4\u03b9 \u03c4\u03bf \u03ba\u03bf\u03c5\u03c4\u03af \u03ae\u03c4\u03b1\u03bd
    \u03b1\u03bd\u03bf\u03b9\u03c7\u03c4\u03cc,\u03bc\u03ac\u03bb\u03bb\u03bf\u03bd
    \u03c4\u03bf \u03b5\u03af\u03c7\u03b1\u03bd \u03c4\u03c3\u03b5\u03ba\u03ac\u03c1\u03b5\u03b9
    \u03b1\u03bd \u03b5\u03af\u03bd\u03b1\u03b9 \u03cc\u03bb\u03bb\u03b1 \u03bc\u03b5\u03c3\u03b1
    \u03ae \u03ba\u03b1\u03c4\u03b9 \u03ac\u03bb\u03bb\u03bf \u03c4\u03bf \u03bf\u03c0\u03bf\u03af\u03bf
    \u03cc\u03bc\u03c9\u03c2 \u03b4\u03b5\u03bd \u03ad\u03c7\u03b5\u03b9 \u03c0\u03c1\u03cc\u03b2\u03bb\u03b7\u03bc\u03b1,\u03b5\u03c0\u03b5\u03b9\u03b4\u03ae
    \u03b5\u03af\u03b4\u03b1 \u03cc\u03bb\u03bb\u03b1 \u03ae\u03c4\u03b1\u03bd \u03bc\u03ad\u03c3\u03b1.\u0395\u03af\u03bd\u03b1\u03b9
    \u03c0\u03c1\u03ce\u03c4\u03b7 \u03c6\u03bf\u03c1\u03ac \u03c0\u03bf\u03c5 \u03b3\u03c1\u03ac\u03c6\u03c9
    \u03b5\u03b4\u03ce \u03c3\u03c4\u03bf \u03c3\u03ba\u03c1\u03bf\u03cd\u03c4\u03b6
    \u03b3\u03b9\u03b1 \u03c4\u03bf \u03c0\u03bf\u03bb\u03cd \u03ba\u03b1\u03bb\u03cc
    e-shop \u03c4\u03bf\u03c5\u03bb\u03ac\u03c7\u03b9\u03c3\u03c4\u03bf\u03bd \u03bc\u03ad\u03c7\u03c1\u03b9
    \u03c4\u03ce\u03c1\u03b1 \u03b4\u03b5\u03bd \u03b5\u03af\u03c7\u03b1 \u03ba\u03b1\u03bd\u03ad\u03bd\u03b1
    \u03c0\u03c1\u03cc\u03b2\u03bb\u03b7\u03bc\u03b1 \u03bc\u03b5 \u03c4\u03bf \u03b1\u03c5\u03c4\u03cc
    \u03c4\u03bf \u03bc\u03b1\u03b3\u03b1\u03b6\u03af.\u0393\u03b9\u03b1''\u03bc\u03ad\u03bd\u03b1
    \u03c4\u03bf e-shop \u03b5\u03af\u03bd\u03b1\u03b9 \u03bc\u03b9\u03b1 \u03ba\u03b1\u03bb\u03ae
    \u03ba\u03b1\u03b9 \u03ac\u03c1\u03b9\u03c3\u03c4\u03b7 \u03b5\u03c0\u03b9\u03bb\u03bf\u03b3\u03ae
    \u03c3\u03b5 \u03ba\u03ac\u03c0\u03bf\u03b9\u03b1 \u03c0\u03c1\u03bf\u03b9\u03cc\u03bd\u03c4\u03b1.\u0393\u03b9\u03b1
    \u03b1\u03cd\u03c1\u03b9\u03bf \u03c0\u03b5\u03c1\u03b9\u03bc\u03ad\u03bd\u03c9
    \u03ac\u03bb\u03bb\u03b5\u03c2 \u03c4\u03ad\u03c3\u03c3\u03b5\u03c1\u03b9\u03c2
    \u03c3\u03c5\u03c3\u03ba\u03b5\u03cd\u03b5\u03c2 \u03ba\u03b1\u03b9 \u03c0\u03b9\u03c3\u03c4\u03b5\u03cd\u03c9
    \u03bd\u03b1 \u03bc\u03b7\u03bd \u03ad\u03c7\u03bf\u03c5\u03bd \u03ba\u03b1\u03bd\u03ad\u03bd\u03b1
    \u03c0\u03c1\u03cc\u03b2\u03bb\u03b7\u03bc\u03b1 \u03cc\u03c0\u03c9\u03c2 \u03bc\u03ad\u03c7\u03c1\u03b9
    \u03c4\u03ce\u03c1\u03b1.","rating":5,"shop_reply":null,"created_at":"2010-12-23T00:14:31+02:00"},{"id":3692,"user_id":64228,"review":"\u0398\u03ad\u03bb\u03bf\u03bd\u03c4\u03b1\u03c2
    \u03bd\u03b1 \u03b1\u03c0\u03bf\u03ba\u03c4\u03ae\u03c3\u03c9 \u03c4\u03b7\u03bd
    \u03c4\u03b7\u03bb\u03b5\u03cc\u03c1\u03b1\u03c3\u03b7 SAMSUNG UE 40C6000 \u03ad\u03ba\u03b1\u03bd\u03b1
    \u03ad\u03c1\u03b5\u03c5\u03bd\u03b1 \u03b1\u03b3\u03bf\u03c1\u03ac\u03c2 \u03bc\u03ad\u03c3\u03c9
    INTERNET \u03ba\u03b1\u03b9 \u03ba\u03b1\u03c4\u03ad\u03bb\u03b7\u03be\u03b1  \u03c3\u03c4\u03bf
    \u03ba\u03b1\u03c4/\u03bc\u03b1 \u03c4\u03bf\u03c5 e-shop \u03b2\u03b1\u03c3\u03b9\u03ba\u03ac
    \u03bb\u03cc\u03b3\u03c9 \u03c4\u03b9\u03bc\u03ae\u03c2 \u03b1\u03bb\u03bb\u03ac
    \u03ba\u03b1\u03b9 \u03bb\u03cc\u03b3\u03c9 \u03bf\u03bd\u03cc\u03bc\u03b1\u03c4\u03bf\u03c2.
    \u039d\u03b1 \u03c3\u03b7\u03bc\u03b5\u03b9\u03c9\u03b8\u03b5\u03af \u03bf\u03c4\u03b9
    \u03c3\u03c4\u03bf \u03ba\u03ac\u03c4\u03c9 \u03bc\u03ad\u03c1\u03bf\u03c2 \u03c4\u03b7\u03c2
    \u03ba\u03b1\u03c4\u03b1\u03c7\u03ce\u03c1\u03b9\u03c3\u03b7\u03c2, \u03cc\u03c4\u03b1\u03bd
    \u03ad\u03ba\u03b1\u03bd\u03b1 \u03c4\u03b7\u03bd \u03ad\u03c1\u03b5\u03c5\u03bd\u03b1,
    \u03c5\u03c0\u03ae\u03c1\u03c7\u03b5 \u03b7 \u03ad\u03bd\u03b4\u03b5\u03b9\u03be\u03b7
    \u03bf\u03c4\u03b9 \u03b1\u03bd\u03b1\u03bc\u03ad\u03bd\u03b5\u03c4\u03b1\u03b9
    \u03bd\u03ad\u03b1 \u03c0\u03b1\u03c1\u03b1\u03bb\u03b1\u03b2\u03ae  \u03b7 23\u03b7
    \u039f\u03ba\u03c4\u03c9\u03b2\u03c1\u03af\u03bf\u03c5, \u03b7 \u03bf\u03c0\u03bf\u03af\u03b1
    \u03ba\u03ac\u03b8\u03b5 \u03b5\u03b2\u03b4\u03bf\u03bc\u03ac\u03b4\u03b1 \u03b1\u03bd\u03b1\u03bd\u03b5\u03ce\u03bd\u03bf\u03bd\u03c4\u03b1\u03bd.
    \u03a0\u03b1\u03c1 \u03cc\u03bb\u03b1 \u03b1\u03c5\u03c4\u03ac \u03c4\u03b7\u03bd
    2.11.2010 \u03c0\u03b1\u03c1\u03ae\u03b3\u03b3\u03b5\u03b9\u03bb\u03b1 \u03c4\u03bf
    \u03c3\u03c5\u03b3\u03ba\u03b5\u03ba\u03c1\u03b9\u03bc\u03ad\u03bd\u03bf \u03c0\u03c1\u03bf\u03ca\u03cc\u03bd
    (\u03ba\u03c9\u03b4. \u03c0\u03b1\u03c1\u03b1\u03b3\u03b3\u03b5\u03bb\u03af\u03b1\u03c2
    101025202140178128243205) \u03bc\u03b5 \u03b5\u03bd\u03b4\u03b5\u03c7\u03cc\u03bc\u03b5\u03bd\u03b7
    \u03b7\u03bc\u03b5\u03c1\u03bf\u03bc\u03b7\u03bd\u03af\u03b1 \u03bd\u03ad\u03b1\u03c2
    \u03c0\u03b1\u03c1\u03b1\u03bb\u03b1\u03b2\u03ae\u03c2 7.11.2010. \u0394\u03c5\u03c3\u03c4\u03c5\u03c7\u03ce\u03c2
    \u03b7 \u03b7\u03bc\u03b5\u03c1\u03bf\u03bc\u03b7\u03bd\u03af\u03b1 \u03b1\u03c5\u03c4\u03ae
    \u03ac\u03bb\u03bb\u03b1\u03b6\u03b5 \u03ba\u03ac\u03b8\u03b5 \u03b5\u03b2\u03b4\u03bf\u03bc\u03ac\u03b4\u03b1.
    \u0391\u03ba\u03cc\u03bc\u03b7 \u03ba\u03b1\u03b9 \u03c3\u03ae\u03bc\u03b5\u03c1\u03b1
    \u03b5\u03bc\u03c6\u03b1\u03bd\u03af\u03b6\u03b5\u03c4\u03b1\u03b9 \u03c9\u03c2
    \u03b7\u03bc\u03b5\u03c1\u03bf\u03bc\u03b7\u03bd\u03af\u03b1 \u03c0\u03b1\u03c1\u03b1\u03bb\u03b1\u03b2\u03ae\u03c2
    \u03b7 6\u03b7 \u0394\u03b5\u03ba\u03b5\u03bc\u03b2\u03c1\u03af\u03bf\u03c5 2010.
    \u0395\u03c4\u03c3\u03b9 \u03b1\u03bd\u03b1\u03b3\u03ba\u03ac\u03c3\u03c4\u03b7\u03ba\u03b1
    \u03bd\u03b1 \u03b1\u03ba\u03c5\u03c1\u03ce\u03c3\u03c9 \u03c4\u03b7\u03bd \u03c0\u03b1\u03c1\u03b1\u03b3\u03b3\u03b5\u03bb\u03af\u03b1
    \u03b8\u03b5\u03c9\u03c1\u03ce\u03bd\u03c4\u03b1\u03c2 \u03bf\u03c4\u03b9 \u03c4\u03bf
    \u03c3\u03c5\u03b3\u03ba\u03b5\u03ba\u03c1\u03b9\u03bc\u03ad\u03bd\u03bf \u03ba\u03b1\u03c4\u03ac\u03c3\u03c4\u03b7\u03bc\u03b1
    \u03bc\u03b1\u03c2 \u03b5\u03bc\u03c0\u03b1\u03af\u03b6\u03b5\u03b9 \u03ba\u03b1\u03b9
    \u03bd\u03b1 \u03c3\u03c4\u03c1\u03b1\u03c6\u03ce \u03c3\u03c4\u03b7\u03bd \u03b1\u03b3\u03bf\u03c1\u03ac
    \u03c4\u03bf\u03c5 \u03c3\u03c5\u03b3\u03ba\u03b5\u03ba\u03c1\u03b9\u03bc\u03ad\u03bd\u03bf\u03c5
    \u03c0\u03c1\u03bf\u03ca\u03cc\u03bd\u03c4\u03bf\u03c2 \u03ba\u03b1\u03b9 \u03bc\u03ac\u03bb\u03b9\u03c3\u03c4\u03b1
    \u03bc\u03b5 \u03b5\u03c5\u03bd\u03bf\u03ca\u03ba\u03cc\u03c4\u03b5\u03c1\u03bf\u03c5\u03c2
    \u03cc\u03c1\u03bf\u03c5\u03c2 \u03b1\u03c0\u03cc \u03ac\u03bb\u03bb\u03bf \u03b9\u03bd\u03c4\u03b5\u03c1\u03bd\u03b5\u03c4\u03b9\u03ba\u03cc
    \u03ba\u03b1\u03c4\u03ac\u03c3\u03c4\u03b7\u03bc\u03b1. ","rating":1,"shop_reply":null,"created_at":"2010-11-30T20:31:21+02:00"}],"meta":{"pagination":{"total_results":162,"total_pages":54,"page":1,"per":3}}}'
:created_at: 2014-07-14 15:06:33.012438178 +03:00
