---
:request:
  :url: https://api.skroutz.gr/books/search?q=harry
  :headers:
    :accept: application/vnd.skroutz+json; version=3.1
    :authorization: Bearer Z13VcwTwQ8X4lPZpMZXm_zG3HXXMuY8iGemu4I3LSpmksSsgEwIT-5rZ_CHN1K98IRsJgJ-4rWfIJJaroW8tRA==
  :verb: :get
:response:
  :status: 200
  :headers:
    date: Mon, 08 Jan 2018 15:02:49 GMT
    connection: close
    server: h2o (Debian)
    content-type: application/json; charset=utf-8
    vary: Accept-Encoding
    x-ratelimit-limit: '100'
    x-ratelimit-remaining: '96'
    x-ratelimit-reset: '1515423780'
    content-security-policy-report-only: 'default-src https: data: gsa: wss://ws.inspectlet.com;
      script-src https: data: asset: about: ''unsafe-inline'' ''unsafe-eval''; style-src
      https: ''unsafe-inline''; child-src *; report-uri https://f30d08e43da6ef6d7fb9c3dd5486561c.report-uri.io/r/default/csp/reportOnly'
    etag: W/"636984e97b935ef12d7e169ca71c9fb4"
    cache-control: max-age=0, private, must-revalidate
    x-request-id: '522400953'
    x-runtime: '0.082849'
    x-dns-prefetch-control: 'off'
    access-control-allow-origin: "*"
    access-control-allow-methods: HEAD, GET, POST, PUT, DELETE
    x-app: rontok_ssl
    x-varnish: '522400952'
    age: '0'
    via: 1.1 varnish (Varnish/5.0)
    x-origin: lb1
    x-cache: MISS
    x-cached: skroutz miss(0)
    accept-ranges: bytes
    transfer-encoding: chunked
  :body: '{"books":[{"id":242327,"name":"Ο Χάρι Πότερ και η φιλοσοφική λίθος","main_author_id":385,"main_author":"1965-
    J. K. Rowling","images":{"main":"https://d.scdn.gr/images/sku_main_images/000242/242327/medium_20160722014855_o_chari_poter_kai_i_filosofiki_lithos.jpeg"},"price_min":6.82,"price_max":15.79,"shop_count":13,"reviewscore":5.0,"reviews_count":2,"favorited":true,"first_product_shop_info":null},{"id":145771,"name":"Ο
    Χάρι Πότερ και ο ημίαιμος πρίγκιψ","main_author_id":385,"main_author":"1965- J.
    K. Rowling","images":{"main":"https://a.scdn.gr/images/sku_main_images/000145/145771/medium_20160720135644_o_chari_poter_kai_o_imiaimos_prigips.jpeg"},"price_min":9.9,"price_max":25.48,"shop_count":13,"reviewscore":0.0,"reviews_count":0,"favorited":true,"first_product_shop_info":null},{"id":228697,"name":"Ο
    Χάρι Πότερ και ο αιχμάλωτος του Αζκαμπάν","main_author_id":385,"main_author":"1965-
    J. K. Rowling","images":{"main":"https://b.scdn.gr/images/sku_main_images/000228/228697/medium_20160721212828_o_chari_poter_kai_o_aichmalotos_tou_azkampan.jpeg"},"price_min":10.68,"price_max":19.16,"shop_count":13,"reviewscore":0.0,"reviews_count":0,"favorited":false,"first_product_shop_info":null},{"id":242082,"name":"Ο
    Χάρι Πότερ και η κάμαρα με τα μυστικά","main_author_id":385,"main_author":"1965-
    J. K. Rowling","images":{"main":"https://c.scdn.gr/images/sku_main_images/000242/242082/medium_20160722014135_o_chari_poter_kai_i_kamara_me_ta_mystika.jpeg"},"price_min":9.92,"price_max":15.79,"shop_count":14,"reviewscore":0.0,"reviews_count":0,"favorited":false,"first_product_shop_info":null},{"id":121274,"name":"Ο
    Χάρι Πότερ και οι κλήροι του θανάτου","main_author_id":385,"main_author":"1965-
    J. K. Rowling","images":{"main":"https://a.scdn.gr/images/sku_main_images/000121/121274/medium_20160720003521_o_chari_poter_kai_oi_kliroi_tou_thanatou.jpeg"},"price_min":10.69,"price_max":28.02,"shop_count":14,"reviewscore":0.0,"reviews_count":0,"favorited":true,"first_product_shop_info":null},{"id":199084,"name":"Ο
    Χάρι Πότερ και το κύπελλο της φωτιάς","main_author_id":385,"main_author":"1965-
    J. K. Rowling","images":{"main":"https://b.scdn.gr/images/sku_main_images/000199/199084/medium_20160721133819_o_chari_poter_kai_to_kypello_tis_fotias.jpeg"},"price_min":10.68,"price_max":22.53,"shop_count":13,"reviewscore":0.0,"reviews_count":0,"favorited":false,"first_product_shop_info":null},{"id":163443,"name":"Ο
    Χάρι Πότερ και το τάγμα του Φοίνικα","main_author_id":385,"main_author":"1965-
    J. K. Rowling","images":{"main":"https://a.scdn.gr/images/sku_main_images/000163/163443/medium_20160720234149_o_chari_poter_kai_to_tagma_tou_foinika.jpeg"},"price_min":11.44,"price_max":16.6,"shop_count":14,"reviewscore":0.0,"reviews_count":0,"favorited":true,"first_product_shop_info":null},{"id":179879,"name":"Harry
    Potter: οι πιστοί και αγαπημένοι φίλοι του Χάρι Πότερ","main_author_id":14256,"main_author":"χ.ό.","images":{"main":"https://b.scdn.gr/images/sku_main_images/000179/179879/medium_20160721090548_harry_potter_oi_pistoi_kai_agapimenoi_filoi_tou_chari_poter.jpeg"},"price_min":4.2,"price_max":4.2,"shop_count":1,"reviewscore":0.0,"reviews_count":0,"favorited":false,"first_product_shop_info":"2508|Bibliotopia|bibliotopia"},{"id":120625,"name":"Ο
    Χάρι Πότερ και οι κλήροι του θανάτου","main_author_id":385,"main_author":"1965-
    J. K. Rowling","images":{"main":"https://c.scdn.gr/images/sku_main_images/000120/120625/medium_20160720002139_o_chari_poter_kai_oi_kliroi_tou_thanatou.jpeg"},"price_min":10.79,"price_max":10.79,"shop_count":1,"reviewscore":0.0,"reviews_count":0,"favorited":false,"first_product_shop_info":"2508|Bibliotopia|bibliotopia"},{"id":246466,"name":"Ασκήσεις
    και λύσεις για το μάθημα της μικροοικονομικής","main_author_id":85799,"main_author":"Χάρρυ
    Παπαπανάγος","images":{"main":"https://a.scdn.gr/images/sku_main_images/000246/246466/medium_20160722025240_askiseis_kai_lyseis_gia_to_mathima_tis_mikrooikonomikis.jpeg"},"price_min":16.56,"price_max":24.0,"shop_count":7,"reviewscore":0.0,"reviews_count":0,"favorited":false,"first_product_shop_info":null},{"id":5187385,"name":"Η
    αλήθεια για την υπόθεση Χάρρυ Κέμπερτ","main_author_id":109702,"main_author":"Jo?l
    Dicker","images":{"main":"https://d.scdn.gr/images/sku_main_images/005187/5187385/medium_20160723113035_i_alitheia_gia_tin_ypothesi_charry_kempert.jpeg"},"price_min":12.8,"price_max":19.9,"shop_count":12,"reviewscore":0.0,"reviews_count":0,"favorited":false,"first_product_shop_info":null},{"id":246465,"name":"Πολιτική
    οικονομία του καπιταλισμού","main_author_id":7912,"main_author":"Συλλογικό έργο","images":{"main":"https://a.scdn.gr/images/sku_main_images/000246/246465/medium_20160722025237_politiki_oikonomia_tou_kapitalismoy.jpeg"},"price_min":44.16,"price_max":64.0,"shop_count":9,"reviewscore":0.0,"reviews_count":0,"favorited":false,"first_product_shop_info":null},{"id":235271,"name":"Σύγχρονες
    ηλεκτρονικές κατασκευές","main_author_id":10799,"main_author":"Harry L. Helms","images":{"main":"https://b.scdn.gr/assets/schwartz/books/no-cover-big.png"},"price_min":10.42,"price_max":12.74,"shop_count":5,"reviewscore":0.0,"reviews_count":0,"favorited":false,"first_product_shop_info":null},{"id":185254,"name":"Τζ.
    Κ. Ρόουλινγκ","main_author_id":38715,"main_author":"Marc Shapiro","images":{"main":"https://a.scdn.gr/images/sku_main_images/000185/185254/medium_20160721104148_tz_k_roouling.jpeg"},"price_min":6.15,"price_max":6.15,"shop_count":1,"reviewscore":0.0,"reviews_count":0,"favorited":false,"first_product_shop_info":"4443|Happy
    Place|happyplace"},{"id":4125566,"name":"Άι Βασίλη θέλω... έναν φίλο!","main_author_id":50725,"main_author":"Rebecca
    Harry","images":{"main":"https://a.scdn.gr/images/sku_main_images/004125/4125566/medium_20160723102718_ai_vasili_thelo_enan_filo.jpeg"},"price_min":8.74,"price_max":11.61,"shop_count":7,"reviewscore":0.0,"reviews_count":0,"favorited":false,"first_product_shop_info":null},{"id":154512,"name":"Επιστήμη
    και μαγεία","main_author_id":18050,"main_author":"Roger Highfield","images":{"main":"https://a.scdn.gr/images/sku_main_images/000154/154512/medium_20160720185639_epistimi_kai_mageia.jpeg"},"price_min":16.44,"price_max":23.83,"shop_count":11,"reviewscore":0.0,"reviews_count":0,"favorited":false,"first_product_shop_info":null},{"id":223565,"name":"Τι
    τρελό κυνηγητό","main_author_id":18045,"main_author":"1916-2004 Francis Harry
    Compton Crick","images":{"main":"https://b.scdn.gr/images/sku_main_images/000223/223565/medium_20160721202232_ti_trelo_kynigito.jpeg"},"price_min":15.71,"price_max":18.13,"shop_count":7,"reviewscore":0.0,"reviews_count":0,"favorited":false,"first_product_shop_info":null},{"id":1948678,"name":"Η
    ανάπτυξη των βρεφών","main_author_id":7912,"main_author":"Συλλογικό έργο","images":{"main":"https://d.scdn.gr/images/sku_main_images/001948/1948678/medium_20160722184803_i_anaptyxi_ton_vrefon.jpeg"},"price_min":21.47,"price_max":34.08,"shop_count":8,"reviewscore":0.0,"reviews_count":0,"favorited":false,"first_product_shop_info":null},{"id":235137,"name":"Encyclopédie
    de la Pléiade. Ιστορία της φιλοσοφίας","main_author_id":11054,"main_author":"Harry
    Burrows Acton","images":{"main":"https://a.scdn.gr/images/sku_main_images/000235/235137/medium_8233-1678.jpg"},"price_min":11.92,"price_max":13.69,"shop_count":5,"reviewscore":0.0,"reviews_count":0,"favorited":false,"first_product_shop_info":null},{"id":238156,"name":"NLP
    νευρο-γλωσσικός προγραμματισμός","main_author_id":8140,"main_author":"Harry Alder","images":{"main":"https://a.scdn.gr/images/sku_main_images/000238/238156/medium_20160722001441_nlp_neyro_glossikos_programmatismos.jpeg"},"price_min":7.18,"price_max":11.74,"shop_count":8,"reviewscore":0.0,"reviews_count":0,"favorited":false,"first_product_shop_info":null},{"id":342865,"name":"Ο
    Βέγγος δεν είναι κιτς -ο Χάρρυ Κλυν, δυστυχώς είναι... Η λογοτεχνία ως σινεμά
    (και το σινεμά ως λογοτεχνία...)","main_author_id":7912,"main_author":"Συλλογικό
    έργο","images":{"main":"https://d.scdn.gr/images/sku_main_images/000342/342865/medium_20160722130045_o_vegos_den_einai_kits_o_charry_klyn_dystychos_einai_i_logotechnia_os_sinema_kai_to_sinema_os_logotechnia.jpeg"},"price_min":5.96,"price_max":8.52,"shop_count":7,"reviewscore":0.0,"reviews_count":0,"favorited":false,"first_product_shop_info":null},{"id":166426,"name":"Ψάρια","main_author_id":47631,"main_author":"Stephen
    C. Lundin","images":{"main":"https://d.scdn.gr/images/sku_main_images/000166/166426/medium_20160721011936_psaria.jpeg"},"price_min":8.67,"price_max":10.55,"shop_count":8,"reviewscore":0.0,"reviews_count":0,"favorited":false,"first_product_shop_info":null},{"id":168094,"name":"Πώς
    να πουλάτε υπηρεσίες","main_author_id":46813,"main_author":"Harry Beckwith","images":{"main":"https://c.scdn.gr/images/sku_main_images/000168/168094/medium_20160721021627_pos_na_poulate_ypiresies.jpeg"},"price_min":13.11,"price_max":19.0,"shop_count":10,"reviewscore":0.0,"reviews_count":0,"favorited":false,"first_product_shop_info":null},{"id":102803,"name":"Κίνα,
    ο δράκος της Ασίας","main_author_id":82257,"main_author":"Harry G. Gelber","images":{"main":"https://d.scdn.gr/images/sku_main_images/000102/102803/medium_20160719145956_kina_o_drakos_tis_asias.jpeg"},"price_min":13.7,"price_max":25.48,"shop_count":11,"reviewscore":0.0,"reviews_count":0,"favorited":false,"first_product_shop_info":null},{"id":239970,"name":"Ένα
    σπίτι κρεμαστό","main_author_id":4130,"main_author":"Harry Alexander","images":{"main":"https://d.scdn.gr/images/sku_main_images/000239/239970/medium_20160722010406_ena_spiti_kremasto.jpeg"},"price_min":5.45,"price_max":5.45,"shop_count":1,"reviewscore":0.0,"reviews_count":0,"favorited":false,"first_product_shop_info":"698|Ebooks|ebooks"}],"meta":{"pagination":{"total_results":67,"total_pages":3,"page":1,"per":25},"ordered_by":"popularity","order_by_methods":{"pricevat":"Αύξουσα
    τιμή","popularity":"Δημοτικότητα","created_on":"Αύξουσα ημ/νία έκδοσης"}}}'
:created_at: 2018-01-08 17:02:49.517991598 +02:00
