---
:request:
  :url: https://api.skroutz.gr/categories/279/skus?include_meta=available_filters
  :headers:
    :accept: application/vnd.skroutz+json; version=3.1
    :authorization: Bearer VSkzjtrNKLUAkOUFNBHv5vRrDjMowQXQ0uqKElVEds3GCcE5oBn/lqWKIkwkHONY57MbbB/rSzFVr/sDjGyN5w==
  :params:
    :per: 1
  :verb: :get
:response:
  :status: 200
  :headers:
    server: nginx
    date: Wed, 05 Oct 2016 13:59:54 GMT
    content-type: application/json; charset=utf-8
    vary: Accept-Encoding
    x-ratelimit-limit: '100'
    x-ratelimit-remaining: '53'
    x-ratelimit-reset: '1475676000'
    x-frame-options: SAMEORIGIN
    x-xss-protection: 1; mode=block
    x-content-type-options: nosniff
    etag: W/"30ee0c6d87feed99562bc442865cc557"
    cache-control: max-age=0, private, must-revalidate
    x-request-id: '725316926'
    x-runtime: '0.055445'
    x-dns-prefetch-control: 'off'
    access-control-allow-origin: "*"
    access-control-allow-methods: HEAD, GET, POST, PUT, DELETE
    x-app: rontok
    x-varnish: '725316925'
    age: '0'
    via: 1.1 varnish-v4
    x-origin: lb2
    x-cache: MISS
    x-cached: skroutz miss(0)
    accept-ranges: bytes
    transfer-encoding: chunked
    connection: close
  :body: '{"skus":[{"id":6377791,"ean":"","pn":"","name":"Σετ γάμου CANVAS SHELL -
    ΕΙΔΙΚΗ ΠΡΟΣΦΟΡΑ","display_name":"Σετ γάμου CANVAS SHELL - ΕΙΔΙΚΗ ΠΡΟΣΦΟΡΑ","category_id":279,"first_product_shop_info":"2138|E-Silvercorner|esilvercorner","click_url":"https://www.skroutz.gr/products/show/18685400","price_max":210.0,"price_min":210.0,"reviewscore":0.0,"shop_count":1,"plain_spec_summary":"Είδος:
    Δίσκοι - Καράφες - Ποτήρια","manufacturer_id":null,"future":false,"reviews_count":0,"virtual":true,"images":{"main":"https://a.scdn.gr/images/sku_main_images/006377/6377791/medium_20150730161258_set_gamou_me_stefana_eidiki_prosfora_csc505_ln.jpeg","alternatives":[]},"web_uri":"https://www.skroutz.gr/s/6377791/%CE%A3%CE%B5%CF%84-%CE%B3%CE%AC%CE%BC%CE%BF%CF%85-CANVAS-SHELL-%CE%95%CE%99%CE%94%CE%99%CE%9A%CE%97-%CE%A0%CE%A1%CE%9F%CE%A3%CE%A6%CE%9F%CE%A1%CE%91.html","favorited":false}],"meta":{"ordered_by":"popularity","available_filters":{"filters":{"342834":664,"531601":387,"342832":49,"342828":29,"665423":480,"665424":270,"665425":231,"665426":160},"manufacturers":{"254":89,"7564":1,"10179":1}},"pagination":{"total_results":1129,"total_pages":1129,"page":1,"per":1}}}'
:created_at: 2016-10-05 16:59:54.146258546 +03:00
