---
:request:
  :url: http://api.skroutz.gr/categories/40/favorites
  :headers:
    :accept: application/vnd.skroutz+json; version=3.1
    :authorization: Bearer VSkzjtrNKLUAkOUFNBHv5vRrDjMowQXQ0uqKElVEds3GCcE5oBn/lqWKIkwkHONY57MbbB/rSzFVr/sDjGyN5w==
  :verb: :get
:response:
  :status: 200
  :headers:
    server: nginx
    date: Wed, 05 Oct 2016 13:59:51 GMT
    content-type: application/json; charset=utf-8
    vary: Accept-Encoding
    x-ratelimit-limit: '100'
    x-ratelimit-remaining: '92'
    x-ratelimit-reset: '1475676000'
    x-frame-options: SAMEORIGIN
    x-xss-protection: 1; mode=block
    x-content-type-options: nosniff
    link: <http://api.skroutz.gr/categories/40/favorites?page=2>; rel="last", <http://api.skroutz.gr/categories/40/favorites?page=2>;
      rel="next"
    etag: W/"945ead734b1cdbb7837bc09020f9185e"
    cache-control: max-age=0, private, must-revalidate
    x-request-id: '682118880'
    x-runtime: '0.114065'
    x-dns-prefetch-control: 'off'
    access-control-allow-origin: "*"
    access-control-allow-methods: HEAD, GET, POST, PUT, DELETE
    x-app: rontok
    x-varnish: '682118879'
    age: '0'
    via: 1.1 varnish-v4
    x-origin: lb1
    x-cache: MISS
    x-cached: skroutz miss(0)
    accept-ranges: bytes
    transfer-encoding: chunked
    connection: close
  :body: '{"favorites":[{"id":2659327,"have_it":false,"user_id":334941,"user_notes":null,"sku_id":6192457,"created_at":"2015-11-20T19:33:33+02:00","updated_at":"2016-09-11T22:24:10+03:00","get_absolute_threshold":null},{"id":2762600,"have_it":false,"user_id":334941,"user_notes":null,"sku_id":7634035,"created_at":"2015-12-05T20:05:21+02:00","updated_at":"2016-09-30T09:46:03+03:00","get_absolute_threshold":null},{"id":3189580,"have_it":false,"user_id":334941,"user_notes":null,"sku_id":4763156,"created_at":"2016-01-26T14:36:43+02:00","updated_at":"2016-01-26T14:36:43+02:00","get_absolute_threshold":"250.0"},{"id":3189942,"have_it":false,"user_id":334941,"user_notes":null,"sku_id":3902581,"created_at":"2016-01-26T15:25:34+02:00","updated_at":"2016-01-26T15:25:34+02:00","get_absolute_threshold":"0.0"},{"id":3212013,"have_it":false,"user_id":334941,"user_notes":null,"sku_id":7069412,"created_at":"2016-01-29T11:56:07+02:00","updated_at":"2016-09-30T10:25:11+03:00","get_absolute_threshold":null},{"id":3212410,"have_it":false,"user_id":334941,"user_notes":null,"sku_id":4743560,"created_at":"2016-01-29T13:24:25+02:00","updated_at":"2016-01-29T13:24:25+02:00","get_absolute_threshold":"38.0"},{"id":3266966,"have_it":false,"user_id":334941,"user_notes":null,"sku_id":5804541,"created_at":"2016-02-05T16:39:25+02:00","updated_at":"2016-09-26T12:35:49+03:00","get_absolute_threshold":null},{"id":3423493,"have_it":false,"user_id":334941,"user_notes":null,"sku_id":7423345,"created_at":"2016-02-25T16:21:11+02:00","updated_at":"2016-09-27T10:30:35+03:00","get_absolute_threshold":null},{"id":3534281,"have_it":false,"user_id":334941,"user_notes":null,"sku_id":6465286,"created_at":"2016-03-10T16:51:26+02:00","updated_at":"2016-09-27T10:08:46+03:00","get_absolute_threshold":null},{"id":3575121,"have_it":false,"user_id":334941,"user_notes":null,"sku_id":7655259,"created_at":"2016-03-15T13:12:36+02:00","updated_at":"2016-09-27T14:02:36+03:00","get_absolute_threshold":null},{"id":3575468,"have_it":false,"user_id":334941,"user_notes":null,"sku_id":7226329,"created_at":"2016-03-15T14:17:55+02:00","updated_at":"2016-05-17T15:45:08+03:00","get_absolute_threshold":null},{"id":3575580,"have_it":false,"user_id":334941,"user_notes":null,"sku_id":2119391,"created_at":"2016-03-15T14:32:15+02:00","updated_at":"2016-03-15T14:32:15+02:00","get_absolute_threshold":"15.13"},{"id":3585589,"have_it":false,"user_id":334941,"user_notes":null,"sku_id":5988663,"created_at":"2016-03-16T16:34:01+02:00","updated_at":"2016-06-23T20:23:56+03:00","get_absolute_threshold":"142.65"},{"id":3585591,"have_it":false,"user_id":334941,"user_notes":null,"sku_id":7833120,"created_at":"2016-03-16T16:34:09+02:00","updated_at":"2016-06-19T02:06:42+03:00","get_absolute_threshold":null},{"id":3625352,"have_it":false,"user_id":334941,"user_notes":null,"sku_id":7050548,"created_at":"2016-03-21T14:34:37+02:00","updated_at":"2016-06-17T11:25:32+03:00","get_absolute_threshold":"97.66"},{"id":3728926,"have_it":false,"user_id":334941,"user_notes":null,"sku_id":8413492,"created_at":"2016-04-01T10:59:06+03:00","updated_at":"2016-09-26T14:23:28+03:00","get_absolute_threshold":null},{"id":3762588,"have_it":false,"user_id":334941,"user_notes":null,"sku_id":5749988,"created_at":"2016-04-04T18:08:47+03:00","updated_at":"2016-04-04T18:08:47+03:00","get_absolute_threshold":null},{"id":3769589,"have_it":false,"user_id":334941,"user_notes":null,"sku_id":3750935,"created_at":"2016-04-05T13:41:26+03:00","updated_at":"2016-05-09T12:34:36+03:00","get_absolute_threshold":null},{"id":3780790,"have_it":false,"user_id":334941,"user_notes":null,"sku_id":4706899,"created_at":"2016-04-06T16:18:22+03:00","updated_at":"2016-09-30T12:36:54+03:00","get_absolute_threshold":null},{"id":3846215,"have_it":false,"user_id":334941,"user_notes":null,"sku_id":8797638,"created_at":"2016-04-13T10:06:36+03:00","updated_at":"2016-10-05T10:08:57+03:00","get_absolute_threshold":null},{"id":4044805,"have_it":false,"user_id":334941,"user_notes":null,"sku_id":6264653,"created_at":"2016-05-04T14:43:19+03:00","updated_at":"2016-09-28T14:07:48+03:00","get_absolute_threshold":null},{"id":4044808,"have_it":false,"user_id":334941,"user_notes":null,"sku_id":8455260,"created_at":"2016-05-04T14:43:22+03:00","updated_at":"2016-05-31T20:26:00+03:00","get_absolute_threshold":null},{"id":4104132,"have_it":false,"user_id":334941,"user_notes":null,"sku_id":7335955,"created_at":"2016-05-09T18:47:44+03:00","updated_at":"2016-09-21T10:14:37+03:00","get_absolute_threshold":null},{"id":4340304,"have_it":false,"user_id":334941,"user_notes":null,"sku_id":3853217,"created_at":"2016-05-30T17:28:22+03:00","updated_at":"2016-07-27T16:04:00+03:00","get_absolute_threshold":null},{"id":4340661,"have_it":false,"user_id":334941,"user_notes":null,"sku_id":3783654,"created_at":"2016-05-30T17:55:03+03:00","updated_at":"2016-08-22T22:03:11+03:00","get_absolute_threshold":"258.08"}],"meta":{"pagination":{"total_results":28,"total_pages":2,"page":1,"per":25}}}'
:created_at: 2016-10-05 16:59:51.363545461 +03:00
