---
:request:
  :url: http://skroutz.gr/api/categories/25/manufacturers
  :headers:
    :accept: application/vnd.skroutz+json; version=3
    :authorization: Bearer fYxk5iZjO44DwXwkwP5SW7cHwaqFMbc5riQ4JQFgeVNe1epmAHlDtGjvAPhVAIH1aPLiQt67RSrVasw9o7EEQ==
  :params:
    :order_by: popularity
    :order_dir: desc
    :per: 2
  :verb: GET
:response:
  :status: 200
  :headers:
    server: nginx
    content-type: application/json; charset=utf-8
    !binary "dmFyeQ==": Accept-Encoding
    status: 200 OK
    !binary "bGluaw==": <http://api.skroutz.gr/api/categories/25/manufacturers?order_by=popularity&order_dir=desc&page=7&per=2>;
      rel="last", <http://api.skroutz.gr/api/categories/25/manufacturers?order_by=popularity&order_dir=desc&page=2&per=2>;
      rel="next"
    cache-control: max-age=300, private
    x-ua-compatible: IE=Edge,chrome=1
    x-request-id: '225151516'
    x-runtime: '0.042467'
    x-dns-prefetch-control: 'off'
    x-app: lunkwill
    content-length: '240'
    accept-ranges: bytes
    date: Mon, 14 Jul 2014 12:06:27 GMT
    x-varnish: '225151516'
    age: '0'
    via: 1.1 varnish
    connection: close
    x-origin: varnish1
    x-cache: MISS
  :body: ! '{"manufacturers":[{"id":1139,"name":"Dell","image_url":"http://b.scdn.gr/images/manufacturer_logos/000001/1139/5854cc5dcb694148a556d1b3c3178876.jpg"},{"id":288,"name":"Lenovo","image_url":"http://a.scdn.gr/images/manufacturer_logos/000000/288/152fc6db51ee97c370d930729daea593.jpg"}],"meta":{"pagination":{"total_results":14,"total_pages":7,"page":1,"per":2}}}'
:created_at: 2014-07-14 15:06:27.779753484 +03:00
