---
:request:
  :url: https://api.skroutz.gr/categories/40/skus?filter_ids[]=355559&filter_ids[]=6282
  :headers:
    :accept: application/vnd.skroutz+json; version=3
    :authorization: Bearer Qgq1ofejerxdYPnpOYaT1GRhwRPczj2AnkZFtNi1jrVgchHJib5xL4QkQPJYNWElNoPiOp5VBqsmoq6HgMiEA==
  :params:
    :per: 4
  :verb: GET
:response:
  :status: 200
  :headers:
    !binary "c2VydmVy": nginx
    !binary "Y29udGVudC10eXBl": application/json; charset=utf-8
    !binary "dmFyeQ==": Accept-Encoding
    !binary "c3RhdHVz": 200 OK
    !binary "eC11YS1jb21wYXRpYmxl": IE=Edge,chrome=1
    !binary "Y2FjaGUtY29udHJvbA==": max-age=0, private, must-revalidate
    !binary "eC1yZXF1ZXN0LWlk": '578822979'
    !binary "eC1ydW50aW1l": '0.154124'
    !binary "eC1kbnMtcHJlZmV0Y2gtY29udHJvbA==": 'off'
    !binary "eC1hcHA=": lunkwill_ssl
    !binary "Y29udGVudC1sZW5ndGg=": '1126'
    !binary "YWNjZXB0LXJhbmdlcw==": bytes
    !binary "ZGF0ZQ==": Mon, 25 Aug 2014 14:44:38 GMT
    !binary "eC12YXJuaXNo": '578822979'
    !binary "YWdl": '0'
    !binary "dmlh": 1.1 varnish
    !binary "Y29ubmVjdGlvbg==": close
    !binary "eC1vcmlnaW4=": varnish1
    !binary "eC1jYWNoZQ==": MISS
  :body: ! '{"skus":[{"id":5173978,"ean":"","pn":"A529","name":"A529","display_name":"Lenovo
    A529","category_id":40,"first_product_shop_info":"499|E-smartbuy|esmartbuy","click_url":null,"price_max":109.0,"price_min":109.0,"reviewscore":0.0,"shop_count":1,"plain_spec_summary":"Dual
    SIM, \u0394\u03af\u03ba\u03c4\u03c5\u03bf \u03a3\u03cd\u03bd\u03b4\u03b5\u03c3\u03b7\u03c2:
    3G, \u039a\u03ac\u03bc\u03b5\u03c1\u03b1: 2.0 MP,  \u039f\u03b8\u03cc\u03bd\u03b7:
    5.0\" , \u0391\u03bd\u03ac\u03bb\u03c5\u03c3\u03b7: 800 x 480 pixels, \u03a7\u03b5\u03b9\u03c1\u03b9\u03c3\u03bc\u03cc\u03c2:
    \u039f\u03b8\u03cc\u03bd\u03b7 \u03b1\u03c6\u03ae\u03c2 (Touch screen),  \u0395\u03c3\u03c9\u03c4\u03b5\u03c1\u03b9\u03ba\u03ae
    \u039c\u03bd\u03ae\u03bc\u03b7: 500 MB,  \u039b\u03b5\u03b9\u03c4\u03bf\u03c5\u03c1\u03b3\u03b9\u03ba\u03cc
    \u03a3\u03cd\u03c3\u03c4\u03b7\u03bc\u03b1: Android, SmartPhone","manufacturer_id":288,"future":false,"reviews_count":0,"virtual":false,"images":{"main":"http://c.scdn.gr/images/sku_main_images/005173/5173978/medium_Lenovo_A529_Andr_53c92eb02d123.jpg","alternatives":["http://d.scdn.gr/images/sku_images/013275/13275385/Lenovo_A529_Andr_53c690bf4710f.jpg","http://c.scdn.gr/images/sku_images/013275/13275386/lenovo-a529-gold-03-600x600.jpg","http://d.scdn.gr/images/sku_images/013275/13275387/a529.jpg"]}},{"id":5241561,"ean":"","pn":"","name":"Maxxer
    2000","display_name":"OEM Maxxer 2000","category_id":40,"first_product_shop_info":"2423|YouHou|youhou","click_url":null,"price_max":129.0,"price_min":129.0,"reviewscore":0.0,"shop_count":1,"plain_spec_summary":"Dual
    SIM, \u0394\u03af\u03ba\u03c4\u03c5\u03bf \u03a3\u03cd\u03bd\u03b4\u03b5\u03c3\u03b7\u03c2:
    3G, \u039a\u03ac\u03bc\u03b5\u03c1\u03b1: 5.0 MP,  \u039f\u03b8\u03cc\u03bd\u03b7:
    5.0\" , \u0391\u03bd\u03ac\u03bb\u03c5\u03c3\u03b7: 960 x 540 pixels, \u03a7\u03b5\u03b9\u03c1\u03b9\u03c3\u03bc\u03cc\u03c2:
    \u039f\u03b8\u03cc\u03bd\u03b7 \u03b1\u03c6\u03ae\u03c2 (Touch screen),  \u0395\u03c3\u03c9\u03c4\u03b5\u03c1\u03b9\u03ba\u03ae
    \u039c\u03bd\u03ae\u03bc\u03b7: 4.0 GB,  \u039b\u03b5\u03b9\u03c4\u03bf\u03c5\u03c1\u03b3\u03b9\u03ba\u03cc
    \u03a3\u03cd\u03c3\u03c4\u03b7\u03bc\u03b1: Android, SmartPhone","manufacturer_id":254,"future":false,"reviews_count":0,"virtual":false,"images":{"main":"http://c.scdn.gr/images/sku_main_images/005241/5241561/medium_16518205-orig.jpg","alternatives":[]}},{"id":4498536,"ean":"","pn":"PAP5400DUO
    PAP5400DUOWHITE","name":"MultiPhone 5400 DUO","display_name":"Prestigio MultiPhone
    5400 DUO","category_id":40,"first_product_shop_info":null,"click_url":null,"price_max":153.0,"price_min":139.0,"reviewscore":0.0,"shop_count":3,"plain_spec_summary":"Dual
    SIM, \u0394\u03af\u03ba\u03c4\u03c5\u03bf \u03a3\u03cd\u03bd\u03b4\u03b5\u03c3\u03b7\u03c2:
    2G / 3G, \u039a\u03ac\u03bc\u03b5\u03c1\u03b1: 8 MP,  \u039f\u03b8\u03cc\u03bd\u03b7:
    4.0\" , \u0391\u03bd\u03ac\u03bb\u03c5\u03c3\u03b7: 800 x 480 pixels, \u03a7\u03b5\u03b9\u03c1\u03b9\u03c3\u03bc\u03cc\u03c2:
    \u039f\u03b8\u03cc\u03bd\u03b7 \u03b1\u03c6\u03ae\u03c2 (Touch screen),  \u0395\u03c3\u03c9\u03c4\u03b5\u03c1\u03b9\u03ba\u03ae
    \u039c\u03bd\u03ae\u03bc\u03b7: 4.0 GB,  \u039b\u03b5\u03b9\u03c4\u03bf\u03c5\u03c1\u03b3\u03b9\u03ba\u03cc
    \u03a3\u03cd\u03c3\u03c4\u03b7\u03bc\u03b1: Android, SmartPhone","manufacturer_id":2087,"future":false,"reviews_count":0,"virtual":false,"images":{"main":"http://c.scdn.gr/images/sku_main_images/004498/4498536/medium_131218110014936251.jpg","alternatives":["http://c.scdn.gr/images/sku_images/012269/12269987/140122130018553542.jpg","http://c.scdn.gr/images/sku_images/012269/12269991/140122130018585569.jpg","http://d.scdn.gr/images/sku_images/012269/12269992/131218110015025860.jpg","http://b.scdn.gr/images/sku_images/012269/12269993/131218110015112430.jpg","http://a.scdn.gr/images/sku_images/012269/12269994/140122130018640564.jpg"]}},{"id":5200276,"ean":"","pn":"A560","name":"A560
    (4GB)","display_name":"Lenovo A560 (4GB)","category_id":40,"first_product_shop_info":"499|E-smartbuy|esmartbuy","click_url":null,"price_max":139.0,"price_min":139.0,"reviewscore":0.0,"shop_count":1,"plain_spec_summary":"Dual
    SIM, \u0394\u03af\u03ba\u03c4\u03c5\u03bf \u03a3\u03cd\u03bd\u03b4\u03b5\u03c3\u03b7\u03c2:
    3G, \u039a\u03ac\u03bc\u03b5\u03c1\u03b1: 2.0 MP,  \u039f\u03b8\u03cc\u03bd\u03b7:
    5.0\" , \u0391\u03bd\u03ac\u03bb\u03c5\u03c3\u03b7: 854 x 480 pixels, \u03a7\u03b5\u03b9\u03c1\u03b9\u03c3\u03bc\u03cc\u03c2:
    \u039f\u03b8\u03cc\u03bd\u03b7 \u03b1\u03c6\u03ae\u03c2 (Touch screen),  \u0395\u03c3\u03c9\u03c4\u03b5\u03c1\u03b9\u03ba\u03ae
    \u039c\u03bd\u03ae\u03bc\u03b7: 4.0 GB,  \u039b\u03b5\u03b9\u03c4\u03bf\u03c5\u03c1\u03b3\u03b9\u03ba\u03cc
    \u03a3\u03cd\u03c3\u03c4\u03b7\u03bc\u03b1: Android, SmartPhone","manufacturer_id":288,"future":false,"reviews_count":0,"virtual":false,"images":{"main":"http://b.scdn.gr/images/sku_main_images/005200/5200276/medium_Lenovo_a560_Andr_53c684e1975ad.jpg","alternatives":["http://c.scdn.gr/images/sku_images/013333/13333966/lenovo-a560-5-0-inch-ips-screen-512mb-4gb-android-4-3-smartphone-271-900x900.jpg","http://c.scdn.gr/images/sku_images/013333/13333967/back-500x500.jpg","http://a.scdn.gr/images/sku_images/013333/13333968/lenovo-a560-5-0-inch-ips-screen-512mb-4gb-android-4-3-smartphone-a4861-900x900.jpg"]}}],"meta":{"pagination":{"total_results":149,"total_pages":38,"page":1,"per":4}}}'
:created_at: 2014-08-25 17:44:38.321809122 +03:00
:meta:
  :description: Lists skus filtered given filters.
