---
:request:
  :url: https://api.skroutz.gr/favorites
  :headers:
    :accept: application/vnd.skroutz+json; version=3
    :authorization: Bearer Qgq1ofejerxdYPnpOYaT1GRhwRPczj2AnkZFtNi1jrVgchHJib5xL4QkQPJYNWElNoPiOp5VBqsmoq6HgMiEA==
  :verb: GET
:response:
  :status: 200
  :headers:
    !binary "c2VydmVy": nginx
    !binary "Y29udGVudC10eXBl": application/json; charset=utf-8
    !binary "dmFyeQ==": Accept-Encoding
    !binary "c3RhdHVz": 200 OK
    !binary "bGluaw==": <https://api.skroutz.gr/favorites?page=3>; rel="last", <https://api.skroutz.gr/favorites?page=2>;
      rel="next"
    !binary "eC11YS1jb21wYXRpYmxl": IE=Edge,chrome=1
    !binary "Y2FjaGUtY29udHJvbA==": max-age=0, private, must-revalidate
    !binary "eC1yZXF1ZXN0LWlk": '578822755'
    !binary "eC1ydW50aW1l": '0.073137'
    !binary "eC1kbnMtcHJlZmV0Y2gtY29udHJvbA==": 'off'
    !binary "eC1hcHA=": lunkwill_ssl
    !binary "Y29udGVudC1sZW5ndGg=": '800'
    !binary "YWNjZXB0LXJhbmdlcw==": bytes
    !binary "ZGF0ZQ==": Mon, 25 Aug 2014 14:44:36 GMT
    !binary "eC12YXJuaXNo": '578822755'
    !binary "YWdl": '0'
    !binary "dmlh": 1.1 varnish
    !binary "Y29ubmVjdGlvbg==": close
    !binary "eC1vcmlnaW4=": varnish1
    !binary "eC1jYWNoZQ==": MISS
  :body: ! '{"favorites":[{"id":254728,"have_it":true,"user_id":132950,"user_notes":"test","sku_id":345333,"created_at":"2013-04-12T00:57:44+03:00","updated_at":"2014-08-19T17:35:47+03:00"},{"id":333818,"have_it":false,"user_id":132950,"user_notes":null,"sku_id":2641088,"created_at":"2013-08-19T10:49:35+03:00","updated_at":"2014-07-19T00:47:18+03:00"},{"id":333819,"have_it":false,"user_id":132950,"user_notes":null,"sku_id":2478753,"created_at":"2013-08-19T10:49:51+03:00","updated_at":"2014-07-19T14:18:07+03:00"},{"id":333820,"have_it":false,"user_id":132950,"user_notes":null,"sku_id":1741555,"created_at":"2013-08-19T10:50:42+03:00","updated_at":"2014-06-06T08:40:55+03:00"},{"id":333822,"have_it":false,"user_id":132950,"user_notes":null,"sku_id":3313148,"created_at":"2013-08-19T10:51:11+03:00","updated_at":"2013-08-19T10:51:11+03:00"},{"id":333824,"have_it":false,"user_id":132950,"user_notes":null,"sku_id":2836539,"created_at":"2013-08-19T10:51:15+03:00","updated_at":"2013-08-19T10:51:15+03:00"},{"id":333826,"have_it":false,"user_id":132950,"user_notes":null,"sku_id":2836542,"created_at":"2013-08-19T10:51:18+03:00","updated_at":"2013-08-19T10:51:18+03:00"},{"id":333827,"have_it":false,"user_id":132950,"user_notes":null,"sku_id":2836541,"created_at":"2013-08-19T10:51:19+03:00","updated_at":"2013-08-19T10:51:19+03:00"},{"id":340676,"have_it":true,"user_id":132950,"user_notes":null,"sku_id":299755,"created_at":"2013-08-29T13:02:24+03:00","updated_at":"2013-08-29T13:02:59+03:00"},{"id":340715,"have_it":true,"user_id":132950,"user_notes":null,"sku_id":423163,"created_at":"2013-08-29T14:10:18+03:00","updated_at":"2013-08-29T14:10:20+03:00"},{"id":340716,"have_it":true,"user_id":132950,"user_notes":null,"sku_id":341338,"created_at":"2013-08-29T14:10:42+03:00","updated_at":"2013-08-29T14:10:43+03:00"},{"id":344652,"have_it":false,"user_id":132950,"user_notes":null,"sku_id":2626765,"created_at":"2013-09-02T23:40:46+03:00","updated_at":"2014-07-10T20:30:20+03:00"},{"id":355380,"have_it":false,"user_id":132950,"user_notes":null,"sku_id":325404,"created_at":"2013-09-14T16:26:54+03:00","updated_at":"2013-09-14T16:26:54+03:00"},{"id":355671,"have_it":false,"user_id":132950,"user_notes":null,"sku_id":446748,"created_at":"2013-09-14T22:30:26+03:00","updated_at":"2014-07-24T09:21:40+03:00"},{"id":419491,"have_it":true,"user_id":132950,"user_notes":null,"sku_id":3000146,"created_at":"2013-11-20T23:12:07+02:00","updated_at":"2013-11-20T23:12:08+02:00"},{"id":419518,"have_it":true,"user_id":132950,"user_notes":null,"sku_id":274693,"created_at":"2013-11-20T23:30:58+02:00","updated_at":"2013-11-20T23:30:59+02:00"},{"id":420880,"have_it":true,"user_id":132950,"user_notes":null,"sku_id":1621240,"created_at":"2013-11-22T14:19:46+02:00","updated_at":"2013-11-22T14:19:48+02:00"},{"id":450507,"have_it":true,"user_id":132950,"user_notes":null,"sku_id":312259,"created_at":"2013-12-18T20:29:27+02:00","updated_at":"2013-12-18T20:29:29+02:00"},{"id":475566,"have_it":true,"user_id":132950,"user_notes":null,"sku_id":2287737,"created_at":"2013-12-29T21:45:44+02:00","updated_at":"2013-12-30T20:21:10+02:00"},{"id":490503,"have_it":false,"user_id":132950,"user_notes":null,"sku_id":420982,"created_at":"2014-01-08T22:55:38+02:00","updated_at":"2014-06-30T14:09:39+03:00"},{"id":495190,"have_it":true,"user_id":132950,"user_notes":null,"sku_id":334630,"created_at":"2014-01-12T22:23:13+02:00","updated_at":"2014-01-12T22:23:15+02:00"},{"id":507137,"have_it":true,"user_id":132950,"user_notes":null,"sku_id":256466,"created_at":"2014-01-22T20:24:37+02:00","updated_at":"2014-03-31T13:45:32+03:00"},{"id":510161,"have_it":false,"user_id":132950,"user_notes":null,"sku_id":402716,"created_at":"2014-01-25T21:37:47+02:00","updated_at":"2014-06-02T00:39:39+03:00"},{"id":520707,"have_it":false,"user_id":132950,"user_notes":null,"sku_id":259499,"created_at":"2014-02-03T14:38:41+02:00","updated_at":"2014-08-16T14:03:51+03:00"},{"id":529686,"have_it":false,"user_id":132950,"user_notes":null,"sku_id":3402239,"created_at":"2014-02-11T16:53:48+02:00","updated_at":"2014-06-19T16:03:41+03:00"}],"meta":{"pagination":{"total_results":54,"total_pages":3,"page":1,"per":25}}}'
:created_at: 2014-08-25 17:44:36.765556696 +03:00
