---
:request:
  :url: https://api.skroutz.gr/favorite_lists
  :headers:
    :accept: application/vnd.skroutz+json; version=3.1
    :authorization: Bearer VSkzjtrNKLUAkOUFNBHv5vRrDjMowQXQ0uqKElVEds3GCcE5oBn/lqWKIkwkHONY57MbbB/rSzFVr/sDjGyN5w==
  :verb: :get
:response:
  :status: 200
  :headers:
    server: nginx
    date: Wed, 05 Oct 2016 13:59:53 GMT
    content-type: application/json; charset=utf-8
    vary: Accept-Encoding
    x-ratelimit-limit: '100'
    x-ratelimit-remaining: '59'
    x-ratelimit-reset: '1475676000'
    x-frame-options: SAMEORIGIN
    x-xss-protection: 1; mode=block
    x-content-type-options: nosniff
    link: <https://api.skroutz.gr/favorite_lists?page=2>; rel="last", <https://api.skroutz.gr/favorite_lists?page=2>;
      rel="next"
    etag: W/"dae422b195a548416367de809e78e58b"
    cache-control: max-age=0, private, must-revalidate
    x-request-id: '728904698'
    x-runtime: '0.022335'
    x-dns-prefetch-control: 'off'
    access-control-allow-origin: "*"
    access-control-allow-methods: HEAD, GET, POST, PUT, DELETE
    x-app: rontok
    x-varnish: '728904697'
    age: '0'
    via: 1.1 varnish-v4
    x-origin: lb2
    x-cache: MISS
    x-cached: skroutz miss(0)
    accept-ranges: bytes
    content-length: '630'
    connection: close
  :body: '{"favorite_lists":[{"id":679365,"name":"test","category_id":null},{"id":861839,"name":"mobile","category_id":null},{"id":881601,"name":"a
    new list name","category_id":null},{"id":-1448,"name":"Γυναικεία Πέδιλα"},{"id":-828,"name":"Ανδρικές
    Ζώνες"},{"id":-1577,"name":"Ανδρικά T-shirts"},{"id":-821,"name":"Γυναικείες Τσάντες"},{"id":-790,"name":"Γυαλιά
    Ηλίου"},{"id":-1763,"name":"Flat Μποτάκια"},{"id":-1776,"name":"Ανδρικά Αρώματα"},{"id":-334,"name":"Ανδρικά
    Ρολόγια"},{"id":-40,"name":"Κινητά Τηλέφωνα"},{"id":-712,"name":"Βάσεις \u0026
    Docking Stations"},{"id":-34,"name":"Βιβλία"},{"id":-435,"name":"Bluetooth Handsfree"},{"id":-12,"name":"Τηλεοράσεις"},{"id":-582,"name":"Μπαταρίες
    Κινητών Τηλεφώνων"},{"id":-1632,"name":"Διάφορα Αξεσουάρ Tablet"},{"id":-1413,"name":"PS4
    Games"},{"id":-1748,"name":"Power Banks"},{"id":-1373,"name":"Γυαλιά 3D"},{"id":-88,"name":"SSD
    Σκληροί Δίσκοι"},{"id":-345,"name":"Μίκτες \u0026 Κονσόλες"},{"id":-1743,"name":"After
    Shave"},{"id":-1511,"name":"Πιστολάκια Μαλλιών"}],"meta":{"pagination":{"total_results":48,"total_pages":2,"page":1,"per":25}}}'
:created_at: 2016-10-05 16:59:53.728551523 +03:00
