---
:request:
  :url: http://api.skroutz.gr/api/categories/40/filter_groups
  :headers:
    :accept: application/vnd.skroutz+json; version=3
    :authorization: Bearer W5lqBPwCzzX3VoJpnC4NZdimjEiABofdu5aAUG1SjiKO2fUgStTVloVzStT/kO/w6T7lCSmhZE64NWwUxc//rw==
  :params:
    :per: 2
  :verb: GET
:response:
  :status: 200
  :headers:
    !binary "c2VydmVy": nginx
    !binary "Y29udGVudC10eXBl": application/json; charset=utf-8
    !binary "dmFyeQ==": Accept-Encoding
    !binary "c3RhdHVz": 200 OK
    !binary "bGluaw==": <http://api.skroutz.gr/api/categories/40/filter_groups?page=6&per=2>;
      rel="last", <http://api.skroutz.gr/api/categories/40/filter_groups?page=2&per=2>;
      rel="next"
    !binary "eC11YS1jb21wYXRpYmxl": IE=Edge,chrome=1
    !binary "Y2FjaGUtY29udHJvbA==": max-age=0, private, must-revalidate
    !binary "eC1yZXF1ZXN0LWlk": '464666435'
    !binary "eC1ydW50aW1l": '0.042576'
    !binary "eC1kbnMtcHJlZmV0Y2gtY29udHJvbA==": 'off'
    !binary "eC1hcHA=": lunkwill
    !binary "Y29udGVudC1sZW5ndGg=": '277'
    !binary "YWNjZXB0LXJhbmdlcw==": bytes
    !binary "ZGF0ZQ==": Mon, 11 Aug 2014 14:19:29 GMT
    !binary "eC12YXJuaXNo": '464666435'
    !binary "YWdl": '0'
    !binary "dmlh": 1.1 varnish
    !binary "Y29ubmVjdGlvbg==": close
    !binary "eC1vcmlnaW4=": varnish1
    !binary "eC1jYWNoZQ==": MISS
  :body: ! '{"filter_groups":[{"id":48636,"name":"\u039c\u03ad\u03b3\u03b5\u03b8\u03bf\u03c2
    \u039f\u03b8\u03cc\u03bd\u03b7\u03c2","active":true,"category_id":40,"created_at":null,"updated_at":"2014-08-10T22:30:45+03:00","hint":"","combined":false},{"id":968,"name":"\u039b\u03b5\u03b9\u03c4\u03bf\u03c5\u03c1\u03b3\u03b9\u03ba\u03cc
    \u03a3\u03cd\u03c3\u03c4\u03b7\u03bc\u03b1","active":true,"category_id":40,"created_at":null,"updated_at":"2014-08-10T22:30:46+03:00","hint":"","combined":false}],"meta":{"pagination":{"total_results":11,"total_pages":6,"page":1,"per":2}}}'
:created_at: 2014-08-11 17:19:29.622598843 +03:00
