---
:request:
  :url: https://api.skroutz.gr/manufacturers/356/categories
  :headers:
    :accept: application/vnd.skroutz+json; version=3
    :authorization: Bearer Qgq1ofejerxdYPnpOYaT1GRhwRPczj2AnkZFtNi1jrVgchHJib5xL4QkQPJYNWElNoPiOp5VBqsmoq6HgMiEA==
  :params:
    :per: 2
  :verb: GET
:response:
  :status: 200
  :headers:
    !binary "c2VydmVy": nginx
    !binary "Y29udGVudC10eXBl": application/json; charset=utf-8
    !binary "dmFyeQ==": Accept-Encoding
    !binary "c3RhdHVz": 200 OK
    !binary "bGluaw==": <https://api.skroutz.gr/manufacturers/356/categories?page=28&per=2>;
      rel="last", <https://api.skroutz.gr/manufacturers/356/categories?page=2&per=2>;
      rel="next"
    !binary "eC11YS1jb21wYXRpYmxl": IE=Edge,chrome=1
    !binary "Y2FjaGUtY29udHJvbA==": max-age=0, private, must-revalidate
    !binary "eC1yZXF1ZXN0LWlk": '578822339'
    !binary "eC1ydW50aW1l": '0.066840'
    !binary "eC1kbnMtcHJlZmV0Y2gtY29udHJvbA==": 'off'
    !binary "eC1hcHA=": lunkwill_ssl
    !binary "Y29udGVudC1sZW5ndGg=": '300'
    !binary "YWNjZXB0LXJhbmdlcw==": bytes
    !binary "ZGF0ZQ==": Mon, 25 Aug 2014 14:44:34 GMT
    !binary "eC12YXJuaXNo": '578822339'
    !binary "YWdl": '0'
    !binary "dmlh": 1.1 varnish
    !binary "Y29ubmVjdGlvbg==": close
    !binary "eC1vcmlnaW4=": varnish1
    !binary "eC1jYWNoZQ==": MISS
  :body: ! '{"categories":[{"id":40,"name":"\u039a\u03b9\u03bd\u03b7\u03c4\u03ac \u03a4\u03b7\u03bb\u03ad\u03c6\u03c9\u03bd\u03b1","children_count":0,"image_url":"http://a.scdn.gr/images/categories/large/40.jpg","parent_id":86,"fashion":false,"show_specifications":true,"manufacturer_title":"\u039a\u03b1\u03c4\u03b1\u03c3\u03ba\u03b5\u03c5\u03b1\u03c3\u03c4\u03ad\u03c2"},{"id":1105,"name":"Tablets","children_count":0,"image_url":"http://a.scdn.gr/images/categories/large/1105.jpg","parent_id":1612,"fashion":false,"show_specifications":true,"manufacturer_title":"\u039a\u03b1\u03c4\u03b1\u03c3\u03ba\u03b5\u03c5\u03b1\u03c3\u03c4\u03ad\u03c2"}],"meta":{"pagination":{"total_results":55,"total_pages":28,"page":1,"per":2}}}'
:created_at: 2014-08-25 17:44:34.284431983 +03:00
