---
:request:
  :url: http://skroutz.gr/api/manufacturers
  :headers:
    :accept: application/vnd.skroutz+json; version=3
    :authorization: Bearer fYxk5iZjO44DwXwkwP5SW7cHwaqFMbc5riQ4JQFgeVNe1epmAHlDtGjvAPhVAIH1aPLiQt67RSrVasw9o7EEQ==
  :params:
    :per: 2
  :verb: GET
:response:
  :status: 200
  :headers:
    server: nginx
    content-type: application/json; charset=utf-8
    !binary "dmFyeQ==": Accept-Encoding
    status: 200 OK
    !binary "bGluaw==": <http://api.skroutz.gr/api/manufacturers?page=8037&per=2>;
      rel="last", <http://api.skroutz.gr/api/manufacturers?page=2&per=2>; rel="next"
    x-ua-compatible: IE=Edge,chrome=1
    cache-control: max-age=0, private, must-revalidate
    x-request-id: '2406163898'
    x-runtime: '0.060631'
    x-dns-prefetch-control: 'off'
    x-app: lunkwill
    content-length: '246'
    accept-ranges: bytes
    date: Mon, 14 Jul 2014 12:06:28 GMT
    x-varnish: '2406163898'
    age: '0'
    via: 1.1 varnish
    connection: close
    x-origin: varnish2
    x-cache: MISS
  :body: ! '{"manufacturers":[{"id":1,"name":"EA - Electronic Arts","image_url":"http://a.scdn.gr/images/manufacturer_logos/000000/1/e2e019eea82bfe6b82b47ab77f6b4497.png"},{"id":2,"name":"Sony","image_url":"http://a.scdn.gr/images/manufacturer_logos/000000/2/502f0698a44df30f4fd55fd9e0893369.jpg"}],"meta":{"pagination":{"total_results":16074,"total_pages":8037,"page":1,"per":2}}}'
:created_at: 2014-07-14 15:06:28.649313203 +03:00
