---
:request:
  :url: http://api.skroutz.gr/api/search?q=apple
  :headers:
    :accept: application/vnd.skroutz+json; version=3
    :authorization: Bearer W5lqBPwCzzX3VoJpnC4NZdimjEiABofdu5aAUG1SjiKO2fUgStTVloVzStT/kO/w6T7lCSmhZE64NWwUxc//rw==
  :params:
    :page: 1
    :per: 5
  :verb: GET
:response:
  :status: 200
  :headers:
    !binary "c2VydmVy": nginx
    !binary "Y29udGVudC10eXBl": application/json; charset=utf-8
    !binary "dmFyeQ==": Accept-Encoding
    !binary "c3RhdHVz": 200 OK
    !binary "bGluaw==": <http://api.skroutz.gr/api/search?page=39&per=5&q=apple>;
      rel="last", <http://api.skroutz.gr/api/search?page=2&per=5&q=apple>; rel="next"
    !binary "eC11YS1jb21wYXRpYmxl": IE=Edge,chrome=1
    !binary "Y2FjaGUtY29udHJvbA==": max-age=0, private, must-revalidate
    !binary "eC1yZXF1ZXN0LWlk": '2573771087'
    !binary "eC1ydW50aW1l": '0.167598'
    !binary "eC1kbnMtcHJlZmV0Y2gtY29udHJvbA==": 'off'
    !binary "eC1hcHA=": lunkwill
    !binary "Y29udGVudC1sZW5ndGg=": '502'
    !binary "YWNjZXB0LXJhbmdlcw==": bytes
    !binary "ZGF0ZQ==": Mon, 11 Aug 2014 14:19:27 GMT
    !binary "eC12YXJuaXNo": '2573771087'
    !binary "YWdl": '0'
    !binary "dmlh": 1.1 varnish
    !binary "Y29ubmVjdGlvbg==": close
    !binary "eC1vcmlnaW4=": varnish2
    !binary "eC1jYWNoZQ==": MISS
  :body: ! '{"categories":[{"id":40,"name":"\u039a\u03b9\u03bd\u03b7\u03c4\u03ac \u03a4\u03b7\u03bb\u03ad\u03c6\u03c9\u03bd\u03b1","children_count":0,"image_url":"http://a.scdn.gr/images/categories/large/40.jpg","parent_id":86,"fashion":false,"show_specifications":true,"manufacturer_title":"\u039a\u03b1\u03c4\u03b1\u03c3\u03ba\u03b5\u03c5\u03b1\u03c3\u03c4\u03ad\u03c2","match_count":12},{"id":1105,"name":"Tablets","children_count":0,"image_url":"http://a.scdn.gr/images/categories/large/1105.jpg","parent_id":1612,"fashion":false,"show_specifications":true,"manufacturer_title":"\u039a\u03b1\u03c4\u03b1\u03c3\u03ba\u03b5\u03c5\u03b1\u03c3\u03c4\u03ad\u03c2","match_count":37},{"id":579,"name":"\u0398\u03ae\u03ba\u03b5\u03c2
    \u039a\u03b9\u03bd\u03b7\u03c4\u03ce\u03bd \u03a4\u03b7\u03bb\u03b5\u03c6\u03ce\u03bd\u03c9\u03bd","children_count":0,"image_url":"http://a.scdn.gr/images/categories/large/579.jpg","parent_id":86,"fashion":false,"show_specifications":false,"manufacturer_title":"\u039a\u03b1\u03c4\u03b1\u03c3\u03ba\u03b5\u03c5\u03b1\u03c3\u03c4\u03ad\u03c2","match_count":4780},{"id":25,"name":"Laptops","children_count":0,"image_url":"http://b.scdn.gr/images/categories/large/25.jpg","parent_id":769,"fashion":false,"show_specifications":true,"manufacturer_title":"\u039a\u03b1\u03c4\u03b1\u03c3\u03ba\u03b5\u03c5\u03b1\u03c3\u03c4\u03ad\u03c2","match_count":27},{"id":583,"name":"\u0391\u03bd\u03c4\u03b1\u03bb\u03bb\u03b1\u03ba\u03c4\u03b9\u03ba\u03ac
    \u039a\u03b9\u03bd\u03b7\u03c4\u03ce\u03bd \u03c4\u03b7\u03bb\u03b5\u03c6\u03ce\u03bd\u03c9\u03bd","children_count":0,"image_url":"http://a.scdn.gr/images/categories/large/583.jpg","parent_id":86,"fashion":false,"show_specifications":false,"manufacturer_title":"\u039a\u03b1\u03c4\u03b1\u03c3\u03ba\u03b5\u03c5\u03b1\u03c3\u03c4\u03ad\u03c2","match_count":2085}],"meta":{"alternatives":[],"strong_matches":{"manufacturer":{"id":356,"name":"Apple","image_url":"http://b.scdn.gr/images/manufacturer_logos/000000/356/003730241e8ed691aa6b4e5f264a0e2d.jpg"}},"pagination":{"total_results":194,"total_pages":39,"page":1,"per":5}}}'
:created_at: 2014-08-11 17:19:27.747887926 +03:00
