---
:request:
  :url: http://api.skroutz.gr/shops/452/reviews?include_meta=shop_rating_breakdown
  :headers:
    :accept: application/vnd.skroutz+json; version=3.1
    :authorization: Bearer VSkzjtrNKLUAkOUFNBHv5vRrDjMowQXQ0uqKElVEds3GCcE5oBn/lqWKIkwkHONY57MbbB/rSzFVr/sDjGyN5w==
  :params:
    :per: 3
  :verb: :get
:response:
  :status: 200
  :headers:
    server: nginx
    date: Wed, 05 Oct 2016 13:59:54 GMT
    content-type: application/json; charset=utf-8
    vary: Accept-Encoding
    x-ratelimit-limit: '100'
    x-ratelimit-remaining: '40'
    x-ratelimit-reset: '1475676000'
    x-frame-options: SAMEORIGIN
    x-xss-protection: 1; mode=block
    x-content-type-options: nosniff
    link: <http://api.skroutz.gr/shops/452/reviews?include_meta=shop_rating_breakdown&page=139&per=3>;
      rel="last", <http://api.skroutz.gr/shops/452/reviews?include_meta=shop_rating_breakdown&page=2&per=3>;
      rel="next"
    cache-control: max-age=300, private
    etag: W/"8478e376522c4dde23bffd8b4316638f"
    x-request-id: '687954155'
    x-runtime: '0.065955'
    x-dns-prefetch-control: 'off'
    access-control-allow-origin: "*"
    access-control-allow-methods: HEAD, GET, POST, PUT, DELETE
    x-app: rontok
    x-varnish: '687954154'
    age: '0'
    via: 1.1 varnish-v4
    x-origin: lb1
    x-cache: MISS
    x-cached: skroutz miss(0)
    accept-ranges: bytes
    transfer-encoding: chunked
    connection: close
  :body: '{"reviews":[{"id":75724,"user_id":51807,"review":"Μια ακόμα παραγγελία οικιακών
    συσκευών από το ιντερνετομάγαζο του κωτσοβολου, σε όλα άψογοι, ταχύτητα εκτέλεσης-αποστολή
    παραγγελίας, πολύ καλές τιμές σε προϊόντα που βρήκα σε -πραγματική- προσφορά...","rating":5.0,"shop_reply":null,"created_at":"2016-10-05T16:17:03+03:00","negative":false,"reasons":["friendly","ontime","good_packaging"]},{"id":74103,"user_id":283559,"review":"25/08/2016
    κάνω ηλεκτρονικά παραγγελία ένα πλυντήριο ρούχων το οποίο βρήκα σε ανταγωνιστική
    τιμή. Την ίδια μέρα έκανα και ηλεκτρονικά την τραπεζική κατάθεση ολόκληρου το
    ποσού.  Την ίδια μέρα κάλεσα στο τηλεφωνικό κέντρο και ενημερώθηκα πως το συγκεκριμένο
    πλυντήριο δεν ήταν διαθέσιμο για άμεση παράδοση στον χώρο μου και πως η παράδοση
    θα γινόταν μετά τις 05/09/2016. Στις 05/09/2016 το προϊόν φαινόταν ως μη διαθέσιμο.
    Στις 12/09/2016 το προϊόν άλλαξε πάλι κατάσταση και φαινόταν ως διαθέσιμο για
    παράδοση στον χώρο μου. Σχεδόν κάθε 2 μέρες επικοινωνούσα με το κέντρο τηλεφωνικής
    εξυπηρέτησης και με ενημέρωναν πως η αντιπροσωπεία δεν τους έχει ακόμα παραδώσει
    το πλυντήριο στις αποθήκες τους. Το πλυντήριο συνέχιζε να φαίνεται διαθέσιμο παρόλα
    αυτά. Τελικά στις 19/09/2016 μετά από τηλεφώνημα που έκανα και πάλι ο ίδιος, με
    ενημέρωσαν πως ακόμα τους καθυστερεί η αντιπροσωπεία. Μα, τους λέω, στην ιστοσελίδα
    σας φαίνεται διαθέσιμο. Τότε υπάλληλος το ξανακοίταξε και μου είπε πως στις 20/09/2016
    (την επόμενη μέρα) θα έχω το πλυντήριο. Σε κάθε τηλεφωνική επικοινωνία που είχα
    πάντα μου έλεγαν πως θα με καλέσουν εκείνοι για την παράδοση. Την ημέρα της παράδοσης
    μου είπαν πως θα λάβω μήνυμα στο κινητό για την εκτίμηση της ώρας παράδοσης. Ποτέ
    δεν έλαβα κλήση τηλεφωνική, ποτέ δεν έλαβα μήνυμα στο κινητό, ποτέ δεν έλαβα κάποιο
    email σχετικά με την ημέρα και ώρα παράδοσης του προϊόντος. Λίγες ακόμα ημέρες
    και θα κλείναμε μήνα για παράδοση ενός προϊόντος που είναι είδος πρώτης ανάγκης!","rating":1.0,"shop_reply":null,"created_at":"2016-09-21T11:33:55+03:00","negative":true,"reasons":["order_status_absent","wrong_availability"]},{"id":73770,"user_id":529941,"review":"πήγα
    στο κατάστημα για να αγοράσω μια 50άρα τηλεόραση Samsung με την ελπίδα ότι θα
    υπήρχε αλλά τελικά δεν στάθηκα τυχερός 14/9 έκανα την παραγγελία και τσεκαροντας
    η πωλητρια την διαθεσιμότητα μου είπε πως παραλαβανε εκείνη την ημέρα αλλά δεν
    είχαν προλάβει να τα περάσουν στο σύστημα και δίνοντας τον λόγο της πως μέχρι
    της 16 θα παραλάβω αν όχι το αργότερο στης 19/9 πέρασε η 16/9 και περνώ τηλέφωνο
    να μάθω για την εξέλιξη της παραγγελίας. η απάντηση που πήρα είναι πως δεν είναι
    διαθέσιμη και πως θα παραλάβουν τέλος του μήνα!!! ακούγοντας αυτό έφυγα για το
    κατάστημα όπου και βρίσκω την πωλητρια και μου λέει με μια φυσικοτητα πως έπρεπε
    να τουλάχιστον να είχα ενημερωθεί για το πότε θα παραλάβω...μετά από ένα μεγάλο
    χαμό ασυνενωησιας όλου του προσωπικού καταλήξανε πως θα παραλάβω μέσα στην βδομάδα
    επειδή δεν με επησαν οι απαντήσεις τους σκέφτηκα να ξαναπάρω τηλ να το επιβεβαιώσω
    και μου έδωσαν πάλι την απάντηση πως θα παραλάβω τέλος του μήνα!!! αποτέλεσμα
    να έχω εξόφληση την συσκευή μέσω πιστωτικής και να μην ξέρω πότε θα παραλάβω και
    περιμένοντας μπας και μου έρθει κάποιο μνμ!!! απαραδεκτοι! θέλω να ακυρώσω την
    παραγγελία και δεν μπορώ!!!","rating":1.0,"shop_reply":null,"created_at":"2016-09-18T00:21:36+03:00","negative":true,"reasons":["order_status_absent","wrong_availability","bad_communication"]}],"meta":{"shop_rating_breakdown":[{"impression":"positive","percentage":45,"count":46},{"impression":"negative","percentage":55,"count":56}],"pagination":{"total_results":417,"total_pages":139,"page":1,"per":3}}}'
:created_at: 2016-10-05 16:59:54.801185800 +03:00
