---
:request:
  :url: https://api.skroutz.gr/skus/3982592/reviews?include_meta=sku_rating_breakdown
  :headers:
    :accept: application/vnd.skroutz+json; version=3.1
    :authorization: Bearer jewklfjwef90jf230f28j289fj23f8jffh==
  :params:
    :per: 3
  :verb: :get
:response:
  :status: 200
  :headers:
    server: nginx
    date: Fri, 17 Feb 2017 10:37:25 GMT
    content-type: application/json; charset=utf-8
    vary: Accept-Encoding
    x-ratelimit-limit: '100'
    x-ratelimit-remaining: '99'
    x-ratelimit-reset: '1487327880'
    x-frame-options: SAMEORIGIN
    x-xss-protection: 1; mode=block
    x-content-type-options: nosniff
    link: <https://api.skroutz.gr/skus/3982592/reviews?include_meta=sku_rating_breakdown&page=4&per=3>;
      rel="last", <https://api.skroutz.gr/skus/3982592/reviews?include_meta=sku_rating_breakdown&page=2&per=3>;
      rel="next"
    cache-control: max-age=300, private
    etag: W/"80cebf90de062eaf06dfa4e530062e09"
    x-request-id: '135023722'
    x-runtime: '0.039914'
    x-dns-prefetch-control: 'off'
    access-control-allow-origin: "*"
    access-control-allow-methods: HEAD, GET, POST, PUT, DELETE
    x-app: rontok
    x-varnish: '135023721'
    age: '0'
    via: 1.1 varnish-v4
    x-origin: lb1
    x-cache: MISS
    x-cached: skroutz miss(0)
    accept-ranges: bytes
    transfer-encoding: chunked
    connection: close
  :body: '{"reviews":[{"id":104344,"user_id":194319,"review":"για τηλέφωνο που θέλεις
    μπαταρία για μια βδομάδα είναι ότι πρέπει","rating":4,"created_at":"2016-11-13T22:54:03+02:00","demoted":false,"votes_count":0,"helpful_votes_count":0,"voted":false,"flagged":false,"helpful":false,"sentiments":{"positive":["Ποιότητα
    κλήσης","Ταχύτητα","Σχέση ποιότητας τιμής"],"negative":["Φωτογραφίες","Καταγραφή
    Video","Μουσική","GPS","Ανάλυση οθόνης"]}},{"id":90673,"user_id":489698,"review":"Πάρα
    πολύ καλό στη χρήση του, πολύ βολικό και κρατάει οπάρα πολύ ή μπαταρία του. Άριστο!","rating":5,"created_at":"2016-07-27T14:10:45+03:00","demoted":false,"votes_count":1,"helpful_votes_count":1,"voted":false,"flagged":false,"helpful":false},{"id":30182,"user_id":59043,"review":"Γενικά
    πολύ μέτρια κατασκευή. Οι επιλογές του μενού είναι πολύ περιορισμένες: λίγα ringtones,
    λίγες επιλογές εμφάνισης. Υπενθυμίσεις μέχρι 10 (και όχι με διάκριση σε γενέθλια,συνάντηση
    κλπ). Γενικά προορίζεται για άτομα που θέλουν ένα κινητό μόνο για να μιλάνε και
    δεν ασχολούνται με επιμέρους ρυθμίσεις. Η μπαταρία του πάντως φαίνεται πολύ δυντατή
    (για να μη λέμε μόνο τα αρνητικά)","rating":3,"created_at":"2014-11-28T17:47:07+02:00","demoted":false,"votes_count":11,"helpful_votes_count":8,"voted":true,"flagged":false,"helpful":true}],"meta":{"sku_rating_breakdown":[{"star":5,"percentage":30,"count":3},{"star":4,"percentage":30,"count":3},{"star":3,"percentage":30,"count":3},{"star":2,"percentage":0,"count":0},{"star":1,"percentage":10,"count":1}],"pagination":{"total_results":10,"total_pages":4,"page":1,"per":3}}}'
:created_at: 2017-02-17 12:37:25.094421452 +02:00
