---
:request:
  :url: https://api.skroutz.gr/skus/3783654/products
  :headers:
    :accept: application/vnd.skroutz+json; version=3
    :authorization: Bearer Qgq1ofejerxdYPnpOYaT1GRhwRPczj2AnkZFtNi1jrVgchHJib5xL4QkQPJYNWElNoPiOp5VBqsmoq6HgMiEA==
  :verb: GET
:response:
  :status: 200
  :headers:
    !binary "c2VydmVy": nginx
    !binary "Y29udGVudC10eXBl": application/json; charset=utf-8
    !binary "dmFyeQ==": Accept-Encoding
    !binary "c3RhdHVz": 200 OK
    !binary "bGluaw==": <https://api.skroutz.gr/skus/3783654/products?page=3>; rel="last",
      <https://api.skroutz.gr/skus/3783654/products?page=2>; rel="next"
    !binary "Y2FjaGUtY29udHJvbA==": max-age=300, private
    !binary "eC11YS1jb21wYXRpYmxl": IE=Edge,chrome=1
    !binary "eC1yZXF1ZXN0LWlk": '2651981461'
    !binary "eC1ydW50aW1l": '0.172750'
    !binary "eC1kbnMtcHJlZmV0Y2gtY29udHJvbA==": 'off'
    !binary "eC1hcHA=": lunkwill_ssl
    !binary "Y29udGVudC1sZW5ndGg=": '1041'
    !binary "YWNjZXB0LXJhbmdlcw==": bytes
    !binary "ZGF0ZQ==": Mon, 25 Aug 2014 14:44:36 GMT
    !binary "eC12YXJuaXNo": '2651981461'
    !binary "YWdl": '0'
    !binary "dmlh": 1.1 varnish
    !binary "Y29ubmVjdGlvbg==": close
    !binary "eC1vcmlnaW4=": varnish2
    !binary "eC1jYWNoZQ==": MISS
  :body: ! '{"products":[{"id":16564132,"name":"Apple iPhone 5S 16GB Space Gray US","sku_id":3783654,"shop_id":820,"category_id":40,"availability":"1
    \u03ad\u03c9\u03c2 3 \u03b7\u03bc\u03ad\u03c1\u03b5\u03c2","click_url":"https://www.skroutz.gr/products/show/16564132?client_id=RO6HMDnulVMcaQwxts3xw%3D%3D&from=api","price":543.9},{"id":14220655,"name":"Apple
    Iphone 5S Gold 16GB 3PIN US","sku_id":3783654,"shop_id":1521,"category_id":40,"availability":"\u03a3\u03b5
    \u03b1\u03c0\u03cc\u03b8\u03b5\u03bc\u03b1","click_url":"https://www.skroutz.gr/products/show/14220655?client_id=RO6HMDnulVMcaQwxts3xw%3D%3D&from=api","price":544.9},{"id":14306872,"name":"Apple
    iPhone 5s 16GB (White/Gold) \u039b\u0395\u03a5\u039a\u039f/\u03a7\u03a1\u03a5\u03a3\u039f
    EU","sku_id":3783654,"shop_id":2262,"category_id":40,"availability":"\u03a3\u03b5
    \u03b1\u03c0\u03cc\u03b8\u03b5\u03bc\u03b1","click_url":"https://www.skroutz.gr/products/show/14306872?client_id=RO6HMDnulVMcaQwxts3xw%3D%3D&from=api","price":545.0},{"id":16268536,"name":"Apple
    iPhone 5S 16GB \u039c\u0391\u03a5\u03a1\u039f","sku_id":3783654,"shop_id":661,"category_id":40,"availability":"\u039a\u03b1\u03c4\u03cc\u03c0\u03b9\u03bd
    \u03a0\u03b1\u03c1\u03b1\u03b3\u03b3\u03b5\u03bb\u03af\u03b1\u03c2","click_url":"https://www.skroutz.gr/products/show/16268536?client_id=RO6HMDnulVMcaQwxts3xw%3D%3D&from=api","price":545.0},{"id":13657436,"name":"Apple
    iPhone 5s 16GB Space Gray US","sku_id":3783654,"shop_id":1164,"category_id":40,"availability":"1
    \u03ad\u03c9\u03c2 3 \u03b7\u03bc\u03ad\u03c1\u03b5\u03c2","click_url":"https://www.skroutz.gr/products/show/13657436?client_id=RO6HMDnulVMcaQwxts3xw%3D%3D&from=api","price":545.9},{"id":15281726,"name":"Apple
    iPhone 5S (16GB) gold white EU","sku_id":3783654,"shop_id":2281,"category_id":40,"availability":"\u039a\u03b1\u03c4\u03cc\u03c0\u03b9\u03bd
    \u03a0\u03b1\u03c1\u03b1\u03b3\u03b3\u03b5\u03bb\u03af\u03b1\u03c2","click_url":"https://www.skroutz.gr/products/show/15281726?client_id=RO6HMDnulVMcaQwxts3xw%3D%3D&from=api","price":547.0},{"id":15281728,"name":"Apple
    iPhone 5S (16GB) space grey EU","sku_id":3783654,"shop_id":2281,"category_id":40,"availability":"\u03a3\u03b5
    \u03b1\u03c0\u03cc\u03b8\u03b5\u03bc\u03b1","click_url":"https://www.skroutz.gr/products/show/15281728?client_id=RO6HMDnulVMcaQwxts3xw%3D%3D&from=api","price":547.0},{"id":16567969,"name":"Apple
    Iphone 5S (16GB) Space Grey US","sku_id":3783654,"shop_id":2218,"category_id":40,"availability":"4
    \u03ad\u03c9\u03c2 7 \u03b7\u03bc\u03ad\u03c1\u03b5\u03c2","click_url":"https://www.skroutz.gr/products/show/16567969?client_id=RO6HMDnulVMcaQwxts3xw%3D%3D&from=api","price":547.5},{"id":14029323,"name":"Apple
    Iphone 5S (16GB) Space Grey EU","sku_id":3783654,"shop_id":2218,"category_id":40,"availability":"4
    \u03ad\u03c9\u03c2 7 \u03b7\u03bc\u03ad\u03c1\u03b5\u03c2","click_url":"https://www.skroutz.gr/products/show/14029323?client_id=RO6HMDnulVMcaQwxts3xw%3D%3D&from=api","price":548.0},{"id":16222156,"name":"Apple
    iPhone 5S (16GB) US","sku_id":3783654,"shop_id":2475,"category_id":40,"availability":"\u039a\u03b1\u03c4\u03cc\u03c0\u03b9\u03bd
    \u03a0\u03b1\u03c1\u03b1\u03b3\u03b3\u03b5\u03bb\u03af\u03b1\u03c2","click_url":"https://www.skroutz.gr/products/show/16222156?client_id=RO6HMDnulVMcaQwxts3xw%3D%3D&from=api","price":549.0},{"id":13704406,"name":"Apple
    iPhone 5s 16GB Gold EU","sku_id":3783654,"shop_id":1164,"category_id":40,"availability":"1
    \u03ad\u03c9\u03c2 3 \u03b7\u03bc\u03ad\u03c1\u03b5\u03c2","click_url":"https://www.skroutz.gr/products/show/13704406?client_id=RO6HMDnulVMcaQwxts3xw%3D%3D&from=api","price":557.9},{"id":15281727,"name":"Apple
    iPhone 5S (16GB) silver white EU","sku_id":3783654,"shop_id":2281,"category_id":40,"availability":"\u039a\u03b1\u03c4\u03cc\u03c0\u03b9\u03bd
    \u03a0\u03b1\u03c1\u03b1\u03b3\u03b3\u03b5\u03bb\u03af\u03b1\u03c2","click_url":"https://www.skroutz.gr/products/show/15281727?client_id=RO6HMDnulVMcaQwxts3xw%3D%3D&from=api","price":558.0},{"id":13989244,"name":"Apple
    iPhone 5S (16GB) Gold White","sku_id":3783654,"shop_id":329,"category_id":40,"availability":"\u03a3\u03b5
    \u03b1\u03c0\u03cc\u03b8\u03b5\u03bc\u03b1","click_url":"https://www.skroutz.gr/products/show/13989244?client_id=RO6HMDnulVMcaQwxts3xw%3D%3D&from=api","price":559.99},{"id":15478173,"name":"Apple
    iPhone 5S 16GB Space Grey EU","sku_id":3783654,"shop_id":1030,"category_id":40,"availability":"\u039a\u03b1\u03c4\u03cc\u03c0\u03b9\u03bd
    \u03a0\u03b1\u03c1\u03b1\u03b3\u03b3\u03b5\u03bb\u03af\u03b1\u03c2","click_url":"https://www.skroutz.gr/products/show/15478173?client_id=RO6HMDnulVMcaQwxts3xw%3D%3D&from=api","price":560.0},{"id":15478176,"name":"Apple
    iPhone 5S 16GB Gold EU","sku_id":3783654,"shop_id":1030,"category_id":40,"availability":"\u039a\u03b1\u03c4\u03cc\u03c0\u03b9\u03bd
    \u03a0\u03b1\u03c1\u03b1\u03b3\u03b3\u03b5\u03bb\u03af\u03b1\u03c2","click_url":"https://www.skroutz.gr/products/show/15478176?client_id=RO6HMDnulVMcaQwxts3xw%3D%3D&from=api","price":560.0},{"id":15478178,"name":"Apple
    iPhone 5S 16GB \u039b\u03b5\u03c5\u03ba\u03cc EU","sku_id":3783654,"shop_id":1030,"category_id":40,"availability":"\u039a\u03b1\u03c4\u03cc\u03c0\u03b9\u03bd
    \u03a0\u03b1\u03c1\u03b1\u03b3\u03b3\u03b5\u03bb\u03af\u03b1\u03c2","click_url":"https://www.skroutz.gr/products/show/15478178?client_id=RO6HMDnulVMcaQwxts3xw%3D%3D&from=api","price":560.0},{"id":16442131,"name":"SMARTPHONE
    EU iPHONE 5S 16GB GOLD APPLE","sku_id":3783654,"shop_id":2036,"category_id":40,"availability":"\u039a\u03b1\u03c4\u03cc\u03c0\u03b9\u03bd
    \u03a0\u03b1\u03c1\u03b1\u03b3\u03b3\u03b5\u03bb\u03af\u03b1\u03c2","click_url":"https://www.skroutz.gr/products/show/16442131?client_id=RO6HMDnulVMcaQwxts3xw%3D%3D&from=api","price":569.0},{"id":14015729,"name":"Apple
    Iphone 5s 16gb US","sku_id":3783654,"shop_id":708,"category_id":40,"availability":"\u03a3\u03b5
    \u03b1\u03c0\u03cc\u03b8\u03b5\u03bc\u03b1","click_url":"https://www.skroutz.gr/products/show/14015729?client_id=RO6HMDnulVMcaQwxts3xw%3D%3D&from=api","price":569.0},{"id":15393937,"name":"Apple
    iPhone 5S (16GB) EU","sku_id":3783654,"shop_id":2465,"category_id":40,"availability":"1
    \u03ad\u03c9\u03c2 3 \u03b7\u03bc\u03ad\u03c1\u03b5\u03c2","click_url":"https://www.skroutz.gr/products/show/15393937?client_id=RO6HMDnulVMcaQwxts3xw%3D%3D&from=api","price":575.0},{"id":13944554,"name":"Apple
    Iphone 5S Space Grey 16 GB (EU)","sku_id":3783654,"shop_id":1093,"category_id":40,"availability":"\u039a\u03b1\u03c4\u03cc\u03c0\u03b9\u03bd
    \u03a0\u03b1\u03c1\u03b1\u03b3\u03b3\u03b5\u03bb\u03af\u03b1\u03c2","click_url":"https://www.skroutz.gr/products/show/13944554?client_id=RO6HMDnulVMcaQwxts3xw%3D%3D&from=api","price":579.9},{"id":13944555,"name":"Apple
    Iphone 5S Gold 16 GB (EU)","sku_id":3783654,"shop_id":1093,"category_id":40,"availability":"\u039a\u03b1\u03c4\u03cc\u03c0\u03b9\u03bd
    \u03a0\u03b1\u03c1\u03b1\u03b3\u03b3\u03b5\u03bb\u03af\u03b1\u03c2","click_url":"https://www.skroutz.gr/products/show/13944555?client_id=RO6HMDnulVMcaQwxts3xw%3D%3D&from=api","price":579.9},{"id":13944556,"name":"Apple
    Iphone 5S Silver 16 GB (EU)","sku_id":3783654,"shop_id":1093,"category_id":40,"availability":"\u039a\u03b1\u03c4\u03cc\u03c0\u03b9\u03bd
    \u03a0\u03b1\u03c1\u03b1\u03b3\u03b3\u03b5\u03bb\u03af\u03b1\u03c2","click_url":"https://www.skroutz.gr/products/show/13944556?client_id=RO6HMDnulVMcaQwxts3xw%3D%3D&from=api","price":579.9},{"id":13644198,"name":"Apple
    iPhone 16GB 5s 3pin EU","sku_id":3783654,"shop_id":853,"category_id":40,"availability":"\u039a\u03b1\u03c4\u03cc\u03c0\u03b9\u03bd
    \u03a0\u03b1\u03c1\u03b1\u03b3\u03b3\u03b5\u03bb\u03af\u03b1\u03c2","click_url":"https://www.skroutz.gr/products/show/13644198?client_id=RO6HMDnulVMcaQwxts3xw%3D%3D&from=api","price":579.99},{"id":13913610,"name":"Apple
    iPhone 5S 16GB GOLD EU","sku_id":3783654,"shop_id":282,"category_id":40,"availability":"4
    \u03ad\u03c9\u03c2 7 \u03b7\u03bc\u03ad\u03c1\u03b5\u03c2","click_url":"https://www.skroutz.gr/products/show/13913610?client_id=RO6HMDnulVMcaQwxts3xw%3D%3D&from=api","price":585.0},{"id":16511593,"name":"iPhone
    5s Gold 16GB","sku_id":3783654,"shop_id":1195,"category_id":40,"availability":"1
    \u03ad\u03c9\u03c2 3 \u03b7\u03bc\u03ad\u03c1\u03b5\u03c2","click_url":"https://www.skroutz.gr/products/show/16511593?client_id=RO6HMDnulVMcaQwxts3xw%3D%3D&from=api","price":589.0}],"meta":{"pagination":{"total_results":71,"total_pages":3,"page":1,"per":25}}}'
:created_at: 2014-08-25 17:44:36.361725717 +03:00
