---
:request:
  :url: http://api.skroutz.gr/skus/3690169/reviews
  :headers:
    :accept: application/vnd.skroutz+json; version=3
    :authorization: Bearer frqURAdaUKMBlG4dXbTaqrlAhmWNdlto20secslqRfkrb8dG3r2I8WJ1dSfKKj3aqAN5RlsSTobLMvsrrtrd7A==
  :verb: :get
:response:
  :status: 200
  :headers:
    server: nginx
    content-type: application/json; charset=utf-8
    vary: Accept-Encoding
    x-ratelimit-limit: '100'
    x-ratelimit-remaining: '99'
    x-ratelimit-reset: '1453383060'
    status: 200 OK
    x-frame-options: SAMEORIGIN
    x-xss-protection: 1; mode=block
    x-content-type-options: nosniff
    link: <http://api.skroutz.gr/skus/3690169/reviews?page=18>; rel="last", <http://api.skroutz.gr/skus/3690169/reviews?page=2>;
      rel="next"
    cache-control: max-age=300, private
    etag: W/"154167d5018399e9bee48059a6ffb122"
    x-request-id: '2501312312'
    x-runtime: '0.063421'
    x-dns-prefetch-control: 'off'
    access-control-allow-origin: "*"
    access-control-allow-methods: HEAD, GET, POST, PUT, DELETE
    x-app: kavula
    content-length: '10138'
    accept-ranges: bytes
    date: Thu, 21 Jan 2016 13:30:19 GMT
    x-varnish: '2501312312'
    age: '0'
    via: 1.1 varnish
    connection: close
    x-origin: lb1
    x-cache: MISS
  :body: '{"reviews":[{"id":73209,"user_id":147453,"review":"Κάτοχος του προιόντος
    2 χρόνια. Ισως ενα απ΄τα καλυτερα τηλφ που κυκλοφόρησαν ποτέ.\r\nΙκανοποιητική
    διάρκεια μπαταρίας, χωρίς κολλήματα \u0026 επανεκκινήσεις, γρήγορος επεξεργαστής,
    5.0.2 lollipop χωρίς προβλήματα, άψογη οθόνη, value for money πραγματικά.\r\nΑν
    \u0026 θεωρείται απο πολλούς ξεπερασμένο, πάρτε το με κλειστά μάτια.","rating":5,"created_at":"2016-01-21T09:41:45+02:00","demoted":false,"votes_count":1,"helpful_votes_count":1,"voted":false},{"id":72796,"user_id":336979,"review":"Κάτοχος
    το G2 ακριβώς 2 χρόνια... Λοιπόν λιγα και καλα... Ειναι μακράν το καλύτερο κινητό
    για τα λεφτά του που, έχει βγει μεχρι στιγμής.. Μετα απο 2 χρόνια με κρατάει και
    δεν θελω να το αλλάξω που θυμάμαι πάντα τα κινητά μου δεν κρατούσαν ποτε χρόνο
    γιατί τα βαριομουν ή χαλαγαν.. Ακομα και σήμερα  ειναι μερες που με εκπλήσσει
    αυτο το κινητό...ναι οκ λίγο λαγκ 1ος δευτερόλεπτου υπάρχουν αρεα και που ενώ
    του εχω πιεί το αίμα......Μετα απο 2 χρονια....θα δυσκολεφτω πολυ να αλλάξω κινητό...ααα
    πρόσεξε κάνεις οτι στο skroutz ειναι το μονο κινητό με τοσες πολλες καλες κριτικές?
    Κανενα αλλο δεν έχει των ίδιο αριθμό θετικών σχολείων","rating":5,"created_at":"2016-01-18T00:33:52+02:00","demoted":false,"votes_count":1,"helpful_votes_count":1,"voted":false},{"id":68678,"user_id":231398,"review":"Λοιπόν,
    μετά από 1 χρόνο ακριβώς που το έχω στην κατοχή μου ( κι όχι 3 μέρες ή 1 μήνα),
    ήρθε η ώρα  να αξιολογήσω το πολυαγαπημένο μου κινητό με την εμπειρία που έχω
    αποκτήσει μαζί του όλο αυτό το διάστημα. \r\nΕπηρεασμένος από τα θετικά μηνύματα
    \u0026 σχόλια που λάμβανα κι έβλεπα σε αρκετά forums, το G2 ήταν μονόδρομος απο
    την στιγμή που ψάχνεις για value for money κινητό. Ως τέτοιο, παίρνει 5 αστέρια!
    Κι ως κινητό 5 αστεριών το αντιμετώπιζα τους πρώτους 3 μήνες. Τα προβλήματα που
    μου έβγαλε στην συνέχεια, δεν ήταν αρκετα ώστε να πάρει κάτω απο την βάση αλλά
    δεν είναι και για παραπάνω. \r\nΘα επισημάνω λοιπόν θετικά/αρνητικά κι ελπίζω
    να φανεί χρήσιμη η αξιολόγισή μου ( και να μην κούρασα με τον πρόλογο ) \r\nΘετικά:
    \r\n- Παρα πολύ όμορφο design για να του βάλεις θήκη + μεμβράνη. Μετά απο 5 καλές
    τουμπες εχει μόνο ενα μικρό σημάδι κάτω γωνία. Οθόνη καινούργια (όχι σαν καινούργια)\r\n-
    Εντυπωσιακή ανάλυση οθόνης\r\n- Με μέτρια χρήση, κι αν βγάλεις κάποια περιττά
    εφε, βγάζει εως και 1μιση μέρα (το δικό μου τουλάχιστον). Με κανονική χρήση σου
    βγάζει την μέρα άνετα. Το φορτίζω καθε πρωι στην δουλεια με 20% μπαταρία. \r\n-
    Όσο αφορά το multitasking παίρνει 5/5. \r\n- Πολύ καλός επεξεργαστής, δεν έχω
    παίζει παιχνίδι ακόμη που να μου έχει κολλήσει έστω και λίγο ή να μην το σηκώνει.\r\n\r\nΑρνητικά:
    \r\n- Κακά τα ψέμματα, το κινητό έχει lags. Μετά το 3μηνο περίπου, όταν έβγαινα
    απο μια εφαρμογη και πήγαινα στην αρχική μου, τα εικονίδια αναβόσβηναν για 1-2
    δεύτερα. \r\n- Η κάμερα το πρωί ειναι για 4 αστέρια, αλλά το βράδυ ειναι απογοητευτική.
    +Το ίδιο ισχύει για βιντεο\r\n- Αγαπημένο service LG. Πριν απο ένα μήνα, μου χάλασε
    η μπαταρία. Αποφόρτιζε μέσα σε 2 ώρες. Η αλλαγή έγινε δωρεάν καθώς το κάλυπτε
    η εγγύηση. Το κινητό μου γύρισε πίσω με εργοστασιακές ρυθμίσεις!! (για το θεό
    αλλαγή μπαταρίας ήθελε), 2 μεγάλες παράλληλες γραντζουνιές στο πίσω μέρος + καμένο
    pixel στην κάμερα. Δεν μπήκα στον κόπο να βρω το δίκιο μου.\r\n\r\nΕίναι καθαρά
    η προσωπική μου εμπειρία με το κινήτο. Μπορεί κάποια άλλη παρτίδα να μην έχει
    τα ίδια προβλήματα ή να έχει και χειρότερα. Ελπίζω να βοήθησα όσουν ψάχνουν και
    τους συμβουλέυω πως για τα λεφτά του είναι σίγουρα στο top-5.","rating":3,"created_at":"2015-12-14T16:04:34+02:00","demoted":false,"votes_count":12,"helpful_votes_count":8,"voted":false},{"id":68156,"user_id":243937,"review":"Καλό
    και πολύ όμορφο μετά από 2 χρόνια περίπου χρήσης προειδοποιώ όσους δεν το έχουν
    αναβαθμίσει σε lollipop να μην το κάνουν...μου έχει βγάλει παντελώς άχρηστο το
    κινητό πλέον σε βασικές λειτουργίες δεν τα βγάζει πέρα..Η Lg αν και κορεατική
    μάρκα υστερεί υπερβολικά πολύ στο κομμάτι της ενημερώσεις του λειτουργικού...Γενικότερα
    το κινητό είναι καλό απλά για βαριά χρήση όπως κάνω εγώ είναι για τα κλάματα πλέον..","rating":4,"created_at":"2015-12-08T23:27:11+02:00","demoted":false,"votes_count":5,"helpful_votes_count":3,"voted":false},{"id":67774,"user_id":391194,"review":"Πέρα
    από μια ελάχιστη ενόχληση που μου παρουσιάζει η κάμερα (ιδίως όταν δεν έχει φυσικό
    φωτισμό), το κινητό είναι μακράν η καλύτερη αγορά που έχω κάνει. Το πρόλαβα στα
    240 ευρώ πριν 8 μήνες και μέχρι στιγμής δεν μου έχει κολλήσει ποτέ! Η μπαταρία
    του με αρκετή χρήση τόσο σε ομιλία αλλά κυρίως σε σερφάρισμα κρατάει πλέον 1 ημέρα
    γεμάτη. Τα χρώματα στην οθόνη απίστευτα, η ταχύτητα του επεξεργαστή πολύ δυνατή,
    γενικά με έχει βγάλει ασπροπρόσωπο και το συστήνω ανεπιφύλακτα. \r\nΑν και του
    έχω βάλει μια θήκη-γαιδούρι για να το προστατεύσω, η εμφάνισή του είναι πολύ κομψή
    και φινετσάτη. \r\nΓενική βαθμολογία: 9/10 (για τα λεφτά του πάντα).","rating":5,"created_at":"2015-12-04T12:51:38+02:00","demoted":false,"votes_count":1,"helpful_votes_count":1,"voted":false},{"id":67512,"user_id":389993,"review":"έχω
    το κινητό από το καλοκαίρι του 14 και δεν έχω αντιμετωπίσει κανένα πρόβλημα !
    είναι καταπληκτικό , δεν κολλάει ποτέ ... ακόμα και τώρα που μου έσπασε η οθόνη
    η απόδοσή του δεν έχει πέσει ! το συστήνω ανεπιφύλακτα :D","rating":5,"created_at":"2015-12-01T11:18:31+02:00","demoted":false,"votes_count":1,"helpful_votes_count":1,"voted":false},{"id":67171,"user_id":17363,"review":"Εντυπωσιακό,
    γκλαμουρατο, με φοβερά χαρακτηριστικά πλην βέβαια των κακών λήψεων φωτογραφίας
    όταν δεν υπάρχει φυσικός φωτισμός.Πάμε τώρα και στα σοβαρά θέματα.\r\n1)Πλήρης
    αδυναμία εγκατάστασης ενημερώσεων του λειτουργικού του.\r\n2)Στους 9 μήνες τρώω
    το πρώτο σοκ με την οθόνη να κολλάει και το κινητό ουσιαστικά να βγαίνει άχρηστο.Επισκευή
    -εντός εγγύησης- και θεωρητικά όλα καλά.\r\n3)Στους 13 μήνες εκ νέου πρόβλημα
    με την οθόνη η οποία δεν ανταποκρίνεται στην επαφή του χεριού.\r\nΓεια χαρά στην
    lg και μακρυά από μένα.\r\nΤο σχόλιο για το συγκεκριμένο τηλέφωνο γίνεται μετά
    από 13μηνη χρήση κι όχι την πρώτη μέρα που το αγόρασα...","rating":1,"created_at":"2015-11-27T14:29:06+02:00","demoted":false,"votes_count":10,"helpful_votes_count":1,"voted":false},{"id":66457,"user_id":385358,"review":"Το
    απέκτησα μεταχειρισμένο και είχα τις (εύλογες) επιφυλάξεις μου στην αρχή. Με το
    που πέρασαν οι πρώτες μέρες, ήμουν πλέον σίγουρος, πως είχα κάνει ίσως την καλύτερη
    αγορά της ζωής μου. Έτσι απλά. Δεν συγκρίνεται με κανένα άλλο κινητό της ίδιας
    εμβέλειας. Δεν έχω το παραμικρό θέμα με υπερθερμάνσεις και ας παίζω αρκετά βαριά
    παιχνίδια (Dead Trigger 2, Megapolis, Dream League Soccer). Η μπαταρία του ΤΕΡΑΣ.
    Με αρκετό gaming, όπως μόλις ανέφερα, αρκετό browsing ΑΛΛΑ με σχεδόν μηδαμινό
    χρόνο ομιλίας, θα πάει 1 1/2 μέρα ΑΝΕΤΑ. Δεν έχω λόγια. Επενδύστε άνετα και άφοβα
    σε ένα καθαρά Value for money κινητό.","rating":5,"created_at":"2015-11-18T13:07:52+02:00","demoted":false,"votes_count":4,"helpful_votes_count":4,"voted":false},{"id":65951,"user_id":157721,"review":"Μετα
    απο εναν χρονο συνυπαρξης με το G2 μου (το πήρα 7/11/14) μπορω απλα να επιβεβαιωσω
    τις αποψεις τοσο οσων παραμενουν σε αυτο οσο και εκεινων που εχουν παει σε καποιο
    πιο νεο μοντελο αλλα δεν παυουν να λενε τα καλυτερα για αυτο το μοντελο της LG.
    Το θεωρω μακραν το κορυφαιο κινητο των ετων 13-14, το g3 δεν πιανει μπροστα του
    (φιλος το έχει και το παραδέχεται μόνος του) παρα μονο που υπερτερει λιγο σε θεμα
    καμερας και κατι secs σε ταχυτητα.. Με δυο φορματ σε εναν χρονο, ενα για οταν
    πηρα την αναβαθμιση σε 5.0.2 τον Μάιο και ενα πριν απο μιαμιση βδομαδα για να
    το αφησω λιγο να ανασανει, το κινητο απλα ειναι Α-Π-Α-Ι-Χ-Τ-Ο!! Καποτε αλλαζα
    κινητο ανα 10 μηνες, αυτο το κινητο θα το αλλαξω μονο οταν το G4 φτασει στην τιμη
    που πηρα και αυτο (230 γιουρια, σε λευκο). Και παλι θα το σκεφτω πολυ σοβαρα και
    σιγουρα θα το κρατησω στην ακρη γιατι ειλικρινα πιστευω πως τετοιο κινητο, τοσο
    vfm δυσκολα θα ξαναβγει. Ο Snapdragon 800 απλα καταπινει τα παντα και δεν παραπονιεται
    ποτε, μπαταρια απαιχτη, με μετρια χρηση 2 μερες ευκολα, με φουλ λιωσιμο 13-14
    ωρες χαλαρά, καμερα παρα πολυ καλη απλα χανει λιγο σε συνθηκες χαμηλου φωτισμου.
    Με το κιτκατ ηταν ενα κλικ πιο γρηγορο αλλα και με το lollipop πηγαινει σφαιρα.
    Το μονο που με στενοχωρει ειναι οτι ενα τετοιο κοσμημα θα μεινει χωρις το νεο
    λογισμικο (marshmallow) όπως ανακοίνωσε και επίσημα η μαμά LG και θα με αναγκασει
    να του περασω ρομ ενω το stock της lg ειναι πραγματικα απαιχτο. Τα 5* τα εχει
    και θα τα εχει για πρωινο..","rating":5,"created_at":"2015-11-11T20:39:04+02:00","demoted":false,"votes_count":7,"helpful_votes_count":6,"voted":false},{"id":64011,"user_id":373762,"review":"Το
    κινητό το έχω εδώ και 1 χρόνο περίπου και είμαι πολύ ευχαριστημένη . Το κινητό
    πάει σφαίρα , δεν κολλάει αν δεν έχεις πολλές εφαρμογές , είναι όμορφο , μετά
    την αναβάθμιση έγινε ποιο γρήγορο και γενικά μου αρέσει πολύ (:","rating":5,"created_at":"2015-10-18T10:46:39+03:00","demoted":false,"votes_count":3,"helpful_votes_count":2,"voted":false},{"id":63859,"user_id":259815,"review":"κινηταρα!  μπαταρια,
    οθονη, φωτογραφικη μηχανη ολα αψογα. το μονο αρνητικο που μπορω να βρω ειναι οτι
    δεν παιρνει καρτα μνημης για επιπλεον αποθηκευτικο χωρο αν και με συνετη χρηση
    δεν εχεις ποτε προβλημα, ειδικα στην εποχη που ζουμε μπορεις να μεταφερεις τα
    αρχεια σου στον υπολογιστη σε μισο λεπτο ή να παρεις μινι φλασακι αν θες να φορτωνεις
    πολλες ταινιες και ογκωδη αρχεια. \r\n\r\nοσον αφορα τα κοληματα που καποιοι αναφερουν
    οντως μια στο τοσο υπαρχουν αλλα ποτε σε βαθμο που θα εκνευριστεις. εδω που τα
    λεμε μηχανημα ειναι εννοειται θα κολησει καμια φορα ειδικα οταν εχεις να το κανεις
    επανεκιννηση κατι εβδομαδες.  μεχρι και ο πιο δυνατος υπολογιστης του κοσμου μπορει
    να κολησει.","rating":5,"created_at":"2015-10-16T01:14:17+03:00","demoted":false,"votes_count":5,"helpful_votes_count":5,"voted":false},{"id":63092,"user_id":361925,"review":"Εκτος
    απο τα στανταρτ,για το κινητο μπαταρια οθονη,αποδοση,μπορω να πω οτι η LG εχει
    εξαιρετικο σερβις,αφου μου χαλασε η οθονη και μου εφεραν με 2 μερες καθυστεριση
    μονο το κινητο ολοκαινουργιο,χωρις υπερβολες καινουργιο!","rating":5,"created_at":"2015-10-05T13:22:05+03:00","demoted":false,"votes_count":1,"helpful_votes_count":1,"voted":false},{"id":61882,"user_id":361432,"review":"Εχω
    το G2 εδω και 10 μηνες σχεδον και ειμαι πληρως ικανοποιημενος! Πολυ γρηγορες ταχυτητες,
    με πολλες εφαρμογες ταυτοχρονα ανοιχτες, πολυ ωραια αναλυση γραφικων, καθως και
    καμερας! Καποιες φορες βεβαια μπορει να κολλησει οταν παω να το ξεκλειδωσω, οταν
    δεν εχει πολυ σημα κυριως ή οταν κανω updates! Το βαζω ομως 9/10!! LG \u003C3","rating":5,"created_at":"2015-09-16T13:28:43+03:00","demoted":false,"votes_count":3,"helpful_votes_count":2,"voted":false},{"id":61659,"user_id":339967,"review":"Το
    έχω σχεδόν 2 χρόνια και παραμένει ακόμα κτηνάκι. Λόγω βαριάς χρήσης (άπειρα apps
    να τρέχουν ταυτόχρονα) μια στις τόσες κολλάει στο ξεκλείδωμα. + Η φωτογραφική
    παρά το γεγονός πως αργεί να κάνει λήψη είναι καταπληκτική. Το συνιστώ με κλειστά
    τα μάτια.","rating":5,"created_at":"2015-09-12T18:54:41+03:00","demoted":false,"votes_count":5,"helpful_votes_count":5,"voted":false},{"id":61453,"user_id":288009,"review":"Αγόρασα
    το κινητό πριν απο μια εβδομάδα. Η οθόνη του εμφανίζει απο τη στιγμή που το άνοιξα
    κάθετες μαύρες γραμμές, οι οποίες είναι ορατές στην αντανάκλαση του ηλίου. Η lg
    θεώρησε το ελάττωμα αυτό ως εργοστασιακό με αποτέλεσμα να μην καλύψει την επισκευή
    της οθόνης. Είναι υπέροχο κινητό αλλά η lg απλά αξιοθρήνητη.","rating":1,"created_at":"2015-09-09T00:01:22+03:00","demoted":false,"votes_count":28,"helpful_votes_count":8,"voted":false},{"id":60922,"user_id":115124,"review":"Το
    κινητό το εχω 1.5 χρονο.  Πραγματικά ειναι η πρώτη φορα που εχω μεινει απόλυτα
    ικανοποιημενος απο ενα κινητο με αυτα τα χαρακτηριστικά και σε αυτη την τιμη.  Το
    κινητο ειναι τούμπανο απο αποψη ποιότητας.  Δεν εχω κατι αρνητικό να αναφέρω,
    παρα μονο τον μικρό αποθηκευτικο χώρο (αν πρόκειται να αποθηκευεις πολλες φωτογραφιες
    και βιντεο) και το οτι δεν δέχεται κάρτα μνήμης.  Σχετικα με την μπαταρία του,
    αν εισαι χρηστης που ολες σου τις ενεργειες τις κανεις με το κινητο, θα χρειαστει
    να το φορτισεις και δεύτερη φορά  σε μια μερα. Αν ομως το χρησιμοποιεις για τα
    των αναγκών σου, τοτε κραταει και 2-3 ημερες, ισως και περισσότερο!! Το συνιστώ
    ανεπιφύλακτα χωρις δεύτερη σκέψη.","rating":5,"created_at":"2015-08-31T16:43:47+03:00","demoted":false,"votes_count":5,"helpful_votes_count":5,"voted":false},{"id":60764,"user_id":354726,"review":"Το
    κινητό το έχω τώρα 9 μήνες.Είναι σφαίρα,πολύ όμορφο,έχει ανύπαρκτα bezzels,ωραία
    κάμερα,τρομερή οθόνη κι τρομερή ΜΠΑΤΑΡΙΑ! (το έβγαλα απο τον φορτίστη στις 19:00
    κι την άλλη μέρα στις 13:00 που το ξεκλείδωσα η μπαταρία ήταν ακόμα στο 100%!)με
    βαρια χρήση βγάζει άνετα μέρα ίσως η καλυτερη αυτονομία σε βαρύ τηλέφωνο! Είναι
    ελαφρύ κι έχει ωραίο κράτημα στο χέρι(αν κι το έχω με θήκη τώρα μην μας πάθει
    κι τίποτα).\r\nΣτα αρνητικά:Αδύναμο σήμα,αδύναμο μικρόφωνο(πρέπει να μιλάω απο
    πολύ κοντά για να ακούγομαι) κι κακή κάμερα για νυχτερινές λήψεις!\r\nΠαρόλα αυτά
    στην τιμή 270ε που το είχα πάρει ήταν ότι καλύτερο.Για τις τωρινές τιμές 310ε
    λόγω CC δεν αξίζει τόσο. Παρόλα αυτά αποτελεί μια πολύ δυνατή συσκευή κι καλύτερη
    για μένα απο το G3!(κι πιο όμορφη κι πιο γρήγορη)","rating":5,"created_at":"2015-08-28T21:37:18+03:00","demoted":false,"votes_count":1,"helpful_votes_count":1,"voted":false},{"id":60522,"user_id":151677,"review":"Από
    που να αρχισω και που να τελειώσω. Το κινητό το έχω περίπου 1,5 χρονο στην κατοχή
    μου και έχω μείνει άναυδος με τις αντοχές του. Έχω αρχίσει να ψάχνω προβλήματα
    για να αλλάξω κινητό αλλά δεν βρίσκω ΚΑΝΕΝΑ. Οι επιδόσεις του είναι άψογες ακόμη
    και 1,5 χρόνο μετά. Νομίζω το κινητό αυτό θα μείνει στην ιστορία ως ένα απο τα
    καλύτερα τον εποχών που πέρασε. Προσωπικά το έχω ρουτάρει και έχω περάσει την
    Cloudy G3 ROM και το κινητό πετάει πραγματικά. \r\nΣας το συστήνω ανεπιφύλακτα.
    Εγώ έχω τα 16GB στην κατοχή μου αν και θα προτιμούσα τα 32GB. Ένα τέτοιο κινητό
    δεν το αλλάζεις και μάλλον θα κάνω κανένα 2χρόνο να το αλλάξω.","rating":5,"created_at":"2015-08-26T04:11:15+03:00","demoted":false,"votes_count":5,"helpful_votes_count":5,"voted":false},{"id":60521,"user_id":97184,"review":"Τελικά
    μετα απο παρακολουθηση 2 ετων περιπου καταφερα και το αγορασα στα 170 ευρω 3 μηνων
    μεταχειρισμενων. Το κινητο ειναι καταπληκτικο τα σπαει. οκ το 16gb αφηνει περιπου
    10,7GB αλλα με ενα στικακι κατα προτιμηση διπλο dual usb  δλδ με micro usb απο
    τη μια και κανονικο usb απο την αλλη καπως διορθωνεται το θεμα. Μου αρεσε πολυ
    για selfie που αναγνωριζει το χερι σου και βγαζει selfie. Αμεσως περασα την αναβαθμιση
    σε λολιποπ, εγινε ελαφρα ταχυτερο αλλα εχω την εντυπωση οτι η μπαταρια τελειωνει
    λιγο γρηγοροτερα απο πριν.  Οποιος κανει αναβαθμιση καλο ειναι να κανει και factory
    reset αυτο το προτεινει και η ιδια η LG. Μην αναφερω αλλα καλουδια οπως τηλεκοντρολ
    μιρακαστ και αψογη συνεργασια με 3d tv της LG. Οσο για φωτο οποιος περιμενει να
    βγαλει νυχτα φωτο τελειες με κινητο δεν ξερει τι του γινεται. Στο λολιποπ ο φακος
    χανεται και γινεται widget, που εχει 3 λειτουργιες ον οφφ και εκπομπη σηματος
    sos. Οποτε αν δεν βρισκεται το φακο ψαξτε τον σαβν εικονιδιο widget και βαλτε
    το στην επιφανεια εργασιας. Πολυ καταπληκτικο ειναι και η χρηση του σαν μεγενθυτικος
    φακος. Κατεβασα ενα δωρεαν απο playstore και οταν κοιταξα πλακετα ηλεκτρονικη
    με χρηση και του led η λεπτομερεια ηταν απιστευτη.\r\n\r\nΕπειδη ειναι αρκετα
    μεγαλο σε μεγεθος και θεωρω οτι γλυστραει πανευκολα απο το χερι μια θηκη οποσδηποτε.
    \r\n\r\nΜεγαλο αγχος που δεν εχει μπαταρια αποσπωμενη γιατι για να την αλλαξεις
    λυνει σχεδον ολο το κινητο αλλα δεν μπορει να ειναι ολα τελεια.\r\n\r\nΘεωρω οτι
    ειναι  καλυτερη αγορα που εχω κανει σε smartphone για κινητο ναυαρχιδα και σε
    τιμη κινεζικου....!\r\n\r\nΑ και στα τεστ απο το G3 της LG το εβγαζε ελαφρως καλυτερο
    και σε θεμα μπαταριας κορυφαιο γιατι το G3 πνιγεται λογω της 2Κ αναλυσης οθονης
    που εχει και σε τετοιες ιντσες δεν εχει και κανενα νοημα!","rating":3,"created_at":"2015-08-26T02:51:04+03:00","demoted":false,"votes_count":2,"helpful_votes_count":2,"voted":false},{"id":60219,"user_id":352359,"review":"Το
    εχω 9 μηνες κι εχω παθει πλακα!!απιστευτο κινητο,απιστευτα γρηγορο, η μπαταρια
    εξαιρετικη,σημα βρισκει ακομα κι εκει που δεν ειχα βρει ποτε ξανα,πολυ δυνατο
    wi-fi, τελεια οθονη και χρωματα... αν του βρισκω ενα αρνητικο, ειναι οταν δουλευω
    το gps ζεσταινεται επικινδυνα μετα απο καποια ωρα. Το προτεινω ανεπιφυλακτα!","rating":5,"created_at":"2015-08-21T22:13:32+03:00","demoted":false,"votes_count":3,"helpful_votes_count":2,"voted":false},{"id":59566,"user_id":345966,"review":"Ένα
    εξαιρετικό προϊόν από μια εταιρία που με εξέπληξε. Μην έχοντας ξαναχρησιμοποιήσει
    LG συσκευή πριν, ήμουν λίγο διστακτικός στην αρχή, όμως πήρα την απόφαση και αγόρασα
    το G2. Είμαι απόλυτα ευχαριστημένος με την συσκευή, το lollipop που φοράει πλέον
    την κάνει να τρέχει ομαλότατα και ανταποκρίνεται σε όλες τις λειτουργίες ακόμα
    και μετά από 8 μήνες χρήσης. Οθόνη και επεξεργαστής κορυφαία χαρακτηριστικά και
    ενώ η κάμερα δεν συγκρίνεται με εκείνη του g4, καταφέρνει και ικανοποιεί τους
    περισσότερους χρήστες. Μεγάλο συν είναι και η διάρκεια της μπαταρίας.","rating":5,"created_at":"2015-08-13T22:36:41+03:00","demoted":false,"votes_count":10,"helpful_votes_count":8,"voted":false},{"id":59498,"user_id":349842,"review":"Το
    να μην εχει πολυ καλο σημα θα το ανεχτω.Το να μην εχει πολυ καλο ηχειο θα το ανεχτω
    και γενικα θα μπορουσα να ανεχτω πολλα.Αλλα να μου ανοιγοκληνει μονο του και με
    τετοια specs δε λεει ρε φιλε.Ποτε ξανα lg.","rating":1,"created_at":"2015-08-13T00:00:48+03:00","demoted":false,"votes_count":33,"helpful_votes_count":6,"voted":false},{"id":57323,"user_id":247411,"review":"Εκπληκτικό
    προϊόν. Το έχω περίπου 2 μήνες. Έχουν περάσει αρκετές συσκευές από τα χέρια μου
    premium, mid range, 5,5.5,6...Είναι η πρώτη φορά που συσκευή με καλύπτει στο 100%.\r\n\r\nΜέγεθος
    τόσο όσο, όχι μικρό, αρκετό για να κάνεις όλες τις εργασίες σου και ταυτόχρονα
    pocket friendly. Ποτέ lag και δουλεύω  αρκετές εφαρμογές παράλληλα. Αυτονομία
    όλα τα λεφτά. Με βαριά χρήση με βρίσκει το βράδυ με 30%.Με νορμάλ χρήση 2 ημέρες
    άνετα. Χρώματα οθόνης ζωντανά και κάμερα τουλάχιστον για λήψεις ημέρας εκπληκτική.
    \r\n\r\nΌσον αφορά τη μνήμη δεν έχω κανένα πρόβλημα αφού ότι αρχείο ανεβαίνει
    στο drive. Εμένα με υπερκαλύπτει. \r\n\r\nΣίγουρο ότι θα το κρατήσω αρκετό καιρό.
    Το συνιστώ χωρίς καμία επιφύλαξη.","rating":5,"created_at":"2015-07-09T17:12:54+03:00","demoted":false,"votes_count":11,"helpful_votes_count":10,"voted":false},{"id":57240,"user_id":340459,"review":"πολύ
    καλό κντ...το έχω 1 μήνα περίπου..δεν κολλάει καθόλου..οι κάμερες τέλειες αλλά
    με φλας μέτριες...ένα κακό οτι δεν παίρνει sd αλλα με ένα στικάκι παλεύεται...τα
    ακουστικά χάλια αλλα κντ αγοράζεις όχι ακουστικά...η μπαταρία με φούλ χρήση μια
    μέρα με μέτρια δύο...γενικά τέλειο αξίζει κάθε ευρώ για όποιον μπορεί να διαθέσει!!","rating":5,"created_at":"2015-07-07T17:07:17+03:00","demoted":false,"votes_count":3,"helpful_votes_count":3,"voted":false},{"id":57093,"user_id":333171,"review":"Το
    κινητο πεταει ..το εχω μισο χρονο περιπου ..δεν εχει βγαλει καποιο προβλημα..δεν.κολλαει
    ..με εξαιρεση καποιες μικρες περιπτωσεις ..ειναι ταχυτατο ...προσωπικα η.μπαταρια
    μου.κραταει μιαμιση μερα με φουλ χρηση τωρα τελευταια βεβαια χανει πιο ευκολα
    την.μπαταρια αλλα δεν.μ.ενοχλει οποτε ενταξει ..στο θεμα φορτισης σε μια ωρα απο
    το 5% παει στο 100%..αψογη οθονη με φωτεινα χρωματα σε ορισμενα παιχνιδια ειναι
    σαν.να εισαι μεσα στο.παιχνιδι ...εχω την.εκδοση με 16 gb αλλα μ φαινονται. Αρκετα
    με πολλες εφαρμογες με χιλιαδες φωτογραφιες και τραγουδια εχω 6gb περιπου ελευθερα
    ..το μεγεθος. Με βολευει α πολυτα τα κουμπια απο.πισω σε 1 μερα τα συνηθισα. ...οσο
    για τις καμερες που εχει πετανε ..πολυ καλες φωτογραφιες ..αξιζει τα λεφτα.του
    ...ειμαι πολυ ευχαριστημενος. ...η lg εκανε φοβερη δουλεια ...αυτο που με ενοχλει
    ειναι τα.ακουστικα ..και οτι δεν.εχει πολυ.δυνατο ηχειο ..ειναι χαμηλο και δεν.ακουγεται
    δυνατο","rating":5,"created_at":"2015-07-03T16:21:22+03:00","demoted":false,"votes_count":6,"helpful_votes_count":6,"voted":false}],"meta":{"pagination":{"total_results":445,"total_pages":18,"page":1,"per":25}}}'
:created_at: 2016-01-21 15:29:51.806229142 +02:00
